ISO-10303-21;
HEADER;
FILE_DESCRIPTION (( 'STEP AP203' ),
    '1' );
FILE_NAME ('Drive Shaft Cover_v2.STEP',
    '2018-11-27T15:26:58',
    ( '' ),
    ( '' ),
    'SwSTEP 2.0',
    'SolidWorks 2017',
    '' );
FILE_SCHEMA (( 'CONFIG_CONTROL_DESIGN' ));
ENDSEC;

DATA;
#1 = CONICAL_SURFACE ( 'NONE', #734, 2.200000000000000600, 0.7853981633974482800 ) ;
#2 = ORIENTED_EDGE ( 'NONE', *, *, #91, .T. ) ;
#3 = CARTESIAN_POINT ( 'NONE',  ( -5.864999999999974500, 1.100000000000000100, 3.233333333332954600 ) ) ;
#4 = VECTOR ( 'NONE', #725, 1000.000000000000000 ) ;
#5 = EDGE_LOOP ( 'NONE', ( #159, #698, #572, #131 ) ) ;
#6 = CARTESIAN_POINT ( 'NONE',  ( -6.365061456939189500, 1.100000000000000100, 2.399012108155159000 ) ) ;
#7 = EDGE_CURVE ( 'NONE', #474, #422, #43, .T. ) ;
#8 = EDGE_LOOP ( 'NONE', ( #423, #365, #694, #112 ) ) ;
#9 = DIRECTION ( 'NONE',  ( 0.0000000000000000000, 1.000000000000000000, 0.0000000000000000000 ) ) ;
#10 = CYLINDRICAL_SURFACE ( 'NONE', #103, 1.349999999999998800 ) ;
#11 = VERTEX_POINT ( 'NONE', #711 ) ;
#12 = DIRECTION ( 'NONE',  ( -0.0000000000000000000, -1.000000000000000000, -0.0000000000000000000 ) ) ;
#13 = AXIS2_PLACEMENT_3D ( 'NONE', #49, #458, #562 ) ;
#14 = DIRECTION ( 'NONE',  ( 0.0000000000000000000, 0.0000000000000000000, -1.000000000000000000 ) ) ;
#15 = EDGE_LOOP ( 'NONE', ( #453, #476, #168, #363 ) ) ;
#16 = DIRECTION ( 'NONE',  ( 0.0000000000000000000, 0.0000000000000000000, -1.000000000000000000 ) ) ;
#17 = VERTEX_POINT ( 'NONE', #720 ) ;
#18 =( NAMED_UNIT ( * ) PLANE_ANGLE_UNIT ( ) SI_UNIT ( $, .RADIAN. ) );
#19 = CC_DESIGN_PERSON_AND_ORGANIZATION_ASSIGNMENT ( #735, #387, ( #504 ) ) ;
#20 = EDGE_CURVE ( 'NONE', #17, #223, #740, .T. ) ;
#21 = APPLICATION_CONTEXT ( 'configuration controlled 3d designs of mechanical parts and assemblies' ) ;
#22 = ORIENTED_EDGE ( 'NONE', *, *, #195, .F. ) ;
#23 = CARTESIAN_POINT ( 'NONE',  ( -5.864999999999974500, 0.0000000000000000000, 0.5333333333337341200 ) ) ;
#24 = DIRECTION ( 'NONE',  ( 0.0000000000000000000, -1.000000000000000000, 0.0000000000000000000 ) ) ;
#25 = ORIENTED_EDGE ( 'NONE', *, *, #255, .F. ) ;
#26 = CARTESIAN_POINT ( 'NONE',  ( -5.864999999999974500, 1.100000000000000100, 0.5333333333337341200 ) ) ;
#27 = VERTEX_POINT ( 'NONE', #191 ) ;
#28 = ADVANCED_FACE ( 'NONE', ( #635 ), #183, .T. ) ;
#29 = APPROVAL_ROLE ( '' ) ;
#30 = APPROVAL_PERSON_ORGANIZATION ( #50, #512, #29 ) ;
#31 = VECTOR ( 'NONE', #574, 1000.000000000000000 ) ;
#32 = EDGE_CURVE ( 'NONE', #277, #17, #429, .T. ) ;
#33 = FACE_OUTER_BOUND ( 'NONE', #503, .T. ) ;
#34 = DATE_TIME_ROLE ( 'creation_date' ) ;
#35 = EDGE_LOOP ( 'NONE', ( #199, #544, #74, #341 ) ) ;
#36 = ORIENTED_EDGE ( 'NONE', *, *, #514, .T. ) ;
#37 = ORIENTED_EDGE ( 'NONE', *, *, #63, .T. ) ;
#38 = AXIS2_PLACEMENT_3D ( 'NONE', #659, #431, #433 ) ;
#39 = DIRECTION ( 'NONE',  ( -0.0000000000000000000, -1.000000000000000000, -0.0000000000000000000 ) ) ;
#40 = ADVANCED_BREP_SHAPE_REPRESENTATION ( 'Drive Shaft Cover_v2', ( #369, #522 ), #577 ) ;
#41 = CIRCLE ( 'NONE', #140, 1.349999999999610200 ) ;
#42 = DIRECTION ( 'NONE',  ( 0.0000000000000000000, -0.0000000000000000000, 1.000000000000000000 ) ) ;
#43 = LINE ( 'NONE', #524, #292 ) ;
#44 = EDGE_CURVE ( 'NONE', #394, #17, #604, .T. ) ;
#45 = DIRECTION ( 'NONE',  ( -0.0000000000000000000, -1.000000000000000000, -0.0000000000000000000 ) ) ;
#46 = EDGE_LOOP ( 'NONE', ( #402, #448, #563, #669 ) ) ;
#47 = DIRECTION ( 'NONE',  ( 0.0000000000000000000, 0.0000000000000000000, -1.000000000000000000 ) ) ;
#48 = EDGE_CURVE ( 'NONE', #411, #215, #586, .T. ) ;
#49 = CARTESIAN_POINT ( 'NONE',  ( -6.365061456939189500, 0.0000000000000000000, 2.399012108155159000 ) ) ;
#50 = PERSON_AND_ORGANIZATION ( #403, #137 ) ;
#51 = CONICAL_SURFACE ( 'NONE', #585, 2.200000000000000600, 0.7853981633974479500 ) ;
#52 = DIRECTION ( 'NONE',  ( 0.0000000000000000000, 0.0000000000000000000, 1.000000000000000000 ) ) ;
#53 = DIRECTION ( 'NONE',  ( -0.0000000000000000000, -1.000000000000000000, -0.0000000000000000000 ) ) ;
#54 = ORIENTED_EDGE ( 'NONE', *, *, #304, .T. ) ;
#55 = VERTEX_POINT ( 'NONE', #81 ) ;
#56 = AXIS2_PLACEMENT_3D ( 'NONE', #356, #72, #587 ) ;
#57 = CARTESIAN_POINT ( 'NONE',  ( -8.364999999999973600, 1.100000000000000100, 2.383333333333344900 ) ) ;
#58 = CALENDAR_DATE ( 2018, 27, 11 ) ;
#59 = CARTESIAN_POINT ( 'NONE',  ( 6.635000000000030000, 1.100000000000001900, 0.08333333333334497200 ) ) ;
#60 = LINE ( 'NONE', #459, #163 ) ;
#61 = VECTOR ( 'NONE', #650, 1000.000000000000000 ) ;
#62 = DIRECTION ( 'NONE',  ( 0.0000000000000000000, 0.0000000000000000000, 1.000000000000000000 ) ) ;
#63 = EDGE_CURVE ( 'NONE', #655, #452, #153, .T. ) ;
#64 = CARTESIAN_POINT ( 'NONE',  ( 3.385000000000026900, 0.0000000000000000000, -8.616666666666656500 ) ) ;
#65 = EDGE_LOOP ( 'NONE', ( #440, #213 ) ) ;
#66 = CARTESIAN_POINT ( 'NONE',  ( -6.365061456939189500, 1.100000000000000100, 2.399012108155159000 ) ) ;
#67 = DIRECTION ( 'NONE',  ( -0.0000000000000000000, -1.000000000000000000, -0.0000000000000000000 ) ) ;
#68 = PLANE ( 'NONE',  #716 ) ;
#69 = FACE_BOUND ( 'NONE', #358, .T. ) ;
#70 = FACE_OUTER_BOUND ( 'NONE', #15, .T. ) ;
#71 = CARTESIAN_POINT ( 'NONE',  ( -5.864999999999974500, 1.100000000000000100, 1.883333333333344400 ) ) ;
#72 = DIRECTION ( 'NONE',  ( -0.0000000000000000000, 1.000000000000000000, -0.0000000000000000000 ) ) ;
#73 = EDGE_CURVE ( 'NONE', #157, #394, #627, .T. ) ;
#74 = ORIENTED_EDGE ( 'NONE', *, *, #189, .F. ) ;
#75 = VERTEX_POINT ( 'NONE', #132 ) ;
#76 = AXIS2_PLACEMENT_3D ( 'NONE', #247, #435, #257 ) ;
#77 = CARTESIAN_POINT ( 'NONE',  ( 0.0000000000000000000, 0.0000000000000000000, 0.0000000000000000000 ) ) ;
#78 = CARTESIAN_POINT ( 'NONE',  ( -6.614999999999975300, 1.100000000000000100, -8.616666666666656500 ) ) ;
#79 = LINE ( 'NONE', #160, #93 ) ;
#80 = ORIENTED_EDGE ( 'NONE', *, *, #677, .T. ) ;
#81 = CARTESIAN_POINT ( 'NONE',  ( -0.6149999999999726800, 0.0000000000000000000, 1.883333333333347100 ) ) ;
#82 = DIRECTION ( 'NONE',  ( 0.0000000000000000000, 1.000000000000000000, 0.0000000000000000000 ) ) ;
#83 = CARTESIAN_POINT ( 'NONE',  ( -5.864999999999972700, 0.2499999999996114200, -6.116666666666655600 ) ) ;
#84 = AXIS2_PLACEMENT_3D ( 'NONE', #642, #699, #295 ) ;
#85 = APPLICATION_PROTOCOL_DEFINITION ( 'international standard', 'config_control_design', 1994, #21 ) ;
#86 = CARTESIAN_POINT ( 'NONE',  ( 6.635000000000030000, 0.2499999999999990300, -3.466666666666654400 ) ) ;
#87 = ORIENTED_EDGE ( 'NONE', *, *, #494, .T. ) ;
#88 = ORIENTED_EDGE ( 'NONE', *, *, #443, .F. ) ;
#89 = ADVANCED_FACE ( 'NONE', ( #560 ), #118, .F. ) ;
#90 = CONICAL_SURFACE ( 'NONE', #343, 2.200000000000000600, 0.7853981633974482800 ) ;
#91 = EDGE_CURVE ( 'NONE', #367, #510, #138, .T. ) ;
#92 = CARTESIAN_POINT ( 'NONE',  ( 3.385000000000026900, 1.100000000000000100, 4.383333333333345300 ) ) ;
#93 = VECTOR ( 'NONE', #624, 1000.000000000000000 ) ;
#94 = DIRECTION ( 'NONE',  ( 0.0000000000000000000, 0.0000000000000000000, 1.000000000000000000 ) ) ;
#95 = ADVANCED_FACE ( 'NONE', ( #718 ), #1, .F. ) ;
#96 = EDGE_LOOP ( 'NONE', ( #641, #222, #306, #578 ) ) ;
#97 = PRODUCT_RELATED_PRODUCT_CATEGORY ( 'detail', '', ( #752 ) ) ;
#98 = CC_DESIGN_PERSON_AND_ORGANIZATION_ASSIGNMENT ( #346, #323, ( #209 ) ) ;
#99 = CARTESIAN_POINT ( 'NONE',  ( -5.864999999999972700, 0.0000000000000000000, -6.116666666666655600 ) ) ;
#100 = VERTEX_POINT ( 'NONE', #327 ) ;
#101 = DIRECTION ( 'NONE',  ( -0.0000000000000000000, 1.000000000000000000, -0.0000000000000000000 ) ) ;
#102 = EDGE_LOOP ( 'NONE', ( #696, #537 ) ) ;
#103 = AXIS2_PLACEMENT_3D ( 'NONE', #339, #568, #47 ) ;
#104 = FACE_OUTER_BOUND ( 'NONE', #525, .T. ) ;
#105 = ORIENTED_EDGE ( 'NONE', *, *, #482, .T. ) ;
#106 = DIRECTION ( 'NONE',  ( 1.000000000000000000, 0.0000000000000000000, -0.0000000000000000000 ) ) ;
#107 = CC_DESIGN_DATE_AND_TIME_ASSIGNMENT ( #271, #329, ( #504 ) ) ;
#108 = ORIENTED_EDGE ( 'NONE', *, *, #361, .F. ) ;
#109 = AXIS2_PLACEMENT_3D ( 'NONE', #439, #321, #603 ) ;
#110 = ADVANCED_FACE ( 'NONE', ( #409 ), #282, .F. ) ;
#111 = AXIS2_PLACEMENT_3D ( 'NONE', #71, #128, #473 ) ;
#112 = ORIENTED_EDGE ( 'NONE', *, *, #332, .F. ) ;
#113 = FACE_OUTER_BOUND ( 'NONE', #35, .T. ) ;
#114 = CARTESIAN_POINT ( 'NONE',  ( 3.385000000000026900, 0.0000000000000000000, -2.116666666666655600 ) ) ;
#115 = CARTESIAN_POINT ( 'NONE',  ( 6.635000000000030000, 1.100000000000000100, -2.116666666666655600 ) ) ;
#116 = CIRCLE ( 'NONE', #597, 1.349999999999610200 ) ;
#117 = CC_DESIGN_APPROVAL ( #512, ( #643 ) ) ;
#118 = CYLINDRICAL_SURFACE ( 'NONE', #750, 1.349999999999610400 ) ;
#119 = DIRECTION ( 'NONE',  ( 0.0000000000000000000, 0.0000000000000000000, 1.000000000000000000 ) ) ;
#120 = LINE ( 'NONE', #214, #727 ) ;
#121 = EDGE_CURVE ( 'NONE', #75, #157, #687, .T. ) ;
#122 = CARTESIAN_POINT ( 'NONE',  ( -0.6149999999999726800, 1.100000000000000100, 1.883333333333347100 ) ) ;
#123 = CARTESIAN_POINT ( 'NONE',  ( -5.864999999999974500, 1.100000000000001900, 1.883333333333344400 ) ) ;
#124 = ORIENTED_EDGE ( 'NONE', *, *, #20, .F. ) ;
#125 = DIRECTION ( 'NONE',  ( 0.0000000000000000000, -0.0000000000000000000, 1.000000000000000000 ) ) ;
#126 = PERSON_AND_ORGANIZATION ( #403, #137 ) ;
#127 = CIRCLE ( 'NONE', #538, 1.349999999999610200 ) ;
#128 = DIRECTION ( 'NONE',  ( -0.0000000000000000000, -1.000000000000000000, -0.0000000000000000000 ) ) ;
#129 = VECTOR ( 'NONE', #171, 1000.000000000000000 ) ;
#130 = CARTESIAN_POINT ( 'NONE',  ( 6.635000000000030000, 0.2499999999999990300, -0.7666666666666570600 ) ) ;
#131 = ORIENTED_EDGE ( 'NONE', *, *, #695, .T. ) ;
#132 = CARTESIAN_POINT ( 'NONE',  ( 3.385000000000026900, 1.100000000000000100, -8.616666666666656500 ) ) ;
#133 = ORIENTED_EDGE ( 'NONE', *, *, #527, .T. ) ;
#134 = DIRECTION ( 'NONE',  ( 0.0000000000000000000, 1.000000000000000000, 0.0000000000000000000 ) ) ;
#135 = EDGE_CURVE ( 'NONE', #244, #510, #492, .T. ) ;
#136 = CARTESIAN_POINT ( 'NONE',  ( -0.6149999999999732300, 0.0000000000000000000, -2.116666666666655600 ) ) ;
#137 = ORGANIZATION ( 'UNSPECIFIED', 'UNSPECIFIED', '' ) ;
#138 = CIRCLE ( 'NONE', #549, 2.200000000000000600 ) ;
#139 = APPLICATION_CONTEXT ( 'configuration controlled 3d designs of mechanical parts and assemblies' ) ;
#140 = AXIS2_PLACEMENT_3D ( 'NONE', #187, #526, #594 ) ;
#141 = EDGE_CURVE ( 'NONE', #314, #394, #120, .T. ) ;
#142 = DIRECTION ( 'NONE',  ( 0.0000000000000000000, 1.000000000000000000, 0.0000000000000000000 ) ) ;
#143 = EDGE_LOOP ( 'NONE', ( #683, #713 ) ) ;
#144 = ORIENTED_EDGE ( 'NONE', *, *, #20, .T. ) ;
#145 = SHAPE_DEFINITION_REPRESENTATION ( #611, #40 ) ;
#146 = LINE ( 'NONE', #536, #308 ) ;
#147 = VERTEX_POINT ( 'NONE', #273 ) ;
#148 = VERTEX_POINT ( 'NONE', #628 ) ;
#149 = AXIS2_PLACEMENT_3D ( 'NONE', #115, #162, #583 ) ;
#150 = EDGE_LOOP ( 'NONE', ( #260, #484, #37, #485 ) ) ;
#151 = EDGE_CURVE ( 'NONE', #697, #428, #661, .T. ) ;
#152 = LOCAL_TIME ( 15, 26, 58.00000000000000000, #511 ) ;
#153 = LINE ( 'NONE', #317, #309 ) ;
#154 = CARTESIAN_POINT ( 'NONE',  ( 6.635000000000030000, 1.100000000000001900, -2.116666666666655600 ) ) ;
#155 = ADVANCED_FACE ( 'NONE', ( #645 ), #283, .F. ) ;
#156 = ADVANCED_FACE ( 'NONE', ( #540 ), #68, .F. ) ;
#157 = VERTEX_POINT ( 'NONE', #64 ) ;
#158 = EDGE_CURVE ( 'NONE', #277, #148, #567, .T. ) ;
#159 = ORIENTED_EDGE ( 'NONE', *, *, #571, .T. ) ;
#160 = CARTESIAN_POINT ( 'NONE',  ( 6.635000000000030000, 1.100000000000000100, -0.7666666666666570600 ) ) ;
#161 = FACE_OUTER_BOUND ( 'NONE', #298, .T. ) ;
#162 = DIRECTION ( 'NONE',  ( -0.0000000000000000000, -1.000000000000000000, -0.0000000000000000000 ) ) ;
#163 = VECTOR ( 'NONE', #240, 1000.000000000000000 ) ;
#164 = EDGE_CURVE ( 'NONE', #100, #428, #419, .T. ) ;
#165 = VECTOR ( 'NONE', #194, 1000.000000000000000 ) ;
#166 = DIRECTION ( 'NONE',  ( -0.0000000000000000000, -1.000000000000000000, -0.0000000000000000000 ) ) ;
#167 = AXIS2_PLACEMENT_3D ( 'NONE', #185, #668, #94 ) ;
#168 = ORIENTED_EDGE ( 'NONE', *, *, #590, .T. ) ;
#169 = DIRECTION ( 'NONE',  ( -0.0000000000000000000, -1.000000000000000000, -0.0000000000000000000 ) ) ;
#170 = ORIENTED_EDGE ( 'NONE', *, *, #32, .T. ) ;
#171 = DIRECTION ( 'NONE',  ( -1.000000000000000000, 0.0000000000000000000, 0.0000000000000000000 ) ) ;
#172 = FACE_OUTER_BOUND ( 'NONE', #564, .T. ) ;
#173 = CARTESIAN_POINT ( 'NONE',  ( -6.614999999999975300, 1.100000000000000100, 4.383333333333345300 ) ) ;
#174 = EDGE_CURVE ( 'NONE', #655, #474, #455, .T. ) ;
#175 = DIRECTION ( 'NONE',  ( 0.0000000000000000000, 0.0000000000000000000, 1.000000000000000000 ) ) ;
#176 = DIRECTION ( 'NONE',  ( 0.0000000000000000000, 0.0000000000000000000, 1.000000000000000000 ) ) ;
#177 = DIRECTION ( 'NONE',  ( 0.0000000000000000000, 1.000000000000000000, 0.0000000000000000000 ) ) ;
#178 = DIRECTION ( 'NONE',  ( -0.0000000000000000000, -1.000000000000000000, -0.0000000000000000000 ) ) ;
#179 = VERTEX_POINT ( 'NONE', #122 ) ;
#180 = EDGE_CURVE ( 'NONE', #261, #466, #508, .T. ) ;
#181 = CIRCLE ( 'NONE', #109, 2.200000000000000600 ) ;
#182 = FACE_OUTER_BOUND ( 'NONE', #690, .T. ) ;
#183 = CYLINDRICAL_SURFACE ( 'NONE', #345, 2.000000000000000900 ) ;
#184 = DIRECTION ( 'NONE',  ( -0.0000000000000000000, 1.000000000000000000, -0.0000000000000000000 ) ) ;
#185 = CARTESIAN_POINT ( 'NONE',  ( -5.864999999999972700, 1.100000000000001900, -6.116666666666655600 ) ) ;
#186 = ORIENTED_EDGE ( 'NONE', *, *, #361, .T. ) ;
#187 = CARTESIAN_POINT ( 'NONE',  ( -5.864999999999974500, 0.0000000000000000000, 1.883333333333344400 ) ) ;
#188 = EDGE_LOOP ( 'NONE', ( #546, #252 ) ) ;
#189 = EDGE_CURVE ( 'NONE', #466, #374, #193, .T. ) ;
#190 = CARTESIAN_POINT ( 'NONE',  ( -0.6149999999999732300, 1.100000000000000100, -2.116666666666655600 ) ) ;
#191 = CARTESIAN_POINT ( 'NONE',  ( -6.614999999999975300, 0.0000000000000000000, 4.383333333333345300 ) ) ;
#192 = FACE_OUTER_BOUND ( 'NONE', #150, .T. ) ;
#193 = CIRCLE ( 'NONE', #685, 1.349999999999998500 ) ;
#194 = DIRECTION ( 'NONE',  ( 8.659560562354931600E-017, 0.7071067811865475700, -0.7071067811865474600 ) ) ;
#195 = EDGE_CURVE ( 'NONE', #215, #235, #520, .T. ) ;
#196 = DIRECTION ( 'NONE',  ( -0.0000000000000000000, -1.000000000000000000, -0.0000000000000000000 ) ) ;
#197 = ORIENTED_EDGE ( 'NONE', *, *, #543, .F. ) ;
#198 = APPLICATION_PROTOCOL_DEFINITION ( 'international standard', 'config_control_design', 1994, #139 ) ;
#199 = ORIENTED_EDGE ( 'NONE', *, *, #532, .F. ) ;
#200 = EDGE_CURVE ( 'NONE', #411, #100, #481, .T. ) ;
#201 = ADVANCED_FACE ( 'NONE', ( #33 ), #617, .F. ) ;
#202 = DIRECTION ( 'NONE',  ( -0.0000000000000000000, 1.000000000000000000, -0.0000000000000000000 ) ) ;
#203 = APPROVAL_PERSON_ORGANIZATION ( #529, #736, #672 ) ;
#204 = CIRCLE ( 'NONE', #84, 1.349999999999998500 ) ;
#205 = APPROVAL_STATUS ( 'not_yet_approved' ) ;
#206 = CARTESIAN_POINT ( 'NONE',  ( 6.635000000000030000, 1.100000000000001900, -4.316666666666655800 ) ) ;
#207 = ORIENTED_EDGE ( 'NONE', *, *, #151, .F. ) ;
#208 = ORIENTED_EDGE ( 'NONE', *, *, #532, .T. ) ;
#209 = PRODUCT_DEFINITION ( 'UNKNOWN', '', #643, #256 ) ;
#210 = AXIS2_PLACEMENT_3D ( 'NONE', #245, #67, #416 ) ;
#211 = CYLINDRICAL_SURFACE ( 'NONE', #149, 1.349999999999998800 ) ;
#212 = CARTESIAN_POINT ( 'NONE',  ( -6.614999999999975300, 0.0000000000000000000, 4.383333333333345300 ) ) ;
#213 = ORIENTED_EDGE ( 'NONE', *, *, #275, .T. ) ;
#214 = CARTESIAN_POINT ( 'NONE',  ( -6.614999999999975300, 1.100000000000000100, -8.616666666666656500 ) ) ;
#215 = VERTEX_POINT ( 'NONE', #657 ) ;
#216 = DIRECTION ( 'NONE',  ( 0.0000000000000000000, 0.0000000000000000000, 1.000000000000000000 ) ) ;
#217 = AXIS2_PLACEMENT_3D ( 'NONE', #663, #610, #545 ) ;
#218 = UNCERTAINTY_MEASURE_WITH_UNIT (LENGTH_MEASURE( 1.000000000000000100E-005 ), #723, 'distance_accuracy_value', 'NONE');
#219 = CIRCLE ( 'NONE', #410, 1.349999999999998500 ) ;
#220 = CARTESIAN_POINT ( 'NONE',  ( -5.864999999999974500, 0.2499999999996114200, 3.233333333332954600 ) ) ;
#221 = CARTESIAN_POINT ( 'NONE',  ( 6.635000000000030000, 0.0000000000000000000, -3.466666666666654400 ) ) ;
#222 = ORIENTED_EDGE ( 'NONE', *, *, #554, .T. ) ;
#223 = VERTEX_POINT ( 'NONE', #595 ) ;
#224 = EDGE_CURVE ( 'NONE', #655, #389, #331, .T. ) ;
#225 = ORIENTED_EDGE ( 'NONE', *, *, #91, .F. ) ;
#226 = DIRECTION ( 'NONE',  ( 0.0000000000000000000, -1.000000000000000000, 0.0000000000000000000 ) ) ;
#227 = CC_DESIGN_PERSON_AND_ORGANIZATION_ASSIGNMENT ( #126, #267, ( #643 ) ) ;
#228 = APPROVAL_PERSON_ORGANIZATION ( #406, #682, #444 ) ;
#229 = DIRECTION ( 'NONE',  ( 0.0000000000000000000, 0.0000000000000000000, 1.000000000000000000 ) ) ;
#230 = VECTOR ( 'NONE', #745, 1000.000000000000000 ) ;
#231 = ORIENTED_EDGE ( 'NONE', *, *, #320, .T. ) ;
#232 = VERTEX_POINT ( 'NONE', #487 ) ;
#233 = DIRECTION ( 'NONE',  ( -0.0000000000000000000, 1.000000000000000000, -0.0000000000000000000 ) ) ;
#234 = EDGE_CURVE ( 'NONE', #75, #314, #146, .T. ) ;
#235 = VERTEX_POINT ( 'NONE', #23 ) ;
#236 = CARTESIAN_POINT ( 'NONE',  ( -5.864999999999974500, 1.100000000000001900, 1.883333333333344400 ) ) ;
#237 = DIRECTION ( 'NONE',  ( 0.0000000000000000000, 0.0000000000000000000, 1.000000000000000000 ) ) ;
#238 = CIRCLE ( 'NONE', #738, 1.349999999999610200 ) ;
#239 = CARTESIAN_POINT ( 'NONE',  ( -5.864999999999972700, 0.2499999999996114200, -7.466666666666266200 ) ) ;
#240 = DIRECTION ( 'NONE',  ( 0.0000000000000000000, 0.7071067811865475700, 0.7071067811865474600 ) ) ;
#241 = ORIENTED_EDGE ( 'NONE', *, *, #379, .T. ) ;
#242 = EDGE_CURVE ( 'NONE', #261, #367, #558, .T. ) ;
#243 = CARTESIAN_POINT ( 'NONE',  ( 6.635000000000030000, 0.0000000000000000000, -2.116666666666655600 ) ) ;
#244 = VERTEX_POINT ( 'NONE', #130 ) ;
#245 = CARTESIAN_POINT ( 'NONE',  ( -5.864999999999972700, 1.100000000000000100, -6.116666666666655600 ) ) ;
#246 = VECTOR ( 'NONE', #196, 1000.000000000000000 ) ;
#247 = CARTESIAN_POINT ( 'NONE',  ( -5.864999999999974500, 0.2499999999996114200, 1.883333333333344400 ) ) ;
#248 = CIRCLE ( 'NONE', #294, 4.000000000000002700 ) ;
#249 = AXIS2_PLACEMENT_3D ( 'NONE', #190, #724, #377 ) ;
#250 = VECTOR ( 'NONE', #688, 999.9999999999998900 ) ;
#251 = CARTESIAN_POINT ( 'NONE',  ( -6.365061456939191200, 1.100000000000000100, -6.632345441488472400 ) ) ;
#252 = ORIENTED_EDGE ( 'NONE', *, *, #625, .T. ) ;
#253 = DIRECTION ( 'NONE',  ( 1.000000000000000000, 0.0000000000000000000, 0.0000000000000000000 ) ) ;
#254 = ORIENTED_EDGE ( 'NONE', *, *, #482, .F. ) ;
#255 = EDGE_CURVE ( 'NONE', #223, #27, #737, .T. ) ;
#256 = DESIGN_CONTEXT ( 'detailed design', #139, 'design' ) ;
#257 = DIRECTION ( 'NONE',  ( 0.0000000000000000000, 0.0000000000000000000, 1.000000000000000000 ) ) ;
#258 = CYLINDRICAL_SURFACE ( 'NONE', #210, 1.349999999999610200 ) ;
#259 = APPROVAL_STATUS ( 'not_yet_approved' ) ;
#260 = ORIENTED_EDGE ( 'NONE', *, *, #7, .F. ) ;
#261 = VERTEX_POINT ( 'NONE', #86 ) ;
#262 = AXIS2_PLACEMENT_3D ( 'NONE', #739, #268, #729 ) ;
#263 = ADVANCED_FACE ( 'NONE', ( #390 ), #702, .T. ) ;
#264 = DIRECTION ( 'NONE',  ( 0.0000000000000000000, 0.0000000000000000000, 1.000000000000000000 ) ) ;
#265 = ORIENTED_EDGE ( 'NONE', *, *, #514, .F. ) ;
#266 = DIRECTION ( 'NONE',  ( 0.0000000000000000000, 0.7071067811865475700, 0.7071067811865474600 ) ) ;
#267 = PERSON_AND_ORGANIZATION_ROLE ( 'creator' ) ;
#268 = DIRECTION ( 'NONE',  ( -0.0000000000000000000, -1.000000000000000000, -0.0000000000000000000 ) ) ;
#269 = EDGE_CURVE ( 'NONE', #55, #11, #248, .T. ) ;
#270 = CARTESIAN_POINT ( 'NONE',  ( -0.6149999999999732300, 1.100000000000000100, -2.116666666666655600 ) ) ;
#271 = DATE_AND_TIME ( #584, #318 ) ;
#272 = LINE ( 'NONE', #612, #653 ) ;
#273 = CARTESIAN_POINT ( 'NONE',  ( 3.385000000000026900, 0.0000000000000000000, 4.383333333333345300 ) ) ;
#274 = VECTOR ( 'NONE', #178, 1000.000000000000000 ) ;
#275 = EDGE_CURVE ( 'NONE', #374, #466, #219, .T. ) ;
#276 = DIRECTION ( 'NONE',  ( 0.0000000000000000000, 1.000000000000000000, 0.0000000000000000000 ) ) ;
#277 = VERTEX_POINT ( 'NONE', #665 ) ;
#278 = DIRECTION ( 'NONE',  ( 0.0000000000000000000, 0.0000000000000000000, 1.000000000000000000 ) ) ;
#279 = EDGE_CURVE ( 'NONE', #452, #422, #238, .T. ) ;
#280 = APPROVAL_DATE_TIME ( #489, #682 ) ;
#281 = DATE_AND_TIME ( #573, #754 ) ;
#282 = CYLINDRICAL_SURFACE ( 'NONE', #629, 4.000000000000002700 ) ;
#283 = PLANE ( 'NONE',  #364 ) ;
#284 = CARTESIAN_POINT ( 'NONE',  ( -5.864999999999972700, 0.0000000000000000000, -7.466666666666266200 ) ) ;
#285 = ORIENTED_EDGE ( 'NONE', *, *, #279, .F. ) ;
#286 = ADVANCED_FACE ( 'NONE', ( #70 ), #755, .F. ) ;
#287 = DIRECTION ( 'NONE',  ( 0.0000000000000000000, 0.0000000000000000000, 1.000000000000000000 ) ) ;
#288 = AXIS2_PLACEMENT_3D ( 'NONE', #376, #606, #728 ) ;
#289 = CARTESIAN_POINT ( 'NONE',  ( -0.6149999999999732300, 1.100000000000000100, -6.116666666666658300 ) ) ;
#290 = APPROVAL_DATE_TIME ( #446, #512 ) ;
#291 = FACE_OUTER_BOUND ( 'NONE', #681, .T. ) ;
#292 = VECTOR ( 'NONE', #475, 1000.000000000000000 ) ;
#293 = ORIENTED_EDGE ( 'NONE', *, *, #180, .T. ) ;
#294 = AXIS2_PLACEMENT_3D ( 'NONE', #136, #547, #605 ) ;
#295 = DIRECTION ( 'NONE',  ( 0.0000000000000000000, 0.0000000000000000000, 1.000000000000000000 ) ) ;
#296 = ORIENTED_EDGE ( 'NONE', *, *, #158, .T. ) ;
#297 = VERTEX_POINT ( 'NONE', #502 ) ;
#298 = EDGE_LOOP ( 'NONE', ( #637, #593, #301, #535 ) ) ;
#299 = ORIENTED_EDGE ( 'NONE', *, *, #456, .F. ) ;
#300 = DIRECTION ( 'NONE',  ( 0.0000000000000000000, 0.0000000000000000000, -1.000000000000000000 ) ) ;
#301 = ORIENTED_EDGE ( 'NONE', *, *, #721, .F. ) ;
#302 = DIRECTION ( 'NONE',  ( 0.0000000000000000000, 1.000000000000000000, 0.0000000000000000000 ) ) ;
#303 = AXIS2_PLACEMENT_3D ( 'NONE', #6, #359, #125 ) ;
#304 = EDGE_CURVE ( 'NONE', #474, #655, #575, .T. ) ;
#305 = EDGE_LOOP ( 'NONE', ( #623, #225 ) ) ;
#306 = ORIENTED_EDGE ( 'NONE', *, *, #135, .T. ) ;
#307 = DIRECTION ( 'NONE',  ( 0.0000000000000000000, 0.0000000000000000000, 1.000000000000000000 ) ) ;
#308 = VECTOR ( 'NONE', #600, 1000.000000000000000 ) ;
#309 = VECTOR ( 'NONE', #542, 1000.000000000000000 ) ;
#310 = CARTESIAN_POINT ( 'NONE',  ( -5.864999999999972700, 1.100000000000001900, -8.316666666666655800 ) ) ;
#311 = DIRECTION ( 'NONE',  ( 0.0000000000000000000, 0.0000000000000000000, 1.000000000000000000 ) ) ;
#312 = CC_DESIGN_PERSON_AND_ORGANIZATION_ASSIGNMENT ( #470, #731, ( #643 ) ) ;
#313 = ORIENTED_EDGE ( 'NONE', *, *, #704, .F. ) ;
#314 = VERTEX_POINT ( 'NONE', #78 ) ;
#315 = CARTESIAN_POINT ( 'NONE',  ( -5.864999999999974500, 1.100000000000001900, 4.083333333333345500 ) ) ;
#316 = DIRECTION ( 'NONE',  ( -0.0000000000000000000, -1.000000000000000000, -0.0000000000000000000 ) ) ;
#317 = CARTESIAN_POINT ( 'NONE',  ( -5.864999999999972700, 1.100000000000000100, -7.466666666666266200 ) ) ;
#318 = LOCAL_TIME ( 15, 26, 58.00000000000000000, #425 ) ;
#319 = VERTEX_POINT ( 'NONE', #381 ) ;
#320 = EDGE_CURVE ( 'NONE', #618, #75, #592, .T. ) ;
#321 = DIRECTION ( 'NONE',  ( -0.0000000000000000000, 1.000000000000000000, -0.0000000000000000000 ) ) ;
#322 = DIRECTION ( 'NONE',  ( 0.0000000000000000000, 0.0000000000000000000, 1.000000000000000000 ) ) ;
#323 = PERSON_AND_ORGANIZATION_ROLE ( 'creator' ) ;
#324 = ORIENTED_EDGE ( 'NONE', *, *, #121, .T. ) ;
#325 = EDGE_LOOP ( 'NONE', ( #54, #465, #741, #751 ) ) ;
#326 = ADVANCED_FACE ( 'NONE', ( #172 ), #715, .F. ) ;
#327 = CARTESIAN_POINT ( 'NONE',  ( -5.864999999999974500, 0.2499999999996114200, 0.5333333333337341200 ) ) ;
#328 = CIRCLE ( 'NONE', #217, 2.200000000000000600 ) ;
#329 = DATE_TIME_ROLE ( 'classification_date' ) ;
#330 = FACE_OUTER_BOUND ( 'NONE', #357, .T. ) ;
#331 = LINE ( 'NONE', #310, #165 ) ;
#332 = EDGE_CURVE ( 'NONE', #411, #697, #272, .T. ) ;
#333 = EDGE_LOOP ( 'NONE', ( #313, #589 ) ) ;
#334 = DIRECTION ( 'NONE',  ( 0.0000000000000000000, 0.0000000000000000000, -1.000000000000000000 ) ) ;
#335 = DIRECTION ( 'NONE',  ( -0.0000000000000000000, 1.000000000000000000, -0.0000000000000000000 ) ) ;
#336 = FACE_OUTER_BOUND ( 'NONE', #471, .T. ) ;
#337 = CC_DESIGN_APPROVAL ( #736, ( #209 ) ) ;
#338 = VECTOR ( 'NONE', #530, 1000.000000000000000 ) ;
#339 = CARTESIAN_POINT ( 'NONE',  ( 6.635000000000030000, 1.100000000000000100, -2.116666666666655600 ) ) ;
#340 = PLANE ( 'NONE',  #569 ) ;
#341 = ORIENTED_EDGE ( 'NONE', *, *, #180, .F. ) ;
#342 = ADVANCED_FACE ( 'NONE', ( #104 ), #710, .F. ) ;
#343 = AXIS2_PLACEMENT_3D ( 'NONE', #123, #184, #264 ) ;
#344 = CARTESIAN_POINT ( 'NONE',  ( -6.614999999999975300, 0.0000000000000000000, -8.616666666666656500 ) ) ;
#345 = AXIS2_PLACEMENT_3D ( 'NONE', #66, #415, #300 ) ;
#346 = PERSON_AND_ORGANIZATION ( #403, #137 ) ;
#347 = CARTESIAN_POINT ( 'NONE',  ( -5.864999999999972700, 0.2499999999996114200, -4.766666666667045900 ) ) ;
#348 = VECTOR ( 'NONE', #169, 1000.000000000000000 ) ;
#349 = DIRECTION ( 'NONE',  ( 0.0000000000000000000, 0.0000000000000000000, 1.000000000000000000 ) ) ;
#350 = EDGE_CURVE ( 'NONE', #179, #297, #501, .T. ) ;
#351 = ORIENTED_EDGE ( 'NONE', *, *, #704, .T. ) ;
#352 = LOCAL_TIME ( 15, 26, 58.00000000000000000, #506 ) ;
#353 = CIRCLE ( 'NONE', #519, 6.500000000000000900 ) ;
#354 = VECTOR ( 'NONE', #175, 1000.000000000000000 ) ;
#355 = AXIS2_PLACEMENT_3D ( 'NONE', #270, #684, #287 ) ;
#356 = CARTESIAN_POINT ( 'NONE',  ( -5.864999999999972700, 1.100000000000001900, -6.116666666666655600 ) ) ;
#357 = EDGE_LOOP ( 'NONE', ( #722, #533, #293, #468 ) ) ;
#358 = EDGE_LOOP ( 'NONE', ( #207, #561 ) ) ;
#359 = DIRECTION ( 'NONE',  ( 0.0000000000000000000, 1.000000000000000000, 0.0000000000000000000 ) ) ;
#360 = DATE_AND_TIME ( #747, #152 ) ;
#361 = EDGE_CURVE ( 'NONE', #148, #319, #398, .T. ) ;
#362 = CIRCLE ( 'NONE', #450, 4.000000000000002700 ) ;
#363 = ORIENTED_EDGE ( 'NONE', *, *, #633, .T. ) ;
#364 = AXIS2_PLACEMENT_3D ( 'NONE', #640, #654, #521 ) ;
#365 = ORIENTED_EDGE ( 'NONE', *, *, #164, .T. ) ;
#366 = CARTESIAN_POINT ( 'NONE',  ( 6.635000000000030000, 1.100000000000000100, -3.466666666666654400 ) ) ;
#367 = VERTEX_POINT ( 'NONE', #206 ) ;
#368 = DIRECTION ( 'NONE',  ( 0.0000000000000000000, 0.0000000000000000000, 1.000000000000000000 ) ) ;
#369 = MANIFOLD_SOLID_BREP ( 'CSK for M2 Flat Head Machine Screw1', #434 ) ;
#370 = DIRECTION ( 'NONE',  ( 0.0000000000000000000, 0.0000000000000000000, 1.000000000000000000 ) ) ;
#371 = DIRECTION ( 'NONE',  ( 0.0000000000000000000, 0.0000000000000000000, 1.000000000000000000 ) ) ;
#372 = CIRCLE ( 'NONE', #749, 1.349999999999998500 ) ;
#373 = CARTESIAN_POINT ( 'NONE',  ( -6.365061456939191200, 1.100000000000000100, -6.632345441488472400 ) ) ;
#374 = VERTEX_POINT ( 'NONE', #451 ) ;
#375 = ADVANCED_FACE ( 'NONE', ( #182 ), #340, .F. ) ;
#376 = CARTESIAN_POINT ( 'NONE',  ( -5.864999999999974500, 1.100000000000001900, 1.883333333333344400 ) ) ;
#377 = DIRECTION ( 'NONE',  ( 0.0000000000000000000, 0.0000000000000000000, -1.000000000000000000 ) ) ;
#378 = ORIENTED_EDGE ( 'NONE', *, *, #255, .T. ) ;
#379 = EDGE_CURVE ( 'NONE', #27, #147, #539, .T. ) ;
#380 = DIRECTION ( 'NONE',  ( 0.0000000000000000000, 0.0000000000000000000, 1.000000000000000000 ) ) ;
#381 = CARTESIAN_POINT ( 'NONE',  ( -6.614999999999975300, 1.100000000000000100, 4.383333333333345300 ) ) ;
#382 = ADVANCED_FACE ( 'NONE', ( #113 ), #10, .F. ) ;
#383 =( NAMED_UNIT ( * ) SI_UNIT ( $, .STERADIAN. ) SOLID_ANGLE_UNIT ( ) );
#384 = CARTESIAN_POINT ( 'NONE',  ( -5.864999999999974500, 1.100000000000001900, 1.883333333333344400 ) ) ;
#385 = AXIS2_PLACEMENT_3D ( 'NONE', #719, #316, #16 ) ;
#386 = FACE_BOUND ( 'NONE', #639, .T. ) ;
#387 = PERSON_AND_ORGANIZATION_ROLE ( 'classification_officer' ) ;
#388 = ADVANCED_FACE ( 'NONE', ( #693 ), #51, .F. ) ;
#389 = VERTEX_POINT ( 'NONE', #692 ) ;
#390 = FACE_OUTER_BOUND ( 'NONE', #5, .T. ) ;
#391 = DIRECTION ( 'NONE',  ( -0.0000000000000000000, 1.000000000000000000, -0.0000000000000000000 ) ) ;
#392 = ORIENTED_EDGE ( 'NONE', *, *, #63, .F. ) ;
#393 = CARTESIAN_POINT ( 'NONE',  ( -5.864999999999972700, 0.0000000000000000000, -4.766666666667045900 ) ) ;
#394 = VERTEX_POINT ( 'NONE', #344 ) ;
#395 = CARTESIAN_POINT ( 'NONE',  ( 6.635000000000030000, 1.100000000000001900, 0.08333333333334497200 ) ) ;
#396 = ADVANCED_FACE ( 'NONE', ( #336, #686, #386, #447, #552 ), #399, .F. ) ;
#397 = CARTESIAN_POINT ( 'NONE',  ( 3.385000000000026900, 1.100000000000000100, -8.616666666666656500 ) ) ;
#398 = CIRCLE ( 'NONE', #488, 2.000000000000000900 ) ;
#399 = PLANE ( 'NONE',  #13 ) ;
#400 = CARTESIAN_POINT ( 'NONE',  ( -6.614999999999975300, 1.100000000000000100, 4.383333333333345300 ) ) ;
#401 = EDGE_LOOP ( 'NONE', ( #241, #664, #646, #596 ) ) ;
#402 = ORIENTED_EDGE ( 'NONE', *, *, #200, .F. ) ;
#403 = PERSON ( 'UNSPECIFIED', 'UNSPECIFIED', 'UNSPECIFIED', ('UNSPECIFIED'), ('UNSPECIFIED'), ('UNSPECIFIED') ) ;
#404 = CC_DESIGN_DATE_AND_TIME_ASSIGNMENT ( #360, #34, ( #209 ) ) ;
#405 = DIRECTION ( 'NONE',  ( 0.0000000000000000000, 1.000000000000000000, 0.0000000000000000000 ) ) ;
#406 = PERSON_AND_ORGANIZATION ( #403, #137 ) ;
#407 = CARTESIAN_POINT ( 'NONE',  ( 6.635000000000030000, 0.2499999999999990300, -2.116666666666655600 ) ) ;
#408 = VECTOR ( 'NONE', #426, 999.9999999999998900 ) ;
#409 = FACE_OUTER_BOUND ( 'NONE', #576, .T. ) ;
#410 = AXIS2_PLACEMENT_3D ( 'NONE', #726, #9, #424 ) ;
#411 = VERTEX_POINT ( 'NONE', #220 ) ;
#412 = CARTESIAN_POINT ( 'NONE',  ( -5.864999999999974500, 0.2499999999996114200, 1.883333333333344400 ) ) ;
#413 = DIRECTION ( 'NONE',  ( 0.0000000000000000000, 0.0000000000000000000, -1.000000000000000000 ) ) ;
#414 = ORIENTED_EDGE ( 'NONE', *, *, #543, .T. ) ;
#415 = DIRECTION ( 'NONE',  ( -0.0000000000000000000, -1.000000000000000000, -0.0000000000000000000 ) ) ;
#416 = DIRECTION ( 'NONE',  ( 0.0000000000000000000, 0.0000000000000000000, -1.000000000000000000 ) ) ;
#417 = EDGE_CURVE ( 'NONE', #244, #374, #79, .T. ) ;
#418 = CIRCLE ( 'NONE', #467, 1.999999999999999100 ) ;
#419 = LINE ( 'NONE', #420, #338 ) ;
#420 = CARTESIAN_POINT ( 'NONE',  ( -5.864999999999974500, 1.100000000000001900, -0.3166666666666561000 ) ) ;
#421 = AXIS2_PLACEMENT_3D ( 'NONE', #541, #134, #483 ) ;
#422 = VERTEX_POINT ( 'NONE', #393 ) ;
#423 = ORIENTED_EDGE ( 'NONE', *, *, #200, .T. ) ;
#424 = DIRECTION ( 'NONE',  ( 0.0000000000000000000, 0.0000000000000000000, 1.000000000000000000 ) ) ;
#425 = COORDINATED_UNIVERSAL_TIME_OFFSET ( 0, 0, .AHEAD. ) ;
#426 = DIRECTION ( 'NONE',  ( 8.659560562354930400E-017, 0.7071067811865479100, -0.7071067811865472400 ) ) ;
#427 = FACE_BOUND ( 'NONE', #305, .T. ) ;
#428 = VERTEX_POINT ( 'NONE', #631 ) ;
#429 = LINE ( 'NONE', #706, #274 ) ;
#430 = ORIENTED_EDGE ( 'NONE', *, *, #151, .T. ) ;
#431 = DIRECTION ( 'NONE',  ( 0.0000000000000000000, 1.000000000000000000, 0.0000000000000000000 ) ) ;
#432 = ORIENTED_EDGE ( 'NONE', *, *, #242, .T. ) ;
#433 = DIRECTION ( 'NONE',  ( 0.0000000000000000000, 0.0000000000000000000, 1.000000000000000000 ) ) ;
#434 = CLOSED_SHELL ( 'NONE', ( #95, #675, #442, #89, #382, #201, #326, #630, #396, #28, #155, #263, #375, #689, #156, #622, #110, #498, #607, #388, #342, #286 ) ) ;
#435 = DIRECTION ( 'NONE',  ( 0.0000000000000000000, -1.000000000000000000, 0.0000000000000000000 ) ) ;
#436 = COORDINATED_UNIVERSAL_TIME_OFFSET ( 0, 0, .AHEAD. ) ;
#437 = MECHANICAL_CONTEXT ( 'NONE', #21, 'mechanical' ) ;
#438 = VECTOR ( 'NONE', #12, 1000.000000000000000 ) ;
#439 = CARTESIAN_POINT ( 'NONE',  ( 6.635000000000030000, 1.100000000000001900, -2.116666666666655600 ) ) ;
#440 = ORIENTED_EDGE ( 'NONE', *, *, #189, .T. ) ;
#441 = DIRECTION ( 'NONE',  ( 0.0000000000000000000, 0.0000000000000000000, 1.000000000000000000 ) ) ;
#442 = ADVANCED_FACE ( 'NONE', ( #291 ), #461, .F. ) ;
#443 = EDGE_CURVE ( 'NONE', #297, #11, #531, .T. ) ;
#444 = APPROVAL_ROLE ( '' ) ;
#445 = ORIENTED_EDGE ( 'NONE', *, *, #571, .F. ) ;
#446 = DATE_AND_TIME ( #478, #591 ) ;
#447 = FACE_BOUND ( 'NONE', #65, .T. ) ;
#448 = ORIENTED_EDGE ( 'NONE', *, *, #48, .T. ) ;
#449 = ORIENTED_EDGE ( 'NONE', *, *, #350, .T. ) ;
#450 = AXIS2_PLACEMENT_3D ( 'NONE', #469, #579, #349 ) ;
#451 = CARTESIAN_POINT ( 'NONE',  ( 6.635000000000030000, 0.0000000000000000000, -0.7666666666666570600 ) ) ;
#452 = VERTEX_POINT ( 'NONE', #284 ) ;
#453 = ORIENTED_EDGE ( 'NONE', *, *, #224, .F. ) ;
#454 = CARTESIAN_POINT ( 'NONE',  ( -6.365061456939189500, 1.100000000000000100, 2.399012108155159000 ) ) ;
#455 = CIRCLE ( 'NONE', #556, 1.349999999999610200 ) ;
#456 = EDGE_CURVE ( 'NONE', #319, #27, #491, .T. ) ;
#457 = AXIS2_PLACEMENT_3D ( 'NONE', #384, #202, #732 ) ;
#458 = DIRECTION ( 'NONE',  ( 0.0000000000000000000, 1.000000000000000000, 0.0000000000000000000 ) ) ;
#459 = CARTESIAN_POINT ( 'NONE',  ( -5.864999999999972700, 1.100000000000001900, -3.916666666666655000 ) ) ;
#460 = LINE ( 'NONE', #92, #4 ) ;
#461 = CONICAL_SURFACE ( 'NONE', #670, 2.200000000000000600, 0.7853981633974479500 ) ;
#462 = VECTOR ( 'NONE', #176, 1000.000000000000000 ) ;
#463 = DIRECTION ( 'NONE',  ( -0.0000000000000000000, -1.000000000000000000, -0.0000000000000000000 ) ) ;
#464 = DIRECTION ( 'NONE',  ( 0.0000000000000000000, -1.000000000000000000, 0.0000000000000000000 ) ) ;
#465 = ORIENTED_EDGE ( 'NONE', *, *, #224, .T. ) ;
#466 = VERTEX_POINT ( 'NONE', #221 ) ;
#467 = AXIS2_PLACEMENT_3D ( 'NONE', #373, #497, #368 ) ;
#468 = ORIENTED_EDGE ( 'NONE', *, *, #275, .F. ) ;
#469 = CARTESIAN_POINT ( 'NONE',  ( -0.6149999999999732300, 0.0000000000000000000, -2.116666666666655600 ) ) ;
#470 = PERSON_AND_ORGANIZATION ( #403, #137 ) ;
#471 = EDGE_LOOP ( 'NONE', ( #25, #124, #746, #658, #445, #588 ) ) ;
#472 = CARTESIAN_POINT ( 'NONE',  ( 3.385000000000026900, 0.0000000000000000000, -8.616666666666656500 ) ) ;
#473 = DIRECTION ( 'NONE',  ( 0.0000000000000000000, 0.0000000000000000000, -1.000000000000000000 ) ) ;
#474 = VERTEX_POINT ( 'NONE', #347 ) ;
#475 = DIRECTION ( 'NONE',  ( -0.0000000000000000000, -1.000000000000000000, -0.0000000000000000000 ) ) ;
#476 = ORIENTED_EDGE ( 'NONE', *, *, #174, .T. ) ;
#477 = CARTESIAN_POINT ( 'NONE',  ( 3.385000000000026900, 1.100000000000000100, 4.383333333333345300 ) ) ;
#478 = CALENDAR_DATE ( 2018, 27, 11 ) ;
#479 = VECTOR ( 'NONE', #463, 1000.000000000000000 ) ;
#480 = CC_DESIGN_APPROVAL ( #682, ( #504 ) ) ;
#481 = CIRCLE ( 'NONE', #76, 1.349999999999610200 ) ;
#482 = EDGE_CURVE ( 'NONE', #148, #223, #634, .T. ) ;
#483 = DIRECTION ( 'NONE',  ( 0.0000000000000000000, 0.0000000000000000000, 1.000000000000000000 ) ) ;
#484 = ORIENTED_EDGE ( 'NONE', *, *, #174, .F. ) ;
#485 = ORIENTED_EDGE ( 'NONE', *, *, #625, .F. ) ;
#486 = ORIENTED_EDGE ( 'NONE', *, *, #332, .T. ) ;
#487 = CARTESIAN_POINT ( 'NONE',  ( -5.864999999999972700, 1.100000000000001900, -3.916666666666655000 ) ) ;
#488 = AXIS2_PLACEMENT_3D ( 'NONE', #454, #276, #278 ) ;
#489 = DATE_AND_TIME ( #58, #352 ) ;
#490 = DIRECTION ( 'NONE',  ( 0.0000000000000000000, 1.000000000000000000, 0.0000000000000000000 ) ) ;
#491 = LINE ( 'NONE', #173, #348 ) ;
#492 = LINE ( 'NONE', #395, #250 ) ;
#493 = DIRECTION ( 'NONE',  ( 0.0000000000000000000, -1.000000000000000000, 0.0000000000000000000 ) ) ;
#494 = EDGE_CURVE ( 'NONE', #100, #411, #127, .T. ) ;
#495 = PERSON_AND_ORGANIZATION_ROLE ( 'design_owner' ) ;
#496 = DIRECTION ( 'NONE',  ( 0.0000000000000000000, 0.0000000000000000000, 1.000000000000000000 ) ) ;
#497 = DIRECTION ( 'NONE',  ( 0.0000000000000000000, 1.000000000000000000, 0.0000000000000000000 ) ) ;
#498 = ADVANCED_FACE ( 'NONE', ( #330 ), #211, .F. ) ;
#499 = CARTESIAN_POINT ( 'NONE',  ( 3.385000000000026900, 1.100000000000000100, -2.116666666666655600 ) ) ;
#500 = DIRECTION ( 'NONE',  ( 0.0000000000000000000, 0.0000000000000000000, 1.000000000000000000 ) ) ;
#501 = CIRCLE ( 'NONE', #355, 4.000000000000002700 ) ;
#502 = CARTESIAN_POINT ( 'NONE',  ( -0.6149999999999732300, 1.100000000000000100, -6.116666666666658300 ) ) ;
#503 = EDGE_LOOP ( 'NONE', ( #351, #36, #197, #88 ) ) ;
#504 = SECURITY_CLASSIFICATION ( '', '', #678 ) ;
#505 = CARTESIAN_POINT ( 'NONE',  ( 6.635000000000030000, 1.100000000000001900, -2.116666666666655600 ) ) ;
#506 = COORDINATED_UNIVERSAL_TIME_OFFSET ( 0, 0, .AHEAD. ) ;
#507 = FACE_OUTER_BOUND ( 'NONE', #717, .T. ) ;
#508 = LINE ( 'NONE', #366, #438 ) ;
#509 = AXIS2_PLACEMENT_3D ( 'NONE', #619, #24, #614 ) ;
#510 = VERTEX_POINT ( 'NONE', #59 ) ;
#511 = COORDINATED_UNIVERSAL_TIME_OFFSET ( 0, 0, .AHEAD. ) ;
#512 = APPROVAL ( #205, 'UNSPECIFIED' ) ;
#513 = VECTOR ( 'NONE', #166, 1000.000000000000000 ) ;
#514 = EDGE_CURVE ( 'NONE', #179, #55, #660, .T. ) ;
#515 = ORIENTED_EDGE ( 'NONE', *, *, #135, .F. ) ;
#516 = CARTESIAN_POINT ( 'NONE',  ( -0.6149999999999726800, 1.100000000000000100, 1.883333333333347100 ) ) ;
#517 = ORIENTED_EDGE ( 'NONE', *, *, #234, .T. ) ;
#518 = LINE ( 'NONE', #400, #31 ) ;
#519 = AXIS2_PLACEMENT_3D ( 'NONE', #114, #405, #52 ) ;
#520 = CIRCLE ( 'NONE', #38, 1.349999999999610200 ) ;
#521 = DIRECTION ( 'NONE',  ( -1.000000000000000000, 0.0000000000000000000, -0.0000000000000000000 ) ) ;
#522 = AXIS2_PLACEMENT_3D ( 'NONE', #77, #380, #253 ) ;
#523 = CARTESIAN_POINT ( 'NONE',  ( -8.364999999999973600, 1.100000000000000100, -6.616666666666656500 ) ) ;
#524 = CARTESIAN_POINT ( 'NONE',  ( -5.864999999999972700, 1.100000000000000100, -4.766666666667045900 ) ) ;
#525 = EDGE_LOOP ( 'NONE', ( #580, #87, #486, #430 ) ) ;
#526 = DIRECTION ( 'NONE',  ( 0.0000000000000000000, 1.000000000000000000, 0.0000000000000000000 ) ) ;
#527 = EDGE_CURVE ( 'NONE', #319, #618, #518, .T. ) ;
#528 = CARTESIAN_POINT ( 'NONE',  ( -6.365061456939191200, 0.0000000000000000000, -6.632345441488472400 ) ) ;
#529 = PERSON_AND_ORGANIZATION ( #403, #137 ) ;
#530 = DIRECTION ( 'NONE',  ( 8.659560562354931600E-017, 0.7071067811865475700, -0.7071067811865474600 ) ) ;
#531 = LINE ( 'NONE', #289, #674 ) ;
#532 = EDGE_CURVE ( 'NONE', #244, #261, #204, .T. ) ;
#533 = ORIENTED_EDGE ( 'NONE', *, *, #554, .F. ) ;
#534 = CARTESIAN_POINT ( 'NONE',  ( -5.864999999999972700, 0.0000000000000000000, -6.116666666666655600 ) ) ;
#535 = ORIENTED_EDGE ( 'NONE', *, *, #141, .T. ) ;
#536 = CARTESIAN_POINT ( 'NONE',  ( 3.385000000000026900, 1.100000000000000100, -8.616666666666656500 ) ) ;
#537 = ORIENTED_EDGE ( 'NONE', *, *, #581, .F. ) ;
#538 = AXIS2_PLACEMENT_3D ( 'NONE', #412, #226, #229 ) ;
#539 = LINE ( 'NONE', #212, #230 ) ;
#540 = FACE_OUTER_BOUND ( 'NONE', #744, .T. ) ;
#541 = CARTESIAN_POINT ( 'NONE',  ( -6.365061456939189500, 0.0000000000000000000, 2.399012108155159000 ) ) ;
#542 = DIRECTION ( 'NONE',  ( -0.0000000000000000000, -1.000000000000000000, -0.0000000000000000000 ) ) ;
#543 = EDGE_CURVE ( 'NONE', #11, #55, #362, .T. ) ;
#544 = ORIENTED_EDGE ( 'NONE', *, *, #417, .T. ) ;
#545 = DIRECTION ( 'NONE',  ( 0.0000000000000000000, 0.0000000000000000000, 1.000000000000000000 ) ) ;
#546 = ORIENTED_EDGE ( 'NONE', *, *, #279, .T. ) ;
#547 = DIRECTION ( 'NONE',  ( 0.0000000000000000000, 1.000000000000000000, 0.0000000000000000000 ) ) ;
#548 = AXIS2_PLACEMENT_3D ( 'NONE', #499, #142, #496 ) ;
#549 = AXIS2_PLACEMENT_3D ( 'NONE', #601, #101, #441 ) ;
#550 = DIRECTION ( 'NONE',  ( -0.0000000000000000000, -1.000000000000000000, -0.0000000000000000000 ) ) ;
#551 = FACE_OUTER_BOUND ( 'NONE', #700, .T. ) ;
#552 = FACE_BOUND ( 'NONE', #143, .T. ) ;
#553 = CARTESIAN_POINT ( 'NONE',  ( -0.6149999999999732300, 1.100000000000000100, -2.116666666666655600 ) ) ;
#554 = EDGE_CURVE ( 'NONE', #261, #244, #372, .T. ) ;
#555 = APPROVAL_STATUS ( 'not_yet_approved' ) ;
#556 = AXIS2_PLACEMENT_3D ( 'NONE', #83, #493, #322 ) ;
#557 = FACE_BOUND ( 'NONE', #333, .T. ) ;
#558 = LINE ( 'NONE', #714, #408 ) ;
#559 = DIRECTION ( 'NONE',  ( 0.0000000000000000000, 0.0000000000000000000, 1.000000000000000000 ) ) ;
#560 = FACE_OUTER_BOUND ( 'NONE', #46, .T. ) ;
#561 = ORIENTED_EDGE ( 'NONE', *, *, #753, .F. ) ;
#562 = DIRECTION ( 'NONE',  ( 0.0000000000000000000, -0.0000000000000000000, 1.000000000000000000 ) ) ;
#563 = ORIENTED_EDGE ( 'NONE', *, *, #613, .F. ) ;
#564 = EDGE_LOOP ( 'NONE', ( #742, #680, #285, #392 ) ) ;
#565 = CIRCLE ( 'NONE', #288, 2.200000000000000600 ) ;
#566 = ORIENTED_EDGE ( 'NONE', *, *, #48, .F. ) ;
#567 = LINE ( 'NONE', #523, #354 ) ;
#568 = DIRECTION ( 'NONE',  ( -0.0000000000000000000, -1.000000000000000000, -0.0000000000000000000 ) ) ;
#569 = AXIS2_PLACEMENT_3D ( 'NONE', #570, #42, #106 ) ;
#570 = CARTESIAN_POINT ( 'NONE',  ( 3.385000000000026900, 1.100000000000000100, -8.616666666666656500 ) ) ;
#571 = EDGE_CURVE ( 'NONE', #147, #157, #353, .T. ) ;
#572 = ORIENTED_EDGE ( 'NONE', *, *, #320, .F. ) ;
#573 = CALENDAR_DATE ( 2018, 27, 11 ) ;
#574 = DIRECTION ( 'NONE',  ( 1.000000000000000000, 0.0000000000000000000, 0.0000000000000000000 ) ) ;
#575 = CIRCLE ( 'NONE', #509, 1.349999999999610200 ) ;
#576 = EDGE_LOOP ( 'NONE', ( #265, #449, #666, #656 ) ) ;
#577 =( GEOMETRIC_REPRESENTATION_CONTEXT ( 3 ) GLOBAL_UNCERTAINTY_ASSIGNED_CONTEXT ( ( #218 ) ) GLOBAL_UNIT_ASSIGNED_CONTEXT ( ( #723, #18, #383 ) ) REPRESENTATION_CONTEXT ( 'NONE', 'WORKASPACE' ) );
#578 = ORIENTED_EDGE ( 'NONE', *, *, #712, .T. ) ;
#579 = DIRECTION ( 'NONE',  ( 0.0000000000000000000, 1.000000000000000000, 0.0000000000000000000 ) ) ;
#580 = ORIENTED_EDGE ( 'NONE', *, *, #164, .F. ) ;
#581 = EDGE_CURVE ( 'NONE', #389, #232, #616, .T. ) ;
#582 = DIRECTION ( 'NONE',  ( 0.0000000000000000000, 0.0000000000000000000, -1.000000000000000000 ) ) ;
#583 = DIRECTION ( 'NONE',  ( 0.0000000000000000000, 0.0000000000000000000, -1.000000000000000000 ) ) ;
#584 = CALENDAR_DATE ( 2018, 27, 11 ) ;
#585 = AXIS2_PLACEMENT_3D ( 'NONE', #154, #391, #216 ) ;
#586 = LINE ( 'NONE', #3, #61 ) ;
#587 = DIRECTION ( 'NONE',  ( 0.0000000000000000000, 0.0000000000000000000, 1.000000000000000000 ) ) ;
#588 = ORIENTED_EDGE ( 'NONE', *, *, #379, .F. ) ;
#589 = ORIENTED_EDGE ( 'NONE', *, *, #350, .F. ) ;
#590 = EDGE_CURVE ( 'NONE', #474, #232, #60, .T. ) ;
#591 = LOCAL_TIME ( 15, 26, 58.00000000000000000, #652 ) ;
#592 = CIRCLE ( 'NONE', #548, 6.500000000000000900 ) ;
#593 = ORIENTED_EDGE ( 'NONE', *, *, #32, .F. ) ;
#594 = DIRECTION ( 'NONE',  ( 0.0000000000000000000, 0.0000000000000000000, 1.000000000000000000 ) ) ;
#595 = CARTESIAN_POINT ( 'NONE',  ( -8.364999999999973600, 0.0000000000000000000, 2.383333333333344900 ) ) ;
#596 = ORIENTED_EDGE ( 'NONE', *, *, #456, .T. ) ;
#597 = AXIS2_PLACEMENT_3D ( 'NONE', #534, #177, #237 ) ;
#598 = ORIENTED_EDGE ( 'NONE', *, *, #141, .F. ) ;
#599 = CARTESIAN_POINT ( 'NONE',  ( -5.864999999999974500, 1.100000000000000100, 1.883333333333344400 ) ) ;
#600 = DIRECTION ( 'NONE',  ( -1.000000000000000000, 0.0000000000000000000, 0.0000000000000000000 ) ) ;
#601 = CARTESIAN_POINT ( 'NONE',  ( 6.635000000000030000, 1.100000000000001900, -2.116666666666655600 ) ) ;
#602 = FACE_BOUND ( 'NONE', #102, .T. ) ;
#603 = DIRECTION ( 'NONE',  ( 0.0000000000000000000, 0.0000000000000000000, 1.000000000000000000 ) ) ;
#604 = CIRCLE ( 'NONE', #638, 1.999999999999999100 ) ;
#605 = DIRECTION ( 'NONE',  ( 0.0000000000000000000, 0.0000000000000000000, 1.000000000000000000 ) ) ;
#606 = DIRECTION ( 'NONE',  ( -0.0000000000000000000, 1.000000000000000000, -0.0000000000000000000 ) ) ;
#607 = ADVANCED_FACE ( 'NONE', ( #507 ), #644, .F. ) ;
#608 = DIRECTION ( 'NONE',  ( 0.0000000000000000000, 1.000000000000000000, 0.0000000000000000000 ) ) ;
#609 = CC_DESIGN_SECURITY_CLASSIFICATION ( #504, ( #643 ) ) ;
#610 = DIRECTION ( 'NONE',  ( -0.0000000000000000000, 1.000000000000000000, -0.0000000000000000000 ) ) ;
#611 = PRODUCT_DEFINITION_SHAPE ( 'NONE', 'NONE',  #209 ) ;
#612 = CARTESIAN_POINT ( 'NONE',  ( -5.864999999999974500, 1.100000000000001900, 4.083333333333345500 ) ) ;
#613 = EDGE_CURVE ( 'NONE', #235, #215, #41, .T. ) ;
#614 = DIRECTION ( 'NONE',  ( 0.0000000000000000000, 0.0000000000000000000, 1.000000000000000000 ) ) ;
#615 = LINE ( 'NONE', #26, #246 ) ;
#616 = CIRCLE ( 'NONE', #56, 2.200000000000000600 ) ;
#617 = CYLINDRICAL_SURFACE ( 'NONE', #249, 4.000000000000002700 ) ;
#618 = VERTEX_POINT ( 'NONE', #477 ) ;
#619 = CARTESIAN_POINT ( 'NONE',  ( -5.864999999999972700, 0.2499999999996114200, -6.116666666666655600 ) ) ;
#620 = ORIENTED_EDGE ( 'NONE', *, *, #721, .T. ) ;
#621 = ORIENTED_EDGE ( 'NONE', *, *, #234, .F. ) ;
#622 = ADVANCED_FACE ( 'NONE', ( #192 ), #258, .F. ) ;
#623 = ORIENTED_EDGE ( 'NONE', *, *, #712, .F. ) ;
#624 = DIRECTION ( 'NONE',  ( -0.0000000000000000000, -1.000000000000000000, -0.0000000000000000000 ) ) ;
#625 = EDGE_CURVE ( 'NONE', #422, #452, #116, .T. ) ;
#626 = APPROVAL_DATE_TIME ( #281, #736 ) ;
#627 = LINE ( 'NONE', #472, #129 ) ;
#628 = CARTESIAN_POINT ( 'NONE',  ( -8.364999999999973600, 1.100000000000000100, 2.383333333333344900 ) ) ;
#629 = AXIS2_PLACEMENT_3D ( 'NONE', #553, #733, #334 ) ;
#630 = ADVANCED_FACE ( 'NONE', ( #602, #69, #427, #551, #557 ), #708, .T. ) ;
#631 = CARTESIAN_POINT ( 'NONE',  ( -5.864999999999974500, 1.100000000000001900, -0.3166666666666561000 ) ) ;
#632 = CYLINDRICAL_SURFACE ( 'NONE', #743, 1.999999999999998200 ) ;
#633 = EDGE_CURVE ( 'NONE', #232, #389, #328, .T. ) ;
#634 = LINE ( 'NONE', #57, #479 ) ;
#635 = FACE_OUTER_BOUND ( 'NONE', #707, .T. ) ;
#636 = AXIS2_PLACEMENT_3D ( 'NONE', #667, #82, #311 ) ;
#637 = ORIENTED_EDGE ( 'NONE', *, *, #44, .T. ) ;
#638 = AXIS2_PLACEMENT_3D ( 'NONE', #528, #302, #371 ) ;
#639 = EDGE_LOOP ( 'NONE', ( #414, #651 ) ) ;
#640 = CARTESIAN_POINT ( 'NONE',  ( -6.614999999999975300, 1.100000000000000100, 4.383333333333345300 ) ) ;
#641 = ORIENTED_EDGE ( 'NONE', *, *, #242, .F. ) ;
#642 = CARTESIAN_POINT ( 'NONE',  ( 6.635000000000030000, 0.2499999999999990300, -2.116666666666655600 ) ) ;
#643 = PRODUCT_DEFINITION_FORMATION_WITH_SPECIFIED_SOURCE ( 'ANY', '', #752, .NOT_KNOWN. ) ;
#644 = CYLINDRICAL_SURFACE ( 'NONE', #111, 1.349999999999610400 ) ;
#645 = FACE_OUTER_BOUND ( 'NONE', #401, .T. ) ;
#646 = ORIENTED_EDGE ( 'NONE', *, *, #527, .F. ) ;
#647 = DIRECTION ( 'NONE',  ( 1.000000000000000000, 0.0000000000000000000, 0.0000000000000000000 ) ) ;
#648 = CARTESIAN_POINT ( 'NONE',  ( -8.364999999999973600, 0.0000000000000000000, -6.616666666666656500 ) ) ;
#649 = ORIENTED_EDGE ( 'NONE', *, *, #158, .F. ) ;
#650 = DIRECTION ( 'NONE',  ( -0.0000000000000000000, -1.000000000000000000, -0.0000000000000000000 ) ) ;
#651 = ORIENTED_EDGE ( 'NONE', *, *, #269, .T. ) ;
#652 = COORDINATED_UNIVERSAL_TIME_OFFSET ( 0, 0, .AHEAD. ) ;
#653 = VECTOR ( 'NONE', #266, 1000.000000000000000 ) ;
#654 = DIRECTION ( 'NONE',  ( 0.0000000000000000000, 0.0000000000000000000, -1.000000000000000000 ) ) ;
#655 = VERTEX_POINT ( 'NONE', #239 ) ;
#656 = ORIENTED_EDGE ( 'NONE', *, *, #269, .F. ) ;
#657 = CARTESIAN_POINT ( 'NONE',  ( -5.864999999999974500, 0.0000000000000000000, 3.233333333332954600 ) ) ;
#658 = ORIENTED_EDGE ( 'NONE', *, *, #73, .F. ) ;
#659 = CARTESIAN_POINT ( 'NONE',  ( -5.864999999999974500, 0.0000000000000000000, 1.883333333333344400 ) ) ;
#660 = LINE ( 'NONE', #516, #513 ) ;
#661 = CIRCLE ( 'NONE', #671, 2.200000000000000600 ) ;
#662 = DIRECTION ( 'NONE',  ( -0.0000000000000000000, -1.000000000000000000, -0.0000000000000000000 ) ) ;
#663 = CARTESIAN_POINT ( 'NONE',  ( -5.864999999999972700, 1.100000000000001900, -6.116666666666655600 ) ) ;
#664 = ORIENTED_EDGE ( 'NONE', *, *, #695, .F. ) ;
#665 = CARTESIAN_POINT ( 'NONE',  ( -8.364999999999973600, 1.100000000000000100, -6.616666666666656500 ) ) ;
#666 = ORIENTED_EDGE ( 'NONE', *, *, #443, .T. ) ;
#667 = CARTESIAN_POINT ( 'NONE',  ( -0.6149999999999732300, 1.100000000000000100, -2.116666666666655600 ) ) ;
#668 = DIRECTION ( 'NONE',  ( -0.0000000000000000000, 1.000000000000000000, -0.0000000000000000000 ) ) ;
#669 = ORIENTED_EDGE ( 'NONE', *, *, #677, .F. ) ;
#670 = AXIS2_PLACEMENT_3D ( 'NONE', #505, #335, #62 ) ;
#671 = AXIS2_PLACEMENT_3D ( 'NONE', #236, #233, #307 ) ;
#672 = APPROVAL_ROLE ( '' ) ;
#673 = PERSON_AND_ORGANIZATION ( #403, #137 ) ;
#674 = VECTOR ( 'NONE', #53, 1000.000000000000000 ) ;
#675 = ADVANCED_FACE ( 'NONE', ( #691 ), #90, .F. ) ;
#676 = CARTESIAN_POINT ( 'NONE',  ( -5.864999999999972700, 1.100000000000001900, -6.116666666666655600 ) ) ;
#677 = EDGE_CURVE ( 'NONE', #100, #235, #615, .T. ) ;
#678 = SECURITY_CLASSIFICATION_LEVEL ( 'unclassified' ) ;
#679 = ORIENTED_EDGE ( 'NONE', *, *, #73, .T. ) ;
#680 = ORIENTED_EDGE ( 'NONE', *, *, #7, .T. ) ;
#681 = EDGE_LOOP ( 'NONE', ( #208, #432, #2, #515 ) ) ;
#682 = APPROVAL ( #555, 'UNSPECIFIED' ) ;
#683 = ORIENTED_EDGE ( 'NONE', *, *, #613, .T. ) ;
#684 = DIRECTION ( 'NONE',  ( 0.0000000000000000000, 1.000000000000000000, 0.0000000000000000000 ) ) ;
#685 = AXIS2_PLACEMENT_3D ( 'NONE', #243, #490, #370 ) ;
#686 = FACE_BOUND ( 'NONE', #188, .T. ) ;
#687 = LINE ( 'NONE', #397, #703 ) ;
#688 = DIRECTION ( 'NONE',  ( 0.0000000000000000000, 0.7071067811865479100, 0.7071067811865472400 ) ) ;
#689 = ADVANCED_FACE ( 'NONE', ( #161 ), #632, .T. ) ;
#690 = EDGE_LOOP ( 'NONE', ( #679, #598, #621, #324 ) ) ;
#691 = FACE_OUTER_BOUND ( 'NONE', #8, .T. ) ;
#692 = CARTESIAN_POINT ( 'NONE',  ( -5.864999999999972700, 1.100000000000001900, -8.316666666666655800 ) ) ;
#693 = FACE_OUTER_BOUND ( 'NONE', #96, .T. ) ;
#694 = ORIENTED_EDGE ( 'NONE', *, *, #753, .T. ) ;
#695 = EDGE_CURVE ( 'NONE', #618, #147, #460, .T. ) ;
#696 = ORIENTED_EDGE ( 'NONE', *, *, #633, .F. ) ;
#697 = VERTEX_POINT ( 'NONE', #315 ) ;
#698 = ORIENTED_EDGE ( 'NONE', *, *, #121, .F. ) ;
#699 = DIRECTION ( 'NONE',  ( 0.0000000000000000000, -1.000000000000000000, 0.0000000000000000000 ) ) ;
#700 = EDGE_LOOP ( 'NONE', ( #186, #133, #231, #517, #620, #296 ) ) ;
#701 = CC_DESIGN_PERSON_AND_ORGANIZATION_ASSIGNMENT ( #673, #495, ( #752 ) ) ;
#702 = CYLINDRICAL_SURFACE ( 'NONE', #385, 6.500000000000000900 ) ;
#703 = VECTOR ( 'NONE', #39, 1000.000000000000000 ) ;
#704 = EDGE_CURVE ( 'NONE', #297, #179, #709, .T. ) ;
#705 = CARTESIAN_POINT ( 'NONE',  ( -8.364999999999973600, 1.100000000000000100, -6.616666666666656500 ) ) ;
#706 = CARTESIAN_POINT ( 'NONE',  ( -8.364999999999973600, 1.100000000000000100, -6.616666666666656500 ) ) ;
#707 = EDGE_LOOP ( 'NONE', ( #378, #299, #108, #105 ) ) ;
#708 = PLANE ( 'NONE',  #303 ) ;
#709 = CIRCLE ( 'NONE', #636, 4.000000000000002700 ) ;
#710 = CONICAL_SURFACE ( 'NONE', #457, 2.200000000000000600, 0.7853981633974482800 ) ;
#711 = CARTESIAN_POINT ( 'NONE',  ( -0.6149999999999732300, 0.0000000000000000000, -6.116666666666658300 ) ) ;
#712 = EDGE_CURVE ( 'NONE', #510, #367, #181, .T. ) ;
#713 = ORIENTED_EDGE ( 'NONE', *, *, #195, .T. ) ;
#714 = CARTESIAN_POINT ( 'NONE',  ( 6.635000000000030000, 1.100000000000001900, -4.316666666666655800 ) ) ;
#715 = CYLINDRICAL_SURFACE ( 'NONE', #262, 1.349999999999610200 ) ;
#716 = AXIS2_PLACEMENT_3D ( 'NONE', #705, #647, #413 ) ;
#717 = EDGE_LOOP ( 'NONE', ( #566, #748, #80, #22 ) ) ;
#718 = FACE_OUTER_BOUND ( 'NONE', #325, .T. ) ;
#719 = CARTESIAN_POINT ( 'NONE',  ( 3.385000000000026900, 1.100000000000000100, -2.116666666666655600 ) ) ;
#720 = CARTESIAN_POINT ( 'NONE',  ( -8.364999999999973600, 0.0000000000000000000, -6.616666666666656500 ) ) ;
#721 = EDGE_CURVE ( 'NONE', #314, #277, #418, .T. ) ;
#722 = ORIENTED_EDGE ( 'NONE', *, *, #417, .F. ) ;
#723 =( LENGTH_UNIT ( ) NAMED_UNIT ( * ) SI_UNIT ( .MILLI., .METRE. ) );
#724 = DIRECTION ( 'NONE',  ( -0.0000000000000000000, -1.000000000000000000, -0.0000000000000000000 ) ) ;
#725 = DIRECTION ( 'NONE',  ( -0.0000000000000000000, -1.000000000000000000, -0.0000000000000000000 ) ) ;
#726 = CARTESIAN_POINT ( 'NONE',  ( 6.635000000000030000, 0.0000000000000000000, -2.116666666666655600 ) ) ;
#727 = VECTOR ( 'NONE', #45, 1000.000000000000000 ) ;
#728 = DIRECTION ( 'NONE',  ( 0.0000000000000000000, 0.0000000000000000000, 1.000000000000000000 ) ) ;
#729 = DIRECTION ( 'NONE',  ( 0.0000000000000000000, 0.0000000000000000000, -1.000000000000000000 ) ) ;
#730 = DIRECTION ( 'NONE',  ( -0.0000000000000000000, 1.000000000000000000, -0.0000000000000000000 ) ) ;
#731 = PERSON_AND_ORGANIZATION_ROLE ( 'design_supplier' ) ;
#732 = DIRECTION ( 'NONE',  ( 0.0000000000000000000, 0.0000000000000000000, 1.000000000000000000 ) ) ;
#733 = DIRECTION ( 'NONE',  ( -0.0000000000000000000, -1.000000000000000000, -0.0000000000000000000 ) ) ;
#734 = AXIS2_PLACEMENT_3D ( 'NONE', #676, #730, #500 ) ;
#735 = PERSON_AND_ORGANIZATION ( #403, #137 ) ;
#736 = APPROVAL ( #259, 'UNSPECIFIED' ) ;
#737 = CIRCLE ( 'NONE', #421, 2.000000000000000900 ) ;
#738 = AXIS2_PLACEMENT_3D ( 'NONE', #99, #608, #559 ) ;
#739 = CARTESIAN_POINT ( 'NONE',  ( -5.864999999999972700, 1.100000000000000100, -6.116666666666655600 ) ) ;
#740 = LINE ( 'NONE', #648, #462 ) ;
#741 = ORIENTED_EDGE ( 'NONE', *, *, #581, .T. ) ;
#742 = ORIENTED_EDGE ( 'NONE', *, *, #304, .F. ) ;
#743 = AXIS2_PLACEMENT_3D ( 'NONE', #251, #550, #14 ) ;
#744 = EDGE_LOOP ( 'NONE', ( #144, #254, #649, #170 ) ) ;
#745 = DIRECTION ( 'NONE',  ( 1.000000000000000000, 0.0000000000000000000, 0.0000000000000000000 ) ) ;
#746 = ORIENTED_EDGE ( 'NONE', *, *, #44, .F. ) ;
#747 = CALENDAR_DATE ( 2018, 27, 11 ) ;
#748 = ORIENTED_EDGE ( 'NONE', *, *, #494, .F. ) ;
#749 = AXIS2_PLACEMENT_3D ( 'NONE', #407, #464, #119 ) ;
#750 = AXIS2_PLACEMENT_3D ( 'NONE', #599, #662, #582 ) ;
#751 = ORIENTED_EDGE ( 'NONE', *, *, #590, .F. ) ;
#752 = PRODUCT ( 'Drive Shaft Cover_v2', 'Drive Shaft Cover_v2', '', ( #437 ) ) ;
#753 = EDGE_CURVE ( 'NONE', #428, #697, #565, .T. ) ;
#754 = LOCAL_TIME ( 15, 26, 58.00000000000000000, #436 ) ;
#755 = CONICAL_SURFACE ( 'NONE', #167, 2.200000000000000600, 0.7853981633974482800 ) ;
ENDSEC;
END-ISO-10303-21;
