ISO-10303-21;
HEADER;
FILE_DESCRIPTION (( 'STEP AP203' ),
    '1' );
FILE_NAME ('Linear Bearing mount_2.STEP',
    '2018-11-27T15:28:38',
    ( '' ),
    ( '' ),
    'SwSTEP 2.0',
    'SolidWorks 2017',
    '' );
FILE_SCHEMA (( 'CONFIG_CONTROL_DESIGN' ));
ENDSEC;

DATA;
#1 = LINE ( 'NONE', #684, #787 ) ;
#2 = AXIS2_PLACEMENT_3D ( 'NONE', #297, #939, #461 ) ;
#3 = CARTESIAN_POINT ( 'NONE',  ( -5.888972745734180100, -3.400000000000004400, 7.000000000000000000 ) ) ;
#4 = PRODUCT ( 'Linear Bearing mount_2', 'Linear Bearing mount_2', '', ( #619 ) ) ;
#5 = DIRECTION ( 'NONE',  ( 1.000000000000000000, 0.0000000000000000000, 0.0000000000000000000 ) ) ;
#6 = ORIENTED_EDGE ( 'NONE', *, *, #641, .T. ) ;
#7 =( NAMED_UNIT ( * ) PLANE_ANGLE_UNIT ( ) SI_UNIT ( $, .RADIAN. ) );
#8 = ORIENTED_EDGE ( 'NONE', *, *, #235, .T. ) ;
#9 = CARTESIAN_POINT ( 'NONE',  ( 6.865852830197795200, -1.363841968141815200, 0.0000000000000000000 ) ) ;
#10 = EDGE_LOOP ( 'NONE', ( #234, #359, #863, #90 ) ) ;
#11 = CARTESIAN_POINT ( 'NONE',  ( 2.251804623940733200, 6.799999999999999800, 7.000000000000000000 ) ) ;
#12 = AXIS2_PLACEMENT_3D ( 'NONE', #582, #971, #194 ) ;
#13 = DIRECTION ( 'NONE',  ( 0.0000000000000000000, 0.0000000000000000000, 1.000000000000000000 ) ) ;
#14 = DIRECTION ( 'NONE',  ( 1.000000000000000000, 0.0000000000000000000, -0.0000000000000000000 ) ) ;
#15 = AXIS2_PLACEMENT_3D ( 'NONE', #678, #530, #456 ) ;
#16 = VECTOR ( 'NONE', #757, 1000.000000000000000 ) ;
#17 = UNCERTAINTY_MEASURE_WITH_UNIT (LENGTH_MEASURE( 1.000000000000000100E-005 ), #935, 'distance_accuracy_value', 'NONE');
#18 = EDGE_CURVE ( 'NONE', #549, #572, #242, .T. ) ;
#19 = DIRECTION ( 'NONE',  ( 0.0000000000000000000, 0.0000000000000000000, 1.000000000000000000 ) ) ;
#20 = ORIENTED_EDGE ( 'NONE', *, *, #516, .F. ) ;
#21 = AXIS2_PLACEMENT_3D ( 'NONE', #128, #742, #126 ) ;
#22 = CALENDAR_DATE ( 2018, 27, 11 ) ;
#23 = DATE_AND_TIME ( #426, #756 ) ;
#24 = LINE ( 'NONE', #577, #167 ) ;
#25 = DIRECTION ( 'NONE',  ( 0.0000000000000000000, 0.0000000000000000000, 1.000000000000000000 ) ) ;
#26 = VECTOR ( 'NONE', #190, 1000.000000000000000 ) ;
#27 = VECTOR ( 'NONE', #829, 1000.000000000000000 ) ;
#28 = EDGE_LOOP ( 'NONE', ( #38, #484, #777, #315 ) ) ;
#29 = ORIENTED_EDGE ( 'NONE', *, *, #869, .F. ) ;
#30 = ORIENTED_EDGE ( 'NONE', *, *, #634, .T. ) ;
#31 = DIRECTION ( 'NONE',  ( 0.0000000000000000000, 0.0000000000000000000, 1.000000000000000000 ) ) ;
#32 = AXIS2_PLACEMENT_3D ( 'NONE', #859, #617, #942 ) ;
#33 = AXIS2_PLACEMENT_3D ( 'NONE', #81, #854, #685 ) ;
#34 = CARTESIAN_POINT ( 'NONE',  ( -7.138972745734180900, -3.400000000000004400, 6.000000000000000000 ) ) ;
#35 = FACE_OUTER_BOUND ( 'NONE', #575, .T. ) ;
#36 = LINE ( 'NONE', #951, #902 ) ;
#37 = DIRECTION ( 'NONE',  ( 0.8660254037844469200, -0.4999999999999855700, -0.0000000000000000000 ) ) ;
#38 = ORIENTED_EDGE ( 'NONE', *, *, #751, .F. ) ;
#39 = ORIENTED_EDGE ( 'NONE', *, *, #338, .T. ) ;
#40 = DIRECTION ( 'NONE',  ( 1.000000000000000000, 0.0000000000000000000, 0.0000000000000000000 ) ) ;
#41 = VERTEX_POINT ( 'NONE', #272 ) ;
#42 = ADVANCED_FACE ( 'NONE', ( #834 ), #818, .T. ) ;
#43 = CARTESIAN_POINT ( 'NONE',  ( -5.049999999999999800, 0.0000000000000000000, 15.00000000000000000 ) ) ;
#44 = VECTOR ( 'NONE', #292, 1000.000000000000000 ) ;
#45 = EDGE_CURVE ( 'NONE', #508, #623, #657, .T. ) ;
#46 = CARTESIAN_POINT ( 'NONE',  ( -8.140777369674914600, -3.400000000000004400, 7.000000000000000000 ) ) ;
#47 = LINE ( 'NONE', #639, #890 ) ;
#48 = VECTOR ( 'NONE', #469, 1000.000000000000000 ) ;
#49 = APPROVAL ( #163, 'UNSPECIFIED' ) ;
#50 = ORIENTED_EDGE ( 'NONE', *, *, #986, .F. ) ;
#51 = EDGE_LOOP ( 'NONE', ( #265, #150 ) ) ;
#52 = DIRECTION ( 'NONE',  ( 0.0000000000000000000, 0.0000000000000000000, 1.000000000000000000 ) ) ;
#53 = ORIENTED_EDGE ( 'NONE', *, *, #566, .T. ) ;
#54 = ADVANCED_FACE ( 'NONE', ( #635 ), #670, .F. ) ;
#55 = DIRECTION ( 'NONE',  ( 1.000000000000000000, 0.0000000000000000000, -0.0000000000000000000 ) ) ;
#56 = CIRCLE ( 'NONE', #716, 4.049999999999999800 ) ;
#57 = CARTESIAN_POINT ( 'NONE',  ( 4.638972745734184500, -3.399999999999994600, 0.0000000000000000000 ) ) ;
#58 = ORIENTED_EDGE ( 'NONE', *, *, #676, .F. ) ;
#59 = DIRECTION ( 'NONE',  ( 0.0000000000000000000, 0.0000000000000000000, 1.000000000000000000 ) ) ;
#60 = ORIENTED_EDGE ( 'NONE', *, *, #686, .T. ) ;
#61 = ADVANCED_FACE ( 'NONE', ( #324 ), #646, .F. ) ;
#62 = AXIS2_PLACEMENT_3D ( 'NONE', #392, #782, #237 ) ;
#63 = ORIENTED_EDGE ( 'NONE', *, *, #319, .F. ) ;
#64 = DIRECTION ( 'NONE',  ( 1.000000000000000000, 0.0000000000000000000, 0.0000000000000000000 ) ) ;
#65 = EDGE_CURVE ( 'NONE', #312, #812, #693, .T. ) ;
#66 = AXIS2_PLACEMENT_3D ( 'NONE', #541, #308, #146 ) ;
#67 = DIRECTION ( 'NONE',  ( 1.000000000000000000, 0.0000000000000000000, 0.0000000000000000000 ) ) ;
#68 = DIRECTION ( 'NONE',  ( 0.0000000000000000000, 0.0000000000000000000, 1.000000000000000000 ) ) ;
#69 = AXIS2_PLACEMENT_3D ( 'NONE', #213, #828, #903 ) ;
#70 = CIRCLE ( 'NONE', #540, 7.000000000000000900 ) ;
#71 = PLANE ( 'NONE',  #993 ) ;
#72 = LINE ( 'NONE', #161, #490 ) ;
#73 = AXIS2_PLACEMENT_3D ( 'NONE', #745, #204, #119 ) ;
#74 = CARTESIAN_POINT ( 'NONE',  ( 5.049999999999999800, 6.184466335694133100E-016, 15.00000000000000000 ) ) ;
#75 = VECTOR ( 'NONE', #219, 1000.000000000000000 ) ;
#76 = ORIENTED_EDGE ( 'NONE', *, *, #611, .T. ) ;
#77 = ORIENTED_EDGE ( 'NONE', *, *, #728, .F. ) ;
#78 = ORIENTED_EDGE ( 'NONE', *, *, #418, .T. ) ;
#79 = APPLICATION_CONTEXT ( 'configuration controlled 3d designs of mechanical parts and assemblies' ) ;
#80 = ORIENTED_EDGE ( 'NONE', *, *, #293, .F. ) ;
#81 = CARTESIAN_POINT ( 'NONE',  ( 5.888972745734187200, -3.399999999999994600, 6.000000000000000000 ) ) ;
#82 = AXIS2_PLACEMENT_3D ( 'NONE', #374, #1011, #920 ) ;
#83 = DATE_TIME_ROLE ( 'classification_date' ) ;
#84 = CARTESIAN_POINT ( 'NONE',  ( 0.0000000000000000000, 0.0000000000000000000, 0.0000000000000000000 ) ) ;
#85 = AXIS2_PLACEMENT_3D ( 'NONE', #554, #543, #89 ) ;
#86 = APPROVAL_STATUS ( 'not_yet_approved' ) ;
#87 = AXIS2_PLACEMENT_3D ( 'NONE', #261, #188, #264 ) ;
#88 = ORIENTED_EDGE ( 'NONE', *, *, #641, .F. ) ;
#89 = DIRECTION ( 'NONE',  ( 1.000000000000000000, 0.0000000000000000000, 0.0000000000000000000 ) ) ;
#90 = ORIENTED_EDGE ( 'NONE', *, *, #587, .F. ) ;
#91 = CARTESIAN_POINT ( 'NONE',  ( -7.014875057704547800, -1.449879991308064900, 7.000000000000000000 ) ) ;
#92 = ORIENTED_EDGE ( 'NONE', *, *, #626, .T. ) ;
#93 = ORIENTED_EDGE ( 'NONE', *, *, #1004, .F. ) ;
#94 = CARTESIAN_POINT ( 'NONE',  ( 4.614048206257064200, -5.264081985525679700, 7.000000000000000000 ) ) ;
#95 = DIRECTION ( 'NONE',  ( 1.000000000000000000, 0.0000000000000000000, 0.0000000000000000000 ) ) ;
#96 = EDGE_CURVE ( 'NONE', #452, #508, #809, .T. ) ;
#97 = EDGE_CURVE ( 'NONE', #433, #979, #407, .T. ) ;
#98 = CARTESIAN_POINT ( 'NONE',  ( 0.0000000000000000000, 0.0000000000000000000, 0.0000000000000000000 ) ) ;
#99 = EDGE_LOOP ( 'NONE', ( #172, #616, #965, #599 ) ) ;
#100 = VERTEX_POINT ( 'NONE', #999 ) ;
#101 = PLANE ( 'NONE',  #140 ) ;
#102 = CC_DESIGN_PERSON_AND_ORGANIZATION_ASSIGNMENT ( #970, #631, ( #4 ) ) ;
#103 = AXIS2_PLACEMENT_3D ( 'NONE', #600, #355, #998 ) ;
#104 = LINE ( 'NONE', #724, #899 ) ;
#105 = PLANE ( 'NONE',  #996 ) ;
#106 = LINE ( 'NONE', #139, #16 ) ;
#107 = EDGE_LOOP ( 'NONE', ( #721, #327, #477, #799 ) ) ;
#108 = EDGE_CURVE ( 'NONE', #589, #926, #613, .T. ) ;
#109 = DIRECTION ( 'NONE',  ( -0.8660254037844842300, 0.4999999999999210600, 0.0000000000000000000 ) ) ;
#110 = ORIENTED_EDGE ( 'NONE', *, *, #278, .T. ) ;
#111 = VERTEX_POINT ( 'NONE', #513 ) ;
#112 = CARTESIAN_POINT ( 'NONE',  ( 0.0000000000000000000, 0.0000000000000000000, 16.00000000000000000 ) ) ;
#113 = DIRECTION ( 'NONE',  ( -1.000000000000000000, 0.0000000000000000000, 0.0000000000000000000 ) ) ;
#114 = CALENDAR_DATE ( 2018, 27, 11 ) ;
#115 = EDGE_CURVE ( 'NONE', #100, #111, #205, .T. ) ;
#116 = CARTESIAN_POINT ( 'NONE',  ( 0.0000000000000000000, 0.0000000000000000000, 16.00000000000000000 ) ) ;
#117 = APPROVAL ( #86, 'UNSPECIFIED' ) ;
#118 = VECTOR ( 'NONE', #166, 1000.000000000000000 ) ;
#119 = DIRECTION ( 'NONE',  ( 1.000000000000000000, 0.0000000000000000000, -0.0000000000000000000 ) ) ;
#120 = AXIS2_PLACEMENT_3D ( 'NONE', #221, #453, #759 ) ;
#121 = VECTOR ( 'NONE', #122, 1000.000000000000000 ) ;
#122 = DIRECTION ( 'NONE',  ( -0.0000000000000000000, 1.000000000000000000, -0.0000000000000000000 ) ) ;
#123 = ORIENTED_EDGE ( 'NONE', *, *, #370, .T. ) ;
#124 = ADVANCED_FACE ( 'NONE', ( #667 ), #749, .F. ) ;
#125 = EDGE_CURVE ( 'NONE', #209, #127, #798, .T. ) ;
#126 = DIRECTION ( 'NONE',  ( 1.000000000000000000, 0.0000000000000000000, -0.0000000000000000000 ) ) ;
#127 = VERTEX_POINT ( 'NONE', #843 ) ;
#128 = CARTESIAN_POINT ( 'NONE',  ( 2.944486372867093600, -1.699999999999997300, 6.000000000000000000 ) ) ;
#129 = APPROVAL_PERSON_ORGANIZATION ( #250, #894, #157 ) ;
#130 = VECTOR ( 'NONE', #240, 1000.000000000000000 ) ;
#131 = CARTESIAN_POINT ( 'NONE',  ( -5.888972745734180100, -3.400000000000004400, 7.000000000000000000 ) ) ;
#132 = EDGE_CURVE ( 'NONE', #207, #41, #381, .T. ) ;
#133 = AXIS2_PLACEMENT_3D ( 'NONE', #688, #156, #5 ) ;
#134 = LINE ( 'NONE', #692, #987 ) ;
#135 = ADVANCED_FACE ( 'NONE', ( #789 ), #771, .F. ) ;
#136 = CARTESIAN_POINT ( 'NONE',  ( 0.0000000000000000000, 0.0000000000000000000, 7.000000000000000000 ) ) ;
#137 = EDGE_LOOP ( 'NONE', ( #978, #372 ) ) ;
#138 = ORIENTED_EDGE ( 'NONE', *, *, #1004, .T. ) ;
#139 = CARTESIAN_POINT ( 'NONE',  ( 7.014875057704550400, -1.449879991308058700, 7.000000000000000000 ) ) ;
#140 = AXIS2_PLACEMENT_3D ( 'NONE', #733, #568, #647 ) ;
#141 = ORIENTED_EDGE ( 'NONE', *, *, #985, .T. ) ;
#142 = PLANE ( 'NONE',  #103 ) ;
#143 = APPROVAL_DATE_TIME ( #471, #49 ) ;
#144 = LINE ( 'NONE', #629, #737 ) ;
#145 = DIRECTION ( 'NONE',  ( -1.000000000000000000, 0.0000000000000000000, 0.0000000000000000000 ) ) ;
#146 = DIRECTION ( 'NONE',  ( -1.000000000000000000, 0.0000000000000000000, 0.0000000000000000000 ) ) ;
#147 = EDGE_LOOP ( 'NONE', ( #791, #625, #159, #873 ) ) ;
#148 = EDGE_LOOP ( 'NONE', ( #325, #464, #435, #708 ) ) ;
#149 = CARTESIAN_POINT ( 'NONE',  ( 4.614048206257064200, -5.264081985525679700, 7.000000000000000000 ) ) ;
#150 = ORIENTED_EDGE ( 'NONE', *, *, #723, .F. ) ;
#151 = EDGE_CURVE ( 'NONE', #662, #681, #191, .T. ) ;
#152 = COORDINATED_UNIVERSAL_TIME_OFFSET ( 0, 0, .AHEAD. ) ;
#153 = CIRCLE ( 'NONE', #62, 7.000000000000001800 ) ;
#154 = CC_DESIGN_APPROVAL ( #894, ( #282 ) ) ;
#155 = APPROVAL_ROLE ( '' ) ;
#156 = DIRECTION ( 'NONE',  ( 0.0000000000000000000, 0.0000000000000000000, 1.000000000000000000 ) ) ;
#157 = APPROVAL_ROLE ( '' ) ;
#158 = EDGE_LOOP ( 'NONE', ( #361, #258, #893, #495 ) ) ;
#159 = ORIENTED_EDGE ( 'NONE', *, *, #437, .F. ) ;
#160 = VERTEX_POINT ( 'NONE', #1006 ) ;
#161 = CARTESIAN_POINT ( 'NONE',  ( -6.865852830197796100, -1.363841968141805700, 7.000000000000000000 ) ) ;
#162 = EDGE_CURVE ( 'NONE', #943, #957, #463, .T. ) ;
#163 = APPROVAL_STATUS ( 'not_yet_approved' ) ;
#164 = FACE_OUTER_BOUND ( 'NONE', #99, .T. ) ;
#165 = CARTESIAN_POINT ( 'NONE',  ( 7.138972745734189800, -3.399999999999994600, 0.0000000000000000000 ) ) ;
#166 = DIRECTION ( 'NONE',  ( -0.0000000000000000000, -0.0000000000000000000, -1.000000000000000000 ) ) ;
#167 = VECTOR ( 'NONE', #329, 1000.000000000000100 ) ;
#168 = CIRCLE ( 'NONE', #911, 7.000000000000001800 ) ;
#169 = CARTESIAN_POINT ( 'NONE',  ( 5.888972745734187200, -3.399999999999994600, 7.000000000000000000 ) ) ;
#170 = CIRCLE ( 'NONE', #842, 2.251804623940732800 ) ;
#171 = ORIENTED_EDGE ( 'NONE', *, *, #115, .F. ) ;
#172 = ORIENTED_EDGE ( 'NONE', *, *, #874, .T. ) ;
#173 = CC_DESIGN_SECURITY_CLASSIFICATION ( #282, ( #239 ) ) ;
#174 = VERTEX_POINT ( 'NONE', #380 ) ;
#175 = PLANE ( 'NONE',  #938 ) ;
#176 = LOCAL_TIME ( 15, 28, 38.00000000000000000, #152 ) ;
#177 = CIRCLE ( 'NONE', #120, 5.049999999999999800 ) ;
#178 = VECTOR ( 'NONE', #658, 1000.000000000000100 ) ;
#179 = DIRECTION ( 'NONE',  ( -0.0000000000000000000, -0.0000000000000000000, -1.000000000000000000 ) ) ;
#180 = FACE_OUTER_BOUND ( 'NONE', #147, .T. ) ;
#181 = EDGE_CURVE ( 'NONE', #288, #812, #597, .T. ) ;
#182 = AXIS2_PLACEMENT_3D ( 'NONE', #930, #776, #855 ) ;
#183 = ORIENTED_EDGE ( 'NONE', *, *, #874, .F. ) ;
#184 = ORIENTED_EDGE ( 'NONE', *, *, #330, .F. ) ;
#185 = PRODUCT_DEFINITION ( 'UNKNOWN', '', #239, #542 ) ;
#186 = AXIS2_PLACEMENT_3D ( 'NONE', #210, #522, #833 ) ;
#187 = PERSON_AND_ORGANIZATION ( #910, #393 ) ;
#188 = DIRECTION ( 'NONE',  ( 0.0000000000000000000, 0.0000000000000000000, 1.000000000000000000 ) ) ;
#189 = FACE_OUTER_BOUND ( 'NONE', #761, .T. ) ;
#190 = DIRECTION ( 'NONE',  ( -0.0000000000000000000, -0.0000000000000000000, -1.000000000000000000 ) ) ;
#191 = CIRCLE ( 'NONE', #133, 1.250000000000000200 ) ;
#192 = ADVANCED_FACE ( 'NONE', ( #989 ), #584, .F. ) ;
#193 = EDGE_LOOP ( 'NONE', ( #479, #88, #964, #275, #722, #29, #77, #486, #638, #649, #824, #602, #254, #58, #257 ) ) ;
#194 = DIRECTION ( 'NONE',  ( -1.000000000000000000, 0.0000000000000000000, 0.0000000000000000000 ) ) ;
#195 = VERTEX_POINT ( 'NONE', #914 ) ;
#196 = DIRECTION ( 'NONE',  ( -0.0000000000000000000, -0.0000000000000000000, -1.000000000000000000 ) ) ;
#197 = ADVANCED_FACE ( 'NONE', ( #547 ), #952, .F. ) ;
#198 = EDGE_CURVE ( 'NONE', #360, #562, #170, .T. ) ;
#199 = EDGE_CURVE ( 'NONE', #218, #926, #760, .T. ) ;
#200 = DIRECTION ( 'NONE',  ( 1.000000000000000000, 0.0000000000000000000, 0.0000000000000000000 ) ) ;
#201 = CARTESIAN_POINT ( 'NONE',  ( 6.865852830197795200, -1.363841968141815200, 7.000000000000000000 ) ) ;
#202 = PRODUCT_RELATED_PRODUCT_CATEGORY ( 'detail', '', ( #4 ) ) ;
#203 = CIRCLE ( 'NONE', #961, 1.250000000000000400 ) ;
#204 = DIRECTION ( 'NONE',  ( 0.0000000000000000000, 0.0000000000000000000, 1.000000000000000000 ) ) ;
#205 = LINE ( 'NONE', #447, #75 ) ;
#206 = AXIS2_PLACEMENT_3D ( 'NONE', #383, #303, #699 ) ;
#207 = VERTEX_POINT ( 'NONE', #390 ) ;
#208 = VERTEX_POINT ( 'NONE', #552 ) ;
#209 = VERTEX_POINT ( 'NONE', #316 ) ;
#210 = CARTESIAN_POINT ( 'NONE',  ( 5.888972745734187200, -3.399999999999994600, 7.000000000000000000 ) ) ;
#211 = ADVANCED_FACE ( 'NONE', ( #741, #323 ), #945, .F. ) ;
#212 = VERTEX_POINT ( 'NONE', #781 ) ;
#213 = CARTESIAN_POINT ( 'NONE',  ( -5.888972745734180100, -3.400000000000004400, 0.0000000000000000000 ) ) ;
#214 = DIRECTION ( 'NONE',  ( 1.000000000000000000, 0.0000000000000000000, -0.0000000000000000000 ) ) ;
#215 = ADVANCED_FACE ( 'NONE', ( #919 ), #506, .F. ) ;
#216 = FACE_BOUND ( 'NONE', #333, .T. ) ;
#217 = CARTESIAN_POINT ( 'NONE',  ( 5.888972745734187200, -3.399999999999994600, 0.0000000000000000000 ) ) ;
#218 = VERTEX_POINT ( 'NONE', #249 ) ;
#219 = DIRECTION ( 'NONE',  ( -0.0000000000000000000, -0.0000000000000000000, -1.000000000000000000 ) ) ;
#220 = ORIENTED_EDGE ( 'NONE', *, *, #618, .F. ) ;
#221 = CARTESIAN_POINT ( 'NONE',  ( 0.0000000000000000000, 0.0000000000000000000, 15.00000000000000000 ) ) ;
#222 = APPROVAL_PERSON_ORGANIZATION ( #840, #49, #707 ) ;
#223 = DIRECTION ( 'NONE',  ( 0.4999999999999856200, 0.8660254037844470300, -0.0000000000000000000 ) ) ;
#224 = VECTOR ( 'NONE', #273, 1000.000000000000000 ) ;
#225 = EDGE_CURVE ( 'NONE', #449, #218, #531, .T. ) ;
#226 = CARTESIAN_POINT ( 'NONE',  ( 4.763070433763821200, -5.350120008691933800, 7.000000000000000000 ) ) ;
#227 = VECTOR ( 'NONE', #37, 1000.000000000000200 ) ;
#228 = VECTOR ( 'NONE', #808, 1000.000000000000000 ) ;
#229 = DIRECTION ( 'NONE',  ( -0.0000000000000000000, -0.0000000000000000000, -1.000000000000000000 ) ) ;
#230 = LINE ( 'NONE', #341, #26 ) ;
#231 = CARTESIAN_POINT ( 'NONE',  ( 1.250000000000000400, 6.799999999999999800, 7.000000000000000000 ) ) ;
#232 = VERTEX_POINT ( 'NONE', #578 ) ;
#233 =( NAMED_UNIT ( * ) SI_UNIT ( $, .STERADIAN. ) SOLID_ANGLE_UNIT ( ) );
#234 = ORIENTED_EDGE ( 'NONE', *, *, #972, .F. ) ;
#235 = EDGE_CURVE ( 'NONE', #433, #212, #481, .T. ) ;
#236 = AXIS2_PLACEMENT_3D ( 'NONE', #557, #714, #702 ) ;
#237 = DIRECTION ( 'NONE',  ( 1.000000000000000000, 0.0000000000000000000, 0.0000000000000000000 ) ) ;
#238 = CARTESIAN_POINT ( 'NONE',  ( -5.888972745734180100, -3.400000000000004400, 0.0000000000000000000 ) ) ;
#239 = PRODUCT_DEFINITION_FORMATION_WITH_SPECIFIED_SOURCE ( 'ANY', '', #4, .NOT_KNOWN. ) ;
#240 = DIRECTION ( 'NONE',  ( -0.0000000000000000000, -0.0000000000000000000, -1.000000000000000000 ) ) ;
#241 = VECTOR ( 'NONE', #515, 1000.000000000000100 ) ;
#242 = LINE ( 'NONE', #430, #121 ) ;
#243 = CARTESIAN_POINT ( 'NONE',  ( -7.000000000000000900, 0.0000000000000000000, 7.000000000000000000 ) ) ;
#244 = ORIENTED_EDGE ( 'NONE', *, *, #595, .F. ) ;
#245 = EDGE_LOOP ( 'NONE', ( #451, #450, #778, #246 ) ) ;
#246 = ORIENTED_EDGE ( 'NONE', *, *, #326, .F. ) ;
#247 = DIRECTION ( 'NONE',  ( 0.0000000000000000000, 0.0000000000000000000, 1.000000000000000000 ) ) ;
#248 = EDGE_CURVE ( 'NONE', #208, #885, #368, .T. ) ;
#249 = CARTESIAN_POINT ( 'NONE',  ( 4.638972745734184500, -3.399999999999994600, 6.000000000000000000 ) ) ;
#250 = PERSON_AND_ORGANIZATION ( #910, #393 ) ;
#251 = DIRECTION ( 'NONE',  ( -0.0000000000000000000, -0.0000000000000000000, -1.000000000000000000 ) ) ;
#252 = EDGE_CURVE ( 'NONE', #208, #623, #421, .T. ) ;
#253 = EDGE_CURVE ( 'NONE', #538, #792, #36, .T. ) ;
#254 = ORIENTED_EDGE ( 'NONE', *, *, #162, .F. ) ;
#255 = CARTESIAN_POINT ( 'NONE',  ( 0.0000000000000000000, 0.0000000000000000000, 0.0000000000000000000 ) ) ;
#256 = ORIENTED_EDGE ( 'NONE', *, *, #539, .F. ) ;
#257 = ORIENTED_EDGE ( 'NONE', *, *, #877, .F. ) ;
#258 = ORIENTED_EDGE ( 'NONE', *, *, #972, .T. ) ;
#259 = AXIS2_PLACEMENT_3D ( 'NONE', #975, #196, #896 ) ;
#260 = CYLINDRICAL_SURFACE ( 'NONE', #755, 5.049999999999999800 ) ;
#261 = CARTESIAN_POINT ( 'NONE',  ( 0.0000000000000000000, 6.799999999999999800, 6.000000000000000000 ) ) ;
#262 = DIRECTION ( 'NONE',  ( -0.0000000000000000000, -0.0000000000000000000, -1.000000000000000000 ) ) ;
#263 = VECTOR ( 'NONE', #738, 1000.000000000000000 ) ;
#264 = DIRECTION ( 'NONE',  ( 1.000000000000000000, 0.0000000000000000000, 0.0000000000000000000 ) ) ;
#265 = ORIENTED_EDGE ( 'NONE', *, *, #125, .F. ) ;
#266 = EDGE_CURVE ( 'NONE', #992, #288, #340, .T. ) ;
#267 = EDGE_CURVE ( 'NONE', #160, #836, #47, .T. ) ;
#268 = CALENDAR_DATE ( 2018, 27, 11 ) ;
#269 = DIRECTION ( 'NONE',  ( 1.000000000000000000, 0.0000000000000000000, 0.0000000000000000000 ) ) ;
#270 = CIRCLE ( 'NONE', #438, 1.250000000000000200 ) ;
#271 = EDGE_CURVE ( 'NONE', #532, #880, #270, .T. ) ;
#272 = CARTESIAN_POINT ( 'NONE',  ( -2.251804623940722600, 6.627923953667481000, 0.0000000000000000000 ) ) ;
#273 = DIRECTION ( 'NONE',  ( 6.552743879331204300E-014, -1.000000000000000000, 0.0000000000000000000 ) ) ;
#274 = ORIENTED_EDGE ( 'NONE', *, *, #412, .F. ) ;
#275 = ORIENTED_EDGE ( 'NONE', *, *, #45, .F. ) ;
#276 = DIRECTION ( 'NONE',  ( -0.0000000000000000000, -0.0000000000000000000, -1.000000000000000000 ) ) ;
#277 = CARTESIAN_POINT ( 'NONE',  ( -7.014875057704547800, -1.449879991308064900, 7.000000000000000000 ) ) ;
#278 = EDGE_CURVE ( 'NONE', #586, #763, #976, .T. ) ;
#279 = ADVANCED_FACE ( 'NONE', ( #950 ), #460, .F. ) ;
#280 = DIRECTION ( 'NONE',  ( 0.0000000000000000000, 0.0000000000000000000, 1.000000000000000000 ) ) ;
#281 = LINE ( 'NONE', #487, #984 ) ;
#282 = SECURITY_CLASSIFICATION ( '', '', #305 ) ;
#283 = CYLINDRICAL_SURFACE ( 'NONE', #413, 1.250000000000002900 ) ;
#284 = CARTESIAN_POINT ( 'NONE',  ( -6.865852830197796100, -1.363841968141805700, 0.0000000000000000000 ) ) ;
#285 = CARTESIAN_POINT ( 'NONE',  ( 0.0000000000000000000, 6.799999999999999800, 0.0000000000000000000 ) ) ;
#286 = ADVANCED_FACE ( 'NONE', ( #691 ), #719, .T. ) ;
#287 = AXIS2_PLACEMENT_3D ( 'NONE', #642, #954, #475 ) ;
#288 = VERTEX_POINT ( 'NONE', #43 ) ;
#289 = DIRECTION ( 'NONE',  ( 1.000000000000000000, 0.0000000000000000000, 0.0000000000000000000 ) ) ;
#290 = ORIENTED_EDGE ( 'NONE', *, *, #151, .F. ) ;
#291 = ORIENTED_EDGE ( 'NONE', *, *, #454, .F. ) ;
#292 = DIRECTION ( 'NONE',  ( -0.0000000000000000000, -0.0000000000000000000, -1.000000000000000000 ) ) ;
#293 = EDGE_CURVE ( 'NONE', #500, #823, #666, .T. ) ;
#294 = DATE_AND_TIME ( #22, #176 ) ;
#295 = DIRECTION ( 'NONE',  ( 0.0000000000000000000, 0.0000000000000000000, 1.000000000000000000 ) ) ;
#296 = CARTESIAN_POINT ( 'NONE',  ( 0.0000000000000000000, 0.0000000000000000000, 7.000000000000000000 ) ) ;
#297 = CARTESIAN_POINT ( 'NONE',  ( 5.888972745734187200, -3.399999999999994600, 0.0000000000000000000 ) ) ;
#298 = AXIS2_PLACEMENT_3D ( 'NONE', #357, #548, #925 ) ;
#299 = DIRECTION ( 'NONE',  ( -0.0000000000000000000, -0.0000000000000000000, -1.000000000000000000 ) ) ;
#300 = ORIENTED_EDGE ( 'NONE', *, *, #418, .F. ) ;
#301 = PERSON_AND_ORGANIZATION_ROLE ( 'creator' ) ;
#302 = ORIENTED_EDGE ( 'NONE', *, *, #985, .F. ) ;
#303 = DIRECTION ( 'NONE',  ( 0.0000000000000000000, 0.0000000000000000000, 1.000000000000000000 ) ) ;
#304 = DIRECTION ( 'NONE',  ( 0.0000000000000000000, 0.0000000000000000000, 1.000000000000000000 ) ) ;
#305 = SECURITY_CLASSIFICATION_LEVEL ( 'unclassified' ) ;
#306 = AXIS2_PLACEMENT_3D ( 'NONE', #785, #406, #947 ) ;
#307 = DIRECTION ( 'NONE',  ( -0.0000000000000000000, -0.0000000000000000000, -1.000000000000000000 ) ) ;
#308 = DIRECTION ( 'NONE',  ( -0.0000000000000000000, -0.0000000000000000000, -1.000000000000000000 ) ) ;
#309 = LINE ( 'NONE', #243, #492 ) ;
#310 = APPLICATION_CONTEXT ( 'configuration controlled 3d designs of mechanical parts and assemblies' ) ;
#311 = DIRECTION ( 'NONE',  ( 0.0000000000000000000, 0.0000000000000000000, 1.000000000000000000 ) ) ;
#312 = VERTEX_POINT ( 'NONE', #351 ) ;
#313 = PERSON_AND_ORGANIZATION_ROLE ( 'creator' ) ;
#314 = VERTEX_POINT ( 'NONE', #661 ) ;
#315 = ORIENTED_EDGE ( 'NONE', *, *, #65, .F. ) ;
#316 = CARTESIAN_POINT ( 'NONE',  ( -1.250000000000000400, 6.799999999999999800, 6.000000000000000000 ) ) ;
#317 = CARTESIAN_POINT ( 'NONE',  ( 2.251804623940733200, 6.799999999999999800, 7.000000000000000000 ) ) ;
#318 = PERSON_AND_ORGANIZATION ( #910, #393 ) ;
#319 = EDGE_CURVE ( 'NONE', #792, #836, #739, .T. ) ;
#320 = EDGE_CURVE ( 'NONE', #823, #360, #431, .T. ) ;
#321 = PLANE ( 'NONE',  #287 ) ;
#322 = DIRECTION ( 'NONE',  ( -0.0000000000000000000, -0.0000000000000000000, -1.000000000000000000 ) ) ;
#323 = FACE_OUTER_BOUND ( 'NONE', #518, .T. ) ;
#324 = FACE_OUTER_BOUND ( 'NONE', #158, .T. ) ;
#325 = ORIENTED_EDGE ( 'NONE', *, *, #640, .F. ) ;
#326 = EDGE_CURVE ( 'NONE', #209, #763, #230, .T. ) ;
#327 = ORIENTED_EDGE ( 'NONE', *, *, #723, .T. ) ;
#328 = LOCAL_TIME ( 15, 28, 38.00000000000000000, #455 ) ;
#329 = DIRECTION ( 'NONE',  ( 0.8660254037844065100, 0.5000000000000555100, 0.0000000000000000000 ) ) ;
#330 = EDGE_CURVE ( 'NONE', #160, #538, #820, .T. ) ;
#331 = CARTESIAN_POINT ( 'NONE',  ( 0.0000000000000000000, 6.799999999999999800, 7.000000000000000000 ) ) ;
#332 = ORIENTED_EDGE ( 'NONE', *, *, #253, .T. ) ;
#333 = EDGE_LOOP ( 'NONE', ( #184, #605 ) ) ;
#334 = CC_DESIGN_PERSON_AND_ORGANIZATION_ASSIGNMENT ( #318, #773, ( #282 ) ) ;
#335 = ORIENTED_EDGE ( 'NONE', *, *, #252, .T. ) ;
#336 = PLANE ( 'NONE',  #377 ) ;
#337 = CARTESIAN_POINT ( 'NONE',  ( -5.888972745734180100, -3.400000000000004400, 0.0000000000000000000 ) ) ;
#338 = EDGE_CURVE ( 'NONE', #836, #792, #849, .T. ) ;
#339 = CYLINDRICAL_SURFACE ( 'NONE', #864, 2.251804623940733700 ) ;
#340 = CIRCLE ( 'NONE', #384, 5.049999999999999800 ) ;
#341 = CARTESIAN_POINT ( 'NONE',  ( -1.250000000000000400, 6.799999999999999800, 7.000000000000000000 ) ) ;
#342 = EDGE_LOOP ( 'NONE', ( #387, #291, #274, #92 ) ) ;
#343 = EDGE_LOOP ( 'NONE', ( #123, #110 ) ) ;
#344 = CARTESIAN_POINT ( 'NONE',  ( -2.251804623940733200, 6.799999999999999800, 0.0000000000000000000 ) ) ;
#345 = ORIENTED_EDGE ( 'NONE', *, *, #671, .F. ) ;
#346 = CARTESIAN_POINT ( 'NONE',  ( 0.0000000000000000000, 6.799999999999999800, 7.000000000000000000 ) ) ;
#347 = EDGE_CURVE ( 'NONE', #885, #208, #680, .T. ) ;
#348 = AXIS2_PLACEMENT_3D ( 'NONE', #84, #304, #1009 ) ;
#349 = ADVANCED_FACE ( 'NONE', ( #860 ), #788, .F. ) ;
#350 = CALENDAR_DATE ( 2018, 27, 11 ) ;
#351 = CARTESIAN_POINT ( 'NONE',  ( 5.049999999999999800, 6.184466335694133100E-016, 0.0000000000000000000 ) ) ;
#352 = CIRCLE ( 'NONE', #677, 6.999999999999999100 ) ;
#353 = CC_DESIGN_PERSON_AND_ORGANIZATION_ASSIGNMENT ( #653, #301, ( #239 ) ) ;
#354 = CARTESIAN_POINT ( 'NONE',  ( -5.888972745734180100, -3.400000000000004400, 7.000000000000000000 ) ) ;
#355 = DIRECTION ( 'NONE',  ( 0.0000000000000000000, 0.0000000000000000000, 1.000000000000000000 ) ) ;
#356 = AXIS2_PLACEMENT_3D ( 'NONE', #561, #13, #395 ) ;
#357 = CARTESIAN_POINT ( 'NONE',  ( 5.888972745734187200, -3.399999999999994600, 0.0000000000000000000 ) ) ;
#358 = CARTESIAN_POINT ( 'NONE',  ( 0.0000000000000000000, 0.0000000000000000000, 0.0000000000000000000 ) ) ;
#359 = ORIENTED_EDGE ( 'NONE', *, *, #151, .T. ) ;
#360 = VERTEX_POINT ( 'NONE', #1000 ) ;
#361 = ORIENTED_EDGE ( 'NONE', *, *, #539, .T. ) ;
#362 = ADVANCED_FACE ( 'NONE', ( #807 ), #369, .T. ) ;
#363 = EDGE_LOOP ( 'NONE', ( #1008, #335, #636, #730, #497, #399, #564, #551 ) ) ;
#364 = DIRECTION ( 'NONE',  ( -0.8660254037844469200, 0.4999999999999855700, 0.0000000000000000000 ) ) ;
#365 = LINE ( 'NONE', #545, #725 ) ;
#366 = CIRCLE ( 'NONE', #918, 7.000000000000001800 ) ;
#367 = CIRCLE ( 'NONE', #645, 5.049999999999999800 ) ;
#368 = CIRCLE ( 'NONE', #567, 7.000000000000003600 ) ;
#369 = PLANE ( 'NONE',  #710 ) ;
#370 = EDGE_CURVE ( 'NONE', #763, #586, #203, .T. ) ;
#371 = VECTOR ( 'NONE', #897, 1000.000000000000200 ) ;
#372 = ORIENTED_EDGE ( 'NONE', *, *, #65, .T. ) ;
#373 = ORIENTED_EDGE ( 'NONE', *, *, #18, .T. ) ;
#374 = CARTESIAN_POINT ( 'NONE',  ( 7.014875057704550400, -1.449879991308058700, 7.000000000000000000 ) ) ;
#375 = CC_DESIGN_APPROVAL ( #49, ( #239 ) ) ;
#376 = DIRECTION ( 'NONE',  ( -0.0000000000000000000, -0.0000000000000000000, -1.000000000000000000 ) ) ;
#377 = AXIS2_PLACEMENT_3D ( 'NONE', #886, #25, #735 ) ;
#378 = APPLICATION_PROTOCOL_DEFINITION ( 'international standard', 'config_control_design', 1994, #310 ) ;
#379 = FACE_OUTER_BOUND ( 'NONE', #622, .T. ) ;
#380 = CARTESIAN_POINT ( 'NONE',  ( -6.865852830197796100, -1.363841968141805700, 7.000000000000000000 ) ) ;
#381 = LINE ( 'NONE', #694, #398 ) ;
#382 = ORIENTED_EDGE ( 'NONE', *, *, #986, .T. ) ;
#383 = CARTESIAN_POINT ( 'NONE',  ( -5.888972745734180100, -3.400000000000004400, 6.000000000000000000 ) ) ;
#384 = AXIS2_PLACEMENT_3D ( 'NONE', #627, #981, #655 ) ;
#385 = DIRECTION ( 'NONE',  ( 1.000000000000000000, 0.0000000000000000000, 0.0000000000000000000 ) ) ;
#386 = ORIENTED_EDGE ( 'NONE', *, *, #454, .T. ) ;
#387 = ORIENTED_EDGE ( 'NONE', *, *, #709, .T. ) ;
#388 = DIRECTION ( 'NONE',  ( 0.0000000000000000000, 0.0000000000000000000, 1.000000000000000000 ) ) ;
#389 = CARTESIAN_POINT ( 'NONE',  ( 0.0000000000000000000, 6.799999999999999800, 7.000000000000000000 ) ) ;
#390 = CARTESIAN_POINT ( 'NONE',  ( -2.251804623940722600, 6.627923953667481000, 7.000000000000000000 ) ) ;
#391 = CC_DESIGN_PERSON_AND_ORGANIZATION_ASSIGNMENT ( #404, #313, ( #185 ) ) ;
#392 = CARTESIAN_POINT ( 'NONE',  ( 0.0000000000000000000, 0.0000000000000000000, 7.000000000000000000 ) ) ;
#393 = ORGANIZATION ( 'UNSPECIFIED', 'UNSPECIFIED', '' ) ;
#394 = AXIS2_PLACEMENT_3D ( 'NONE', #354, #814, #988 ) ;
#395 = DIRECTION ( 'NONE',  ( 1.000000000000000000, 0.0000000000000000000, 0.0000000000000000000 ) ) ;
#396 = VECTOR ( 'NONE', #307, 1000.000000000000000 ) ;
#397 = CARTESIAN_POINT ( 'NONE',  ( 7.000000000000000900, 8.572527594031474200E-016, 7.000000000000000000 ) ) ;
#398 = VECTOR ( 'NONE', #299, 1000.000000000000000 ) ;
#399 = ORIENTED_EDGE ( 'NONE', *, *, #132, .T. ) ;
#400 = ORIENTED_EDGE ( 'NONE', *, *, #225, .F. ) ;
#401 = CARTESIAN_POINT ( 'NONE',  ( 5.888972745734187200, -3.399999999999994600, 6.000000000000000000 ) ) ;
#402 = ORIENTED_EDGE ( 'NONE', *, *, #769, .F. ) ;
#403 = CARTESIAN_POINT ( 'NONE',  ( 5.888972745734187200, -3.399999999999994600, 7.000000000000000000 ) ) ;
#404 = PERSON_AND_ORGANIZATION ( #910, #393 ) ;
#405 = LINE ( 'NONE', #968, #178 ) ;
#406 = DIRECTION ( 'NONE',  ( 0.0000000000000000000, 0.0000000000000000000, 1.000000000000000000 ) ) ;
#407 = LINE ( 'NONE', #907, #371 ) ;
#408 = DIRECTION ( 'NONE',  ( 1.000000000000000000, 0.0000000000000000000, 0.0000000000000000000 ) ) ;
#409 = ORIENTED_EDGE ( 'NONE', *, *, #18, .F. ) ;
#410 = ADVANCED_FACE ( 'NONE', ( #444 ), #142, .F. ) ;
#411 = EDGE_LOOP ( 'NONE', ( #924, #904, #922, #220 ) ) ;
#412 = EDGE_CURVE ( 'NONE', #174, #500, #934, .T. ) ;
#413 = AXIS2_PLACEMENT_3D ( 'NONE', #403, #251, #944 ) ;
#414 = ORIENTED_EDGE ( 'NONE', *, *, #437, .T. ) ;
#415 = CARTESIAN_POINT ( 'NONE',  ( -1.250000000000000400, 6.799999999999999800, 0.0000000000000000000 ) ) ;
#416 = DIRECTION ( 'NONE',  ( 1.000000000000000000, 0.0000000000000000000, -0.0000000000000000000 ) ) ;
#417 = CIRCLE ( 'NONE', #87, 1.250000000000000400 ) ;
#418 = EDGE_CURVE ( 'NONE', #232, #743, #106, .T. ) ;
#419 = CARTESIAN_POINT ( 'NONE',  ( 4.763070433763818600, -5.350120008691938300, 0.0000000000000000000 ) ) ;
#420 = CYLINDRICAL_SURFACE ( 'NONE', #186, 2.251804623940733200 ) ;
#421 = LINE ( 'NONE', #397, #118 ) ;
#422 = CARTESIAN_POINT ( 'NONE',  ( 2.251804623940733200, 6.627923953667478300, 7.000000000000000000 ) ) ;
#423 = ORIENTED_EDGE ( 'NONE', *, *, #429, .F. ) ;
#424 = DIRECTION ( 'NONE',  ( 1.000000000000000000, 0.0000000000000000000, 0.0000000000000000000 ) ) ;
#425 = ADVANCED_FACE ( 'NONE', ( #583 ), #420, .T. ) ;
#426 = CALENDAR_DATE ( 2018, 27, 11 ) ;
#427 = VECTOR ( 'NONE', #574, 1000.000000000000100 ) ;
#428 = DIRECTION ( 'NONE',  ( 0.0000000000000000000, 0.0000000000000000000, 1.000000000000000000 ) ) ;
#429 = EDGE_CURVE ( 'NONE', #979, #660, #963, .T. ) ;
#430 = CARTESIAN_POINT ( 'NONE',  ( 2.251804623940733200, 6.799999999999999800, 7.000000000000000000 ) ) ;
#431 = LINE ( 'NONE', #46, #263 ) ;
#432 = DIRECTION ( 'NONE',  ( 0.0000000000000000000, 0.0000000000000000000, 1.000000000000000000 ) ) ;
#433 = VERTEX_POINT ( 'NONE', #149 ) ;
#434 = DIRECTION ( 'NONE',  ( -0.0000000000000000000, -0.0000000000000000000, -1.000000000000000000 ) ) ;
#435 = ORIENTED_EDGE ( 'NONE', *, *, #199, .T. ) ;
#436 = ORIENTED_EDGE ( 'NONE', *, *, #267, .F. ) ;
#437 = EDGE_CURVE ( 'NONE', #926, #589, #797, .T. ) ;
#438 = AXIS2_PLACEMENT_3D ( 'NONE', #337, #884, #594 ) ;
#439 = CARTESIAN_POINT ( 'NONE',  ( -7.014875057704547800, -1.449879991308065800, 0.0000000000000000000 ) ) ;
#440 = DIRECTION ( 'NONE',  ( 0.0000000000000000000, 0.0000000000000000000, 1.000000000000000000 ) ) ;
#441 = DIRECTION ( 'NONE',  ( 0.0000000000000000000, 0.0000000000000000000, 1.000000000000000000 ) ) ;
#442 = FACE_OUTER_BOUND ( 'NONE', #956, .T. ) ;
#443 = CC_DESIGN_DATE_AND_TIME_ASSIGNMENT ( #912, #83, ( #282 ) ) ;
#444 = FACE_OUTER_BOUND ( 'NONE', #826, .T. ) ;
#445 = EDGE_CURVE ( 'NONE', #100, #207, #1, .T. ) ;
#446 = AXIS2_PLACEMENT_3D ( 'NONE', #389, #933, #145 ) ;
#447 = CARTESIAN_POINT ( 'NONE',  ( -2.251804623940733200, 6.799999999999999800, 7.000000000000000000 ) ) ;
#448 = CARTESIAN_POINT ( 'NONE',  ( -4.638972745734180100, -3.400000000000004400, 0.0000000000000000000 ) ) ;
#449 = VERTEX_POINT ( 'NONE', #527 ) ;
#450 = ORIENTED_EDGE ( 'NONE', *, *, #528, .T. ) ;
#451 = ORIENTED_EDGE ( 'NONE', *, *, #125, .T. ) ;
#452 = VERTEX_POINT ( 'NONE', #775 ) ;
#453 = DIRECTION ( 'NONE',  ( 0.0000000000000000000, 0.0000000000000000000, 1.000000000000000000 ) ) ;
#454 = EDGE_CURVE ( 'NONE', #500, #852, #134, .T. ) ;
#455 = COORDINATED_UNIVERSAL_TIME_OFFSET ( 0, 0, .AHEAD. ) ;
#456 = DIRECTION ( 'NONE',  ( -1.000000000000000000, 0.0000000000000000000, 0.0000000000000000000 ) ) ;
#457 = CARTESIAN_POINT ( 'NONE',  ( -4.763070433763812300, -5.350120008691942700, 0.0000000000000000000 ) ) ;
#458 = FACE_BOUND ( 'NONE', #137, .T. ) ;
#459 = CARTESIAN_POINT ( 'NONE',  ( -4.763070433763812300, -5.350120008691942700, 7.000000000000000000 ) ) ;
#460 = CYLINDRICAL_SURFACE ( 'NONE', #901, 5.049999999999999800 ) ;
#461 = DIRECTION ( 'NONE',  ( 1.000000000000000000, 0.0000000000000000000, 0.0000000000000000000 ) ) ;
#462 = AXIS2_PLACEMENT_3D ( 'NONE', #401, #704, #712 ) ;
#463 = CIRCLE ( 'NONE', #348, 6.999999999999999100 ) ;
#464 = ORIENTED_EDGE ( 'NONE', *, *, #225, .T. ) ;
#465 = DIRECTION ( 'NONE',  ( -0.0000000000000000000, -0.0000000000000000000, -1.000000000000000000 ) ) ;
#466 = ORIENTED_EDGE ( 'NONE', *, *, #770, .T. ) ;
#467 = DIRECTION ( 'NONE',  ( -0.0000000000000000000, -0.0000000000000000000, -1.000000000000000000 ) ) ;
#468 = ORIENTED_EDGE ( 'NONE', *, *, #330, .T. ) ;
#469 = DIRECTION ( 'NONE',  ( -0.0000000000000000000, -0.0000000000000000000, -1.000000000000000000 ) ) ;
#470 = AXIS2_PLACEMENT_3D ( 'NONE', #169, #711, #95 ) ;
#471 = DATE_AND_TIME ( #268, #503 ) ;
#472 = DIRECTION ( 'NONE',  ( 1.000000000000000000, 0.0000000000000000000, 0.0000000000000000000 ) ) ;
#473 = CARTESIAN_POINT ( 'NONE',  ( 1.250000000000000400, 6.799999999999999800, 0.0000000000000000000 ) ) ;
#474 = ORIENTED_EDGE ( 'NONE', *, *, #728, .T. ) ;
#475 = DIRECTION ( 'NONE',  ( -6.552743879331204300E-014, 1.000000000000000000, 0.0000000000000000000 ) ) ;
#476 = CARTESIAN_POINT ( 'NONE',  ( 0.0000000000000000000, 0.0000000000000000000, 15.00000000000000000 ) ) ;
#477 = ORIENTED_EDGE ( 'NONE', *, *, #326, .T. ) ;
#478 = ORIENTED_EDGE ( 'NONE', *, *, #815, .T. ) ;
#479 = ORIENTED_EDGE ( 'NONE', *, *, #566, .F. ) ;
#480 = DIRECTION ( 'NONE',  ( -0.8660254037844842300, 0.4999999999999210600, 0.0000000000000000000 ) ) ;
#481 = LINE ( 'NONE', #94, #832 ) ;
#482 = EDGE_LOOP ( 'NONE', ( #474, #423, #511, #8 ) ) ;
#483 = DIRECTION ( 'NONE',  ( 0.8660254037844421500, 0.4999999999999939500, 0.0000000000000000000 ) ) ;
#484 = ORIENTED_EDGE ( 'NONE', *, *, #266, .T. ) ;
#485 = EDGE_LOOP ( 'NONE', ( #60, #673, #872, #78 ) ) ;
#486 = ORIENTED_EDGE ( 'NONE', *, *, #937, .F. ) ;
#487 = CARTESIAN_POINT ( 'NONE',  ( 7.014875057704550400, -1.449879991308058700, 0.0000000000000000000 ) ) ;
#488 = AXIS2_PLACEMENT_3D ( 'NONE', #585, #736, #734 ) ;
#489 = DIRECTION ( 'NONE',  ( -0.0000000000000000000, -0.0000000000000000000, -1.000000000000000000 ) ) ;
#490 = VECTOR ( 'NONE', #969, 1000.000000000000000 ) ;
#491 = DIRECTION ( 'NONE',  ( -0.0000000000000000000, -0.0000000000000000000, -1.000000000000000000 ) ) ;
#492 = VECTOR ( 'NONE', #637, 1000.000000000000000 ) ;
#493 = CIRCLE ( 'NONE', #470, 2.251804623940733700 ) ;
#494 = PLANE ( 'NONE',  #571 ) ;
#495 = ORIENTED_EDGE ( 'NONE', *, *, #603, .F. ) ;
#496 = DIRECTION ( 'NONE',  ( 1.000000000000000000, 0.0000000000000000000, 0.0000000000000000000 ) ) ;
#497 = ORIENTED_EDGE ( 'NONE', *, *, #560, .T. ) ;
#498 = AXIS2_PLACEMENT_3D ( 'NONE', #217, #606, #67 ) ;
#499 = CARTESIAN_POINT ( 'NONE',  ( 4.763070433763821200, -5.350120008691933800, 0.0000000000000000000 ) ) ;
#500 = VERTEX_POINT ( 'NONE', #847 ) ;
#501 = CARTESIAN_POINT ( 'NONE',  ( 0.0000000000000000000, 0.0000000000000000000, 16.00000000000000000 ) ) ;
#502 = DIRECTION ( 'NONE',  ( 0.0000000000000000000, 0.0000000000000000000, 1.000000000000000000 ) ) ;
#503 = LOCAL_TIME ( 15, 28, 38.00000000000000000, #946 ) ;
#504 = PLANE ( 'NONE',  #21 ) ;
#505 = CARTESIAN_POINT ( 'NONE',  ( 0.0000000000000000000, 0.0000000000000000000, 7.000000000000000000 ) ) ;
#506 = CYLINDRICAL_SURFACE ( 'NONE', #236, 4.049999999999999800 ) ;
#507 = ADVANCED_FACE ( 'NONE', ( #632 ), #831, .F. ) ;
#508 = VERTEX_POINT ( 'NONE', #9 ) ;
#509 = ORIENTED_EDGE ( 'NONE', *, *, #929, .T. ) ;
#510 = AXIS2_PLACEMENT_3D ( 'NONE', #476, #19, #14 ) ;
#511 = ORIENTED_EDGE ( 'NONE', *, *, #97, .F. ) ;
#512 = CARTESIAN_POINT ( 'NONE',  ( -5.888972745734180100, -3.400000000000004400, 7.000000000000000000 ) ) ;
#513 = CARTESIAN_POINT ( 'NONE',  ( -2.251804623940733200, 6.799999999999999800, 0.0000000000000000000 ) ) ;
#514 = FACE_OUTER_BOUND ( 'NONE', #363, .T. ) ;
#515 = DIRECTION ( 'NONE',  ( -0.8660254037844420400, -0.4999999999999939500, -0.0000000000000000000 ) ) ;
#516 = EDGE_CURVE ( 'NONE', #218, #449, #900, .T. ) ;
#517 = VECTOR ( 'NONE', #480, 999.9999999999998900 ) ;
#518 = EDGE_LOOP ( 'NONE', ( #183, #650 ) ) ;
#519 = ORIENTED_EDGE ( 'NONE', *, *, #320, .F. ) ;
#520 = CARTESIAN_POINT ( 'NONE',  ( -4.638972745734180100, -3.400000000000004400, 7.000000000000000000 ) ) ;
#521 = EDGE_LOOP ( 'NONE', ( #519, #80, #386, #509 ) ) ;
#522 = DIRECTION ( 'NONE',  ( -0.0000000000000000000, -0.0000000000000000000, -1.000000000000000000 ) ) ;
#523 = ADVANCED_FACE ( 'NONE', ( #806 ), #339, .T. ) ;
#524 = DIRECTION ( 'NONE',  ( -0.5000000000000556200, 0.8660254037844066200, 0.0000000000000000000 ) ) ;
#525 = COORDINATED_UNIVERSAL_TIME_OFFSET ( 0, 0, .AHEAD. ) ;
#526 = DIRECTION ( 'NONE',  ( -0.8660254037844065100, -0.5000000000000555100, 0.0000000000000000000 ) ) ;
#527 = CARTESIAN_POINT ( 'NONE',  ( 7.138972745734189800, -3.399999999999994600, 6.000000000000000000 ) ) ;
#528 = EDGE_CURVE ( 'NONE', #127, #586, #774, .T. ) ;
#529 = DIRECTION ( 'NONE',  ( -0.0000000000000000000, -0.0000000000000000000, -1.000000000000000000 ) ) ;
#530 = DIRECTION ( 'NONE',  ( -0.0000000000000000000, -0.0000000000000000000, -1.000000000000000000 ) ) ;
#531 = CIRCLE ( 'NONE', #462, 1.250000000000002900 ) ;
#532 = VERTEX_POINT ( 'NONE', #768 ) ;
#533 = CARTESIAN_POINT ( 'NONE',  ( -5.049999999999999800, 0.0000000000000000000, 7.000000000000000000 ) ) ;
#534 = ORIENTED_EDGE ( 'NONE', *, *, #293, .T. ) ;
#535 = AXIS2_PLACEMENT_3D ( 'NONE', #927, #229, #537 ) ;
#536 = CLOSED_SHELL ( 'NONE', ( #215, #889, #1001, #286, #61, #592, #192, #507, #197, #349, #679, #42, #362, #675, #898, #601, #608, #523, #54, #906, #425, #135, #990, #683, #279, #410, #813, #669, #211, #830, #124 ) ) ;
#537 = DIRECTION ( 'NONE',  ( -1.000000000000000000, 0.0000000000000000000, 0.0000000000000000000 ) ) ;
#538 = VERTEX_POINT ( 'NONE', #621 ) ;
#539 = EDGE_CURVE ( 'NONE', #681, #662, #1002, .T. ) ;
#540 = AXIS2_PLACEMENT_3D ( 'NONE', #358, #502, #40 ) ;
#541 = CARTESIAN_POINT ( 'NONE',  ( 0.0000000000000000000, 0.0000000000000000000, 16.00000000000000000 ) ) ;
#542 = DESIGN_CONTEXT ( 'detailed design', #79, 'design' ) ;
#543 = DIRECTION ( 'NONE',  ( 0.0000000000000000000, 0.0000000000000000000, 1.000000000000000000 ) ) ;
#544 = LINE ( 'NONE', #459, #130 ) ;
#545 = CARTESIAN_POINT ( 'NONE',  ( -4.614048206257070500, -5.264081985525673500, 7.000000000000000000 ) ) ;
#546 = CARTESIAN_POINT ( 'NONE',  ( 2.251804623940733700, 6.627923953667480100, 7.000000000000000000 ) ) ;
#547 = FACE_OUTER_BOUND ( 'NONE', #148, .T. ) ;
#548 = DIRECTION ( 'NONE',  ( 0.0000000000000000000, 0.0000000000000000000, 1.000000000000000000 ) ) ;
#549 = VERTEX_POINT ( 'NONE', #546 ) ;
#550 = EDGE_LOOP ( 'NONE', ( #615, #620 ) ) ;
#551 = ORIENTED_EDGE ( 'NONE', *, *, #611, .F. ) ;
#552 = CARTESIAN_POINT ( 'NONE',  ( 7.000000000000004400, 8.572527594031477100E-016, 16.00000000000000000 ) ) ;
#553 = ORIENTED_EDGE ( 'NONE', *, *, #580, .F. ) ;
#554 = CARTESIAN_POINT ( 'NONE',  ( 0.0000000000000000000, 0.0000000000000000000, 0.0000000000000000000 ) ) ;
#555 = AXIS2_PLACEMENT_3D ( 'NONE', #112, #428, #269 ) ;
#556 = CARTESIAN_POINT ( 'NONE',  ( -5.888972745734180100, -3.400000000000004400, 0.0000000000000000000 ) ) ;
#557 = CARTESIAN_POINT ( 'NONE',  ( 0.0000000000000000000, 0.0000000000000000000, 16.00000000000000000 ) ) ;
#558 = DIRECTION ( 'NONE',  ( -0.0000000000000000000, -0.0000000000000000000, -1.000000000000000000 ) ) ;
#559 = VECTOR ( 'NONE', #467, 1000.000000000000000 ) ;
#560 = EDGE_CURVE ( 'NONE', #549, #207, #168, .T. ) ;
#561 = CARTESIAN_POINT ( 'NONE',  ( 0.0000000000000000000, 6.799999999999999800, 7.000000000000000000 ) ) ;
#562 = VERTEX_POINT ( 'NONE', #457 ) ;
#563 = ORIENTED_EDGE ( 'NONE', *, *, #271, .T. ) ;
#564 = ORIENTED_EDGE ( 'NONE', *, *, #676, .T. ) ;
#565 = VERTEX_POINT ( 'NONE', #928 ) ;
#566 = EDGE_CURVE ( 'NONE', #565, #111, #596, .T. ) ;
#567 = AXIS2_PLACEMENT_3D ( 'NONE', #786, #311, #879 ) ;
#568 = DIRECTION ( 'NONE',  ( -1.000000000000000000, 0.0000000000000000000, 0.0000000000000000000 ) ) ;
#569 = CIRCLE ( 'NONE', #356, 2.251804623940733200 ) ;
#570 = EDGE_CURVE ( 'NONE', #812, #312, #367, .T. ) ;
#571 = AXIS2_PLACEMENT_3D ( 'NONE', #331, #878, #881 ) ;
#572 = VERTEX_POINT ( 'NONE', #11 ) ;
#573 = MANIFOLD_SOLID_BREP ( 'Boss-Extrude4', #536 ) ;
#574 = DIRECTION ( 'NONE',  ( -0.8660254037844420400, -0.4999999999999939500, -0.0000000000000000000 ) ) ;
#575 = EDGE_LOOP ( 'NONE', ( #20, #400 ) ) ;
#576 = ORIENTED_EDGE ( 'NONE', *, *, #96, .T. ) ;
#577 = CARTESIAN_POINT ( 'NONE',  ( -4.763070433763812300, -5.350120008691942700, 7.000000000000000000 ) ) ;
#578 = CARTESIAN_POINT ( 'NONE',  ( 7.014875057704550400, -1.449879991308058700, 7.000000000000000000 ) ) ;
#579 = APPROVAL_PERSON_ORGANIZATION ( #187, #117, #155 ) ;
#580 = EDGE_CURVE ( 'NONE', #572, #565, #758, .T. ) ;
#581 = CARTESIAN_POINT ( 'NONE',  ( -4.638972745734180100, -3.400000000000004400, 6.000000000000000000 ) ) ;
#582 = CARTESIAN_POINT ( 'NONE',  ( -5.888972745734180100, -3.400000000000004400, 7.000000000000000000 ) ) ;
#583 = FACE_OUTER_BOUND ( 'NONE', #800, .T. ) ;
#584 = CYLINDRICAL_SURFACE ( 'NONE', #740, 1.250000000000000400 ) ;
#585 = CARTESIAN_POINT ( 'NONE',  ( 0.0000000000000000000, 6.799999999999999800, 0.0000000000000000000 ) ) ;
#586 = VERTEX_POINT ( 'NONE', #473 ) ;
#587 = EDGE_CURVE ( 'NONE', #880, #532, #948, .T. ) ;
#588 = EDGE_CURVE ( 'NONE', #572, #100, #569, .T. ) ;
#589 = VERTEX_POINT ( 'NONE', #165 ) ;
#590 = ORIENTED_EDGE ( 'NONE', *, *, #235, .F. ) ;
#591 = DIRECTION ( 'NONE',  ( 1.000000000000000000, 0.0000000000000000000, 0.0000000000000000000 ) ) ;
#592 = ADVANCED_FACE ( 'NONE', ( #180 ), #283, .F. ) ;
#593 = DATE_AND_TIME ( #350, #328 ) ;
#594 = DIRECTION ( 'NONE',  ( 1.000000000000000000, 0.0000000000000000000, 0.0000000000000000000 ) ) ;
#595 = EDGE_CURVE ( 'NONE', #979, #232, #493, .T. ) ;
#596 = CIRCLE ( 'NONE', #306, 2.251804623940733200 ) ;
#597 = LINE ( 'NONE', #533, #48 ) ;
#598 = EDGE_LOOP ( 'NONE', ( #6, #553, #409, #30 ) ) ;
#599 = ORIENTED_EDGE ( 'NONE', *, *, #181, .F. ) ;
#600 = CARTESIAN_POINT ( 'NONE',  ( -2.944486372867090000, -1.700000000000002200, 6.000000000000000000 ) ) ;
#601 = ADVANCED_FACE ( 'NONE', ( #189 ), #321, .F. ) ;
#602 = ORIENTED_EDGE ( 'NONE', *, *, #709, .F. ) ;
#603 = EDGE_CURVE ( 'NONE', #681, #532, #144, .T. ) ;
#604 = EDGE_CURVE ( 'NONE', #232, #452, #717, .T. ) ;
#605 = ORIENTED_EDGE ( 'NONE', *, *, #815, .F. ) ;
#606 = DIRECTION ( 'NONE',  ( 0.0000000000000000000, 0.0000000000000000000, 1.000000000000000000 ) ) ;
#607 = CARTESIAN_POINT ( 'NONE',  ( 0.0000000000000000000, 6.799999999999999800, 7.000000000000000000 ) ) ;
#608 = ADVANCED_FACE ( 'NONE', ( #974 ), #175, .F. ) ;
#609 = SHAPE_DEFINITION_REPRESENTATION ( #909, #610 ) ;
#610 = ADVANCED_BREP_SHAPE_REPRESENTATION ( 'Linear Bearing mount_2', ( #573, #85 ), #848 ) ;
#611 = EDGE_CURVE ( 'NONE', #885, #943, #309, .T. ) ;
#612 = DIRECTION ( 'NONE',  ( -1.000000000000000000, 0.0000000000000000000, 0.0000000000000000000 ) ) ;
#613 = CIRCLE ( 'NONE', #298, 1.250000000000002900 ) ;
#614 = DIRECTION ( 'NONE',  ( -1.000000000000000000, 0.0000000000000000000, 0.0000000000000000000 ) ) ;
#615 = ORIENTED_EDGE ( 'NONE', *, *, #347, .T. ) ;
#616 = ORIENTED_EDGE ( 'NONE', *, *, #751, .T. ) ;
#617 = DIRECTION ( 'NONE',  ( -0.0000000000000000000, -0.0000000000000000000, -1.000000000000000000 ) ) ;
#618 = EDGE_CURVE ( 'NONE', #433, #452, #366, .T. ) ;
#619 = MECHANICAL_CONTEXT ( 'NONE', #310, 'mechanical' ) ;
#620 = ORIENTED_EDGE ( 'NONE', *, *, #248, .T. ) ;
#621 = CARTESIAN_POINT ( 'NONE',  ( 4.049999999999999800, 4.959819536546779600E-016, 16.00000000000000000 ) ) ;
#622 = EDGE_LOOP ( 'NONE', ( #373, #955, #1007, #882 ) ) ;
#623 = VERTEX_POINT ( 'NONE', #703 ) ;
#624 = APPROVAL_STATUS ( 'not_yet_approved' ) ;
#625 = ORIENTED_EDGE ( 'NONE', *, *, #640, .T. ) ;
#626 = EDGE_CURVE ( 'NONE', #174, #957, #72, .T. ) ;
#627 = CARTESIAN_POINT ( 'NONE',  ( 0.0000000000000000000, 0.0000000000000000000, 15.00000000000000000 ) ) ;
#628 = CYLINDRICAL_SURFACE ( 'NONE', #15, 2.251804623940733200 ) ;
#629 = CARTESIAN_POINT ( 'NONE',  ( -7.138972745734180900, -3.400000000000004400, 7.000000000000000000 ) ) ;
#630 = CARTESIAN_POINT ( 'NONE',  ( 4.638972745734184500, -3.399999999999994600, 7.000000000000000000 ) ) ;
#631 = PERSON_AND_ORGANIZATION_ROLE ( 'design_owner' ) ;
#632 = FACE_OUTER_BOUND ( 'NONE', #107, .T. ) ;
#633 = CARTESIAN_POINT ( 'NONE',  ( 7.014875057704550400, -1.449879991308058700, 7.000000000000000000 ) ) ;
#634 = EDGE_CURVE ( 'NONE', #549, #752, #888, .T. ) ;
#635 = FACE_OUTER_BOUND ( 'NONE', #940, .T. ) ;
#636 = ORIENTED_EDGE ( 'NONE', *, *, #841, .T. ) ;
#637 = DIRECTION ( 'NONE',  ( -0.0000000000000000000, -0.0000000000000000000, -1.000000000000000000 ) ) ;
#638 = ORIENTED_EDGE ( 'NONE', *, *, #770, .F. ) ;
#639 = CARTESIAN_POINT ( 'NONE',  ( -4.049999999999999800, 0.0000000000000000000, 16.00000000000000000 ) ) ;
#640 = EDGE_CURVE ( 'NONE', #449, #589, #104, .T. ) ;
#641 = EDGE_CURVE ( 'NONE', #752, #565, #715, .T. ) ;
#642 = CARTESIAN_POINT ( 'NONE',  ( -2.251804623940733200, 6.799999999999999800, 7.000000000000000000 ) ) ;
#643 = LOCAL_TIME ( 15, 28, 38.00000000000000000, #525 ) ;
#644 = COORDINATED_UNIVERSAL_TIME_OFFSET ( 0, 0, .AHEAD. ) ;
#645 = AXIS2_PLACEMENT_3D ( 'NONE', #98, #949, #720 ) ;
#646 = CYLINDRICAL_SURFACE ( 'NONE', #793, 1.250000000000000200 ) ;
#647 = DIRECTION ( 'NONE',  ( 0.0000000000000000000, 0.0000000000000000000, 1.000000000000000000 ) ) ;
#648 = ORIENTED_EDGE ( 'NONE', *, *, #253, .F. ) ;
#649 = ORIENTED_EDGE ( 'NONE', *, *, #198, .F. ) ;
#650 = ORIENTED_EDGE ( 'NONE', *, *, #266, .F. ) ;
#651 = CARTESIAN_POINT ( 'NONE',  ( 2.251804623940733200, 6.627923953667478300, 0.0000000000000000000 ) ) ;
#652 = ORIENTED_EDGE ( 'NONE', *, *, #252, .F. ) ;
#653 = PERSON_AND_ORGANIZATION ( #910, #393 ) ;
#654 = CARTESIAN_POINT ( 'NONE',  ( 0.0000000000000000000, 3.399999999999999900, 6.000000000000000000 ) ) ;
#655 = DIRECTION ( 'NONE',  ( 1.000000000000000000, 0.0000000000000000000, 0.0000000000000000000 ) ) ;
#656 = AXIS2_PLACEMENT_3D ( 'NONE', #501, #52, #591 ) ;
#657 = CIRCLE ( 'NONE', #822, 7.000000000000000900 ) ;
#658 = DIRECTION ( 'NONE',  ( 0.8660254037844065100, 0.5000000000000555100, 0.0000000000000000000 ) ) ;
#659 = ORIENTED_EDGE ( 'NONE', *, *, #877, .T. ) ;
#660 = VERTEX_POINT ( 'NONE', #499 ) ;
#661 = CARTESIAN_POINT ( 'NONE',  ( -4.614048206257070500, -5.264081985525673500, 7.000000000000000000 ) ) ;
#662 = VERTEX_POINT ( 'NONE', #581 ) ;
#663 = CARTESIAN_POINT ( 'NONE',  ( -4.049999999999999800, 0.0000000000000000000, 15.00000000000000000 ) ) ;
#664 = LINE ( 'NONE', #962, #795 ) ;
#665 = DIRECTION ( 'NONE',  ( 0.0000000000000000000, 0.0000000000000000000, 1.000000000000000000 ) ) ;
#666 = CIRCLE ( 'NONE', #701, 2.251804623940732800 ) ;
#667 = FACE_OUTER_BOUND ( 'NONE', #867, .T. ) ;
#668 = CARTESIAN_POINT ( 'NONE',  ( 0.0000000000000000000, 0.0000000000000000000, 15.00000000000000000 ) ) ;
#669 = ADVANCED_FACE ( 'NONE', ( #1012 ), #105, .F. ) ;
#670 = PLANE ( 'NONE',  #672 ) ;
#671 = EDGE_CURVE ( 'NONE', #883, #314, #24, .T. ) ;
#672 = AXIS2_PLACEMENT_3D ( 'NONE', #821, #524, #526 ) ;
#673 = ORIENTED_EDGE ( 'NONE', *, *, #96, .F. ) ;
#674 = CARTESIAN_POINT ( 'NONE',  ( -5.049999999999999800, 0.0000000000000000000, 0.0000000000000000000 ) ) ;
#675 = ADVANCED_FACE ( 'NONE', ( #727, #458, #819, #772, #796 ), #336, .F. ) ;
#676 = EDGE_CURVE ( 'NONE', #41, #943, #352, .T. ) ;
#677 = AXIS2_PLACEMENT_3D ( 'NONE', #255, #31, #408 ) ;
#678 = CARTESIAN_POINT ( 'NONE',  ( 0.0000000000000000000, 6.799999999999999800, 7.000000000000000000 ) ) ;
#679 = ADVANCED_FACE ( 'NONE', ( #379 ), #494, .T. ) ;
#680 = CIRCLE ( 'NONE', #555, 7.000000000000003600 ) ;
#681 = VERTEX_POINT ( 'NONE', #34 ) ;
#682 = ORIENTED_EDGE ( 'NONE', *, *, #626, .F. ) ;
#683 = ADVANCED_FACE ( 'NONE', ( #932 ), #101, .F. ) ;
#684 = CARTESIAN_POINT ( 'NONE',  ( -2.251804623940733200, 6.799999999999999800, 7.000000000000000000 ) ) ;
#685 = DIRECTION ( 'NONE',  ( 1.000000000000000000, 0.0000000000000000000, 0.0000000000000000000 ) ) ;
#686 = EDGE_CURVE ( 'NONE', #743, #508, #281, .T. ) ;
#687 = AXIS2_PLACEMENT_3D ( 'NONE', #346, #892, #214 ) ;
#688 = CARTESIAN_POINT ( 'NONE',  ( -5.888972745734180100, -3.400000000000004400, 6.000000000000000000 ) ) ;
#689 = VECTOR ( 'NONE', #804, 1000.000000000000000 ) ;
#690 = CARTESIAN_POINT ( 'NONE',  ( 4.763070433763818600, -5.350120008691938300, 7.000000000000000000 ) ) ;
#691 = FACE_OUTER_BOUND ( 'NONE', #764, .T. ) ;
#692 = CARTESIAN_POINT ( 'NONE',  ( -7.014875057704547800, -1.449879991308065800, 7.000000000000000000 ) ) ;
#693 = CIRCLE ( 'NONE', #802, 5.049999999999999800 ) ;
#694 = CARTESIAN_POINT ( 'NONE',  ( -2.251804623940722600, 6.627923953667481000, 7.000000000000000000 ) ) ;
#695 = EDGE_LOOP ( 'NONE', ( #652, #895, #76, #811, #682, #141, #138, #991, #590, #732, #576, #754 ) ) ;
#696 = DIRECTION ( 'NONE',  ( -0.0000000000000000000, -0.0000000000000000000, -1.000000000000000000 ) ) ;
#697 = EDGE_LOOP ( 'NONE', ( #39, #765 ) ) ;
#698 = DATE_TIME_ROLE ( 'creation_date' ) ;
#699 = DIRECTION ( 'NONE',  ( 1.000000000000000000, 0.0000000000000000000, 0.0000000000000000000 ) ) ;
#700 = FACE_OUTER_BOUND ( 'NONE', #482, .T. ) ;
#701 = AXIS2_PLACEMENT_3D ( 'NONE', #512, #432, #816 ) ;
#702 = DIRECTION ( 'NONE',  ( -1.000000000000000000, 0.0000000000000000000, 0.0000000000000000000 ) ) ;
#703 = CARTESIAN_POINT ( 'NONE',  ( 7.000000000000000900, 8.572527594031474200E-016, 0.0000000000000000000 ) ) ;
#704 = DIRECTION ( 'NONE',  ( 0.0000000000000000000, 0.0000000000000000000, 1.000000000000000000 ) ) ;
#705 = ORIENTED_EDGE ( 'NONE', *, *, #320, .T. ) ;
#706 = EDGE_LOOP ( 'NONE', ( #731, #302, #1005, #534, #953 ) ) ;
#707 = APPROVAL_ROLE ( '' ) ;
#708 = ORIENTED_EDGE ( 'NONE', *, *, #108, .F. ) ;
#709 = EDGE_CURVE ( 'NONE', #957, #852, #845, .T. ) ;
#710 = AXIS2_PLACEMENT_3D ( 'NONE', #607, #440, #55 ) ;
#711 = DIRECTION ( 'NONE',  ( 0.0000000000000000000, 0.0000000000000000000, 1.000000000000000000 ) ) ;
#712 = DIRECTION ( 'NONE',  ( 1.000000000000000000, 0.0000000000000000000, 0.0000000000000000000 ) ) ;
#713 = CARTESIAN_POINT ( 'NONE',  ( 0.0000000000000000000, 0.0000000000000000000, 7.000000000000000000 ) ) ;
#714 = DIRECTION ( 'NONE',  ( -0.0000000000000000000, -0.0000000000000000000, -1.000000000000000000 ) ) ;
#715 = LINE ( 'NONE', #973, #228 ) ;
#716 = AXIS2_PLACEMENT_3D ( 'NONE', #116, #280, #827 ) ;
#717 = LINE ( 'NONE', #633, #517 ) ;
#718 = DIRECTION ( 'NONE',  ( 1.000000000000000000, 0.0000000000000000000, 0.0000000000000000000 ) ) ;
#719 = CYLINDRICAL_SURFACE ( 'NONE', #12, 2.251804623940733700 ) ;
#720 = DIRECTION ( 'NONE',  ( 1.000000000000000000, 0.0000000000000000000, 0.0000000000000000000 ) ) ;
#721 = ORIENTED_EDGE ( 'NONE', *, *, #528, .F. ) ;
#722 = ORIENTED_EDGE ( 'NONE', *, *, #686, .F. ) ;
#723 = EDGE_CURVE ( 'NONE', #127, #209, #417, .T. ) ;
#724 = CARTESIAN_POINT ( 'NONE',  ( 7.138972745734189800, -3.399999999999994600, 7.000000000000000000 ) ) ;
#725 = VECTOR ( 'NONE', #465, 1000.000000000000000 ) ;
#726 = CARTESIAN_POINT ( 'NONE',  ( -7.014875057704547800, -1.449879991308064900, 0.0000000000000000000 ) ) ;
#727 = FACE_OUTER_BOUND ( 'NONE', #193, .T. ) ;
#728 = EDGE_CURVE ( 'NONE', #212, #660, #913, .T. ) ;
#729 = AXIS2_PLACEMENT_3D ( 'NONE', #556, #870, #718 ) ;
#730 = ORIENTED_EDGE ( 'NONE', *, *, #634, .F. ) ;
#731 = ORIENTED_EDGE ( 'NONE', *, *, #671, .T. ) ;
#732 = ORIENTED_EDGE ( 'NONE', *, *, #618, .T. ) ;
#733 = CARTESIAN_POINT ( 'NONE',  ( 2.251804623940733200, 6.799999999999999800, 7.000000000000000000 ) ) ;
#734 = DIRECTION ( 'NONE',  ( 1.000000000000000000, 0.0000000000000000000, 0.0000000000000000000 ) ) ;
#735 = DIRECTION ( 'NONE',  ( 1.000000000000000000, 0.0000000000000000000, -0.0000000000000000000 ) ) ;
#736 = DIRECTION ( 'NONE',  ( 0.0000000000000000000, 0.0000000000000000000, 1.000000000000000000 ) ) ;
#737 = VECTOR ( 'NONE', #865, 1000.000000000000000 ) ;
#738 = DIRECTION ( 'NONE',  ( -0.0000000000000000000, -0.0000000000000000000, -1.000000000000000000 ) ) ;
#739 = CIRCLE ( 'NONE', #857, 4.049999999999999800 ) ;
#740 = AXIS2_PLACEMENT_3D ( 'NONE', #851, #529, #838 ) ;
#741 = FACE_BOUND ( 'NONE', #697, .T. ) ;
#742 = DIRECTION ( 'NONE',  ( 0.0000000000000000000, 0.0000000000000000000, 1.000000000000000000 ) ) ;
#743 = VERTEX_POINT ( 'NONE', #803 ) ;
#744 = ORIENTED_EDGE ( 'NONE', *, *, #198, .T. ) ;
#745 = CARTESIAN_POINT ( 'NONE',  ( 0.0000000000000000000, 0.0000000000000000000, 16.00000000000000000 ) ) ;
#746 = CIRCLE ( 'NONE', #805, 7.000000000000000900 ) ;
#747 = DIRECTION ( 'NONE',  ( 0.0000000000000000000, 0.0000000000000000000, 1.000000000000000000 ) ) ;
#748 = CARTESIAN_POINT ( 'NONE',  ( 0.0000000000000000000, 0.0000000000000000000, 0.0000000000000000000 ) ) ;
#749 = CYLINDRICAL_SURFACE ( 'NONE', #66, 4.049999999999999800 ) ;
#750 = ORIENTED_EDGE ( 'NONE', *, *, #338, .F. ) ;
#751 = EDGE_CURVE ( 'NONE', #992, #312, #664, .T. ) ;
#752 = VERTEX_POINT ( 'NONE', #651 ) ;
#753 = CARTESIAN_POINT ( 'NONE',  ( 0.0000000000000000000, 0.0000000000000000000, 0.0000000000000000000 ) ) ;
#754 = ORIENTED_EDGE ( 'NONE', *, *, #45, .T. ) ;
#755 = AXIS2_PLACEMENT_3D ( 'NONE', #136, #376, #612 ) ;
#756 = LOCAL_TIME ( 15, 28, 38.00000000000000000, #644 ) ;
#757 = DIRECTION ( 'NONE',  ( -0.0000000000000000000, -0.0000000000000000000, -1.000000000000000000 ) ) ;
#758 = LINE ( 'NONE', #317, #916 ) ;
#759 = DIRECTION ( 'NONE',  ( 1.000000000000000000, 0.0000000000000000000, 0.0000000000000000000 ) ) ;
#760 = LINE ( 'NONE', #630, #936 ) ;
#761 = EDGE_LOOP ( 'NONE', ( #659, #995, #850, #966 ) ) ;
#762 = CARTESIAN_POINT ( 'NONE',  ( 0.0000000000000000000, 6.799999999999999800, 6.000000000000000000 ) ) ;
#763 = VERTEX_POINT ( 'NONE', #415 ) ;
#764 = EDGE_LOOP ( 'NONE', ( #402, #705, #744, #50 ) ) ;
#765 = ORIENTED_EDGE ( 'NONE', *, *, #319, .T. ) ;
#766 = APPLICATION_PROTOCOL_DEFINITION ( 'international standard', 'config_control_design', 1994, #79 ) ;
#767 = LINE ( 'NONE', #520, #44 ) ;
#768 = CARTESIAN_POINT ( 'NONE',  ( -7.138972745734180900, -3.400000000000004400, 0.0000000000000000000 ) ) ;
#769 = EDGE_CURVE ( 'NONE', #823, #883, #876, .T. ) ;
#770 = EDGE_CURVE ( 'NONE', #562, #195, #405, .T. ) ;
#771 = PLANE ( 'NONE',  #82 ) ;
#772 = FACE_BOUND ( 'NONE', #921, .T. ) ;
#773 = PERSON_AND_ORGANIZATION_ROLE ( 'classification_officer' ) ;
#774 = LINE ( 'NONE', #231, #396 ) ;
#775 = CARTESIAN_POINT ( 'NONE',  ( 6.865852830197795200, -1.363841968141815200, 7.000000000000000000 ) ) ;
#776 = DIRECTION ( 'NONE',  ( -0.0000000000000000000, -0.0000000000000000000, -1.000000000000000000 ) ) ;
#777 = ORIENTED_EDGE ( 'NONE', *, *, #181, .T. ) ;
#778 = ORIENTED_EDGE ( 'NONE', *, *, #370, .F. ) ;
#779 = AXIS2_PLACEMENT_3D ( 'NONE', #668, #665, #200 ) ;
#780 = DIRECTION ( 'NONE',  ( -0.0000000000000000000, -0.0000000000000000000, -1.000000000000000000 ) ) ;
#781 = CARTESIAN_POINT ( 'NONE',  ( 4.614048206257064200, -5.264081985525679700, 0.0000000000000000000 ) ) ;
#782 = DIRECTION ( 'NONE',  ( 0.0000000000000000000, 0.0000000000000000000, 1.000000000000000000 ) ) ;
#783 = DIRECTION ( 'NONE',  ( -0.0000000000000000000, -0.0000000000000000000, -1.000000000000000000 ) ) ;
#784 = CARTESIAN_POINT ( 'NONE',  ( 4.763070433763821200, -5.350120008691933800, 7.000000000000000000 ) ) ;
#785 = CARTESIAN_POINT ( 'NONE',  ( 0.0000000000000000000, 6.799999999999999800, 0.0000000000000000000 ) ) ;
#786 = CARTESIAN_POINT ( 'NONE',  ( 0.0000000000000000000, 0.0000000000000000000, 16.00000000000000000 ) ) ;
#787 = VECTOR ( 'NONE', #923, 1000.000000000000000 ) ;
#788 = CYLINDRICAL_SURFACE ( 'NONE', #259, 1.250000000000000200 ) ;
#789 = FACE_OUTER_BOUND ( 'NONE', #485, .T. ) ;
#790 = DIRECTION ( 'NONE',  ( 1.000000000000000000, 0.0000000000000000000, 0.0000000000000000000 ) ) ;
#791 = ORIENTED_EDGE ( 'NONE', *, *, #516, .T. ) ;
#792 = VERTEX_POINT ( 'NONE', #977 ) ;
#793 = AXIS2_PLACEMENT_3D ( 'NONE', #131, #434, #614 ) ;
#794 = LINE ( 'NONE', #344, #224 ) ;
#795 = VECTOR ( 'NONE', #179, 1000.000000000000000 ) ;
#796 = FACE_BOUND ( 'NONE', #837, .T. ) ;
#797 = CIRCLE ( 'NONE', #2, 1.250000000000002900 ) ;
#798 = CIRCLE ( 'NONE', #967, 1.250000000000000400 ) ;
#799 = ORIENTED_EDGE ( 'NONE', *, *, #278, .F. ) ;
#800 = EDGE_LOOP ( 'NONE', ( #905, #941, #300, #244 ) ) ;
#801 = ORIENTED_EDGE ( 'NONE', *, *, #588, .F. ) ;
#802 = AXIS2_PLACEMENT_3D ( 'NONE', #748, #441, #289 ) ;
#803 = CARTESIAN_POINT ( 'NONE',  ( 7.014875057704550400, -1.449879991308058700, 0.0000000000000000000 ) ) ;
#804 = DIRECTION ( 'NONE',  ( -0.0000000000000000000, -0.0000000000000000000, -1.000000000000000000 ) ) ;
#805 = AXIS2_PLACEMENT_3D ( 'NONE', #753, #388, #472 ) ;
#806 = FACE_OUTER_BOUND ( 'NONE', #521, .T. ) ;
#807 = FACE_OUTER_BOUND ( 'NONE', #411, .T. ) ;
#808 = DIRECTION ( 'NONE',  ( -0.0000000000000000000, 1.000000000000000000, -0.0000000000000000000 ) ) ;
#809 = LINE ( 'NONE', #201, #27 ) ;
#810 = CARTESIAN_POINT ( 'NONE',  ( 0.0000000000000000000, 0.0000000000000000000, 15.00000000000000000 ) ) ;
#811 = ORIENTED_EDGE ( 'NONE', *, *, #162, .T. ) ;
#812 = VERTEX_POINT ( 'NONE', #674 ) ;
#813 = ADVANCED_FACE ( 'NONE', ( #35 ), #504, .F. ) ;
#814 = DIRECTION ( 'NONE',  ( 0.0000000000000000000, 0.0000000000000000000, 1.000000000000000000 ) ) ;
#815 = EDGE_CURVE ( 'NONE', #538, #160, #56, .T. ) ;
#816 = DIRECTION ( 'NONE',  ( 1.000000000000000000, 0.0000000000000000000, 0.0000000000000000000 ) ) ;
#817 = APPROVAL_DATE_TIME ( #23, #117 ) ;
#818 = PLANE ( 'NONE',  #687 ) ;
#819 = FACE_BOUND ( 'NONE', #343, .T. ) ;
#820 = CIRCLE ( 'NONE', #656, 4.049999999999999800 ) ;
#821 = CARTESIAN_POINT ( 'NONE',  ( -4.763070433763812300, -5.350120008691942700, 7.000000000000000000 ) ) ;
#822 = AXIS2_PLACEMENT_3D ( 'NONE', #835, #59, #1003 ) ;
#823 = VERTEX_POINT ( 'NONE', #887 ) ;
#824 = ORIENTED_EDGE ( 'NONE', *, *, #929, .F. ) ;
#825 = ORIENTED_EDGE ( 'NONE', *, *, #108, .T. ) ;
#826 = EDGE_LOOP ( 'NONE', ( #256, #290 ) ) ;
#827 = DIRECTION ( 'NONE',  ( 1.000000000000000000, 0.0000000000000000000, 0.0000000000000000000 ) ) ;
#828 = DIRECTION ( 'NONE',  ( 0.0000000000000000000, 0.0000000000000000000, 1.000000000000000000 ) ) ;
#829 = DIRECTION ( 'NONE',  ( -0.0000000000000000000, -0.0000000000000000000, -1.000000000000000000 ) ) ;
#830 = ADVANCED_FACE ( 'NONE', ( #858, #216 ), #980, .T. ) ;
#831 = CYLINDRICAL_SURFACE ( 'NONE', #446, 1.250000000000000400 ) ;
#832 = VECTOR ( 'NONE', #322, 1000.000000000000000 ) ;
#833 = DIRECTION ( 'NONE',  ( -1.000000000000000000, 0.0000000000000000000, 0.0000000000000000000 ) ) ;
#834 = FACE_OUTER_BOUND ( 'NONE', #706, .T. ) ;
#835 = CARTESIAN_POINT ( 'NONE',  ( 0.0000000000000000000, 0.0000000000000000000, 0.0000000000000000000 ) ) ;
#836 = VERTEX_POINT ( 'NONE', #663 ) ;
#837 = EDGE_LOOP ( 'NONE', ( #563, #908 ) ) ;
#838 = DIRECTION ( 'NONE',  ( -1.000000000000000000, 0.0000000000000000000, 0.0000000000000000000 ) ) ;
#839 = DIRECTION ( 'NONE',  ( 1.000000000000000000, 0.0000000000000000000, 0.0000000000000000000 ) ) ;
#840 = PERSON_AND_ORGANIZATION ( #910, #393 ) ;
#841 = EDGE_CURVE ( 'NONE', #623, #752, #70, .T. ) ;
#842 = AXIS2_PLACEMENT_3D ( 'NONE', #238, #861, #496 ) ;
#843 = CARTESIAN_POINT ( 'NONE',  ( 1.250000000000000400, 6.799999999999999800, 6.000000000000000000 ) ) ;
#844 = CYLINDRICAL_SURFACE ( 'NONE', #32, 7.000000000000000900 ) ;
#845 = LINE ( 'NONE', #726, #427 ) ;
#846 = CARTESIAN_POINT ( 'NONE',  ( -7.000000000000004400, 0.0000000000000000000, 16.00000000000000000 ) ) ;
#847 = CARTESIAN_POINT ( 'NONE',  ( -7.014875057704547800, -1.449879991308065800, 7.000000000000000000 ) ) ;
#848 =( GEOMETRIC_REPRESENTATION_CONTEXT ( 3 ) GLOBAL_UNCERTAINTY_ASSIGNED_CONTEXT ( ( #17 ) ) GLOBAL_UNIT_ASSIGNED_CONTEXT ( ( #935, #7, #233 ) ) REPRESENTATION_CONTEXT ( 'NONE', 'WORKASPACE' ) );
#849 = CIRCLE ( 'NONE', #779, 4.049999999999999800 ) ;
#850 = ORIENTED_EDGE ( 'NONE', *, *, #445, .F. ) ;
#851 = CARTESIAN_POINT ( 'NONE',  ( 0.0000000000000000000, 6.799999999999999800, 7.000000000000000000 ) ) ;
#852 = VERTEX_POINT ( 'NONE', #439 ) ;
#853 = EDGE_LOOP ( 'NONE', ( #468, #332, #750, #436 ) ) ;
#854 = DIRECTION ( 'NONE',  ( 0.0000000000000000000, 0.0000000000000000000, 1.000000000000000000 ) ) ;
#855 = DIRECTION ( 'NONE',  ( -1.000000000000000000, 0.0000000000000000000, 0.0000000000000000000 ) ) ;
#856 = PERSON_AND_ORGANIZATION_ROLE ( 'design_supplier' ) ;
#857 = AXIS2_PLACEMENT_3D ( 'NONE', #810, #891, #424 ) ;
#858 = FACE_OUTER_BOUND ( 'NONE', #550, .T. ) ;
#859 = CARTESIAN_POINT ( 'NONE',  ( 0.0000000000000000000, 0.0000000000000000000, 7.000000000000000000 ) ) ;
#860 = FACE_OUTER_BOUND ( 'NONE', #10, .T. ) ;
#861 = DIRECTION ( 'NONE',  ( 0.0000000000000000000, 0.0000000000000000000, 1.000000000000000000 ) ) ;
#862 = CC_DESIGN_APPROVAL ( #117, ( #185 ) ) ;
#863 = ORIENTED_EDGE ( 'NONE', *, *, #603, .T. ) ;
#864 = AXIS2_PLACEMENT_3D ( 'NONE', #3, #780, #1010 ) ;
#865 = DIRECTION ( 'NONE',  ( -0.0000000000000000000, -0.0000000000000000000, -1.000000000000000000 ) ) ;
#866 = ORIENTED_EDGE ( 'NONE', *, *, #580, .T. ) ;
#867 = EDGE_LOOP ( 'NONE', ( #648, #478, #994, #63 ) ) ;
#868 = CIRCLE ( 'NONE', #498, 2.251804623940733700 ) ;
#869 = EDGE_CURVE ( 'NONE', #660, #743, #868, .T. ) ;
#870 = DIRECTION ( 'NONE',  ( 0.0000000000000000000, 0.0000000000000000000, 1.000000000000000000 ) ) ;
#871 = DIRECTION ( 'NONE',  ( 0.4999999999999939500, -0.8660254037844421500, 0.0000000000000000000 ) ) ;
#872 = ORIENTED_EDGE ( 'NONE', *, *, #604, .F. ) ;
#873 = ORIENTED_EDGE ( 'NONE', *, *, #199, .F. ) ;
#874 = EDGE_CURVE ( 'NONE', #288, #992, #177, .T. ) ;
#875 = DIRECTION ( 'NONE',  ( 0.0000000000000000000, 0.0000000000000000000, 1.000000000000000000 ) ) ;
#876 = CIRCLE ( 'NONE', #394, 2.251804623940732800 ) ;
#877 = EDGE_CURVE ( 'NONE', #111, #41, #794, .T. ) ;
#878 = DIRECTION ( 'NONE',  ( 0.0000000000000000000, 0.0000000000000000000, 1.000000000000000000 ) ) ;
#879 = DIRECTION ( 'NONE',  ( 1.000000000000000000, 0.0000000000000000000, 0.0000000000000000000 ) ) ;
#880 = VERTEX_POINT ( 'NONE', #448 ) ;
#881 = DIRECTION ( 'NONE',  ( 1.000000000000000000, 0.0000000000000000000, -0.0000000000000000000 ) ) ;
#882 = ORIENTED_EDGE ( 'NONE', *, *, #560, .F. ) ;
#883 = VERTEX_POINT ( 'NONE', #917 ) ;
#884 = DIRECTION ( 'NONE',  ( 0.0000000000000000000, 0.0000000000000000000, 1.000000000000000000 ) ) ;
#885 = VERTEX_POINT ( 'NONE', #846 ) ;
#886 = CARTESIAN_POINT ( 'NONE',  ( 0.0000000000000000000, 6.799999999999999800, 0.0000000000000000000 ) ) ;
#887 = CARTESIAN_POINT ( 'NONE',  ( -8.140777369674914600, -3.400000000000004400, 7.000000000000000000 ) ) ;
#888 = LINE ( 'NONE', #422, #689 ) ;
#889 = ADVANCED_FACE ( 'NONE', ( #164 ), #260, .F. ) ;
#890 = VECTOR ( 'NONE', #262, 1000.000000000000000 ) ;
#891 = DIRECTION ( 'NONE',  ( 0.0000000000000000000, 0.0000000000000000000, 1.000000000000000000 ) ) ;
#892 = DIRECTION ( 'NONE',  ( 0.0000000000000000000, 0.0000000000000000000, 1.000000000000000000 ) ) ;
#893 = ORIENTED_EDGE ( 'NONE', *, *, #271, .F. ) ;
#894 = APPROVAL ( #624, 'UNSPECIFIED' ) ;
#895 = ORIENTED_EDGE ( 'NONE', *, *, #347, .F. ) ;
#896 = DIRECTION ( 'NONE',  ( -1.000000000000000000, 0.0000000000000000000, 0.0000000000000000000 ) ) ;
#897 = DIRECTION ( 'NONE',  ( 0.8660254037844469200, -0.4999999999999855700, -0.0000000000000000000 ) ) ;
#898 = ADVANCED_FACE ( 'NONE', ( #442 ), #628, .T. ) ;
#899 = VECTOR ( 'NONE', #489, 1000.000000000000000 ) ;
#900 = CIRCLE ( 'NONE', #33, 1.250000000000002900 ) ;
#901 = AXIS2_PLACEMENT_3D ( 'NONE', #505, #276, #113 ) ;
#902 = VECTOR ( 'NONE', #491, 1000.000000000000000 ) ;
#903 = DIRECTION ( 'NONE',  ( 1.000000000000000000, 0.0000000000000000000, 0.0000000000000000000 ) ) ;
#904 = ORIENTED_EDGE ( 'NONE', *, *, #595, .T. ) ;
#905 = ORIENTED_EDGE ( 'NONE', *, *, #429, .T. ) ;
#906 = ADVANCED_FACE ( 'NONE', ( #700 ), #71, .F. ) ;
#907 = CARTESIAN_POINT ( 'NONE',  ( 4.763070433763818600, -5.350120008691938300, 7.000000000000000000 ) ) ;
#908 = ORIENTED_EDGE ( 'NONE', *, *, #587, .T. ) ;
#909 = PRODUCT_DEFINITION_SHAPE ( 'NONE', 'NONE',  #185 ) ;
#910 = PERSON ( 'UNSPECIFIED', 'UNSPECIFIED', 'UNSPECIFIED', ('UNSPECIFIED'), ('UNSPECIFIED'), ('UNSPECIFIED') ) ;
#911 = AXIS2_PLACEMENT_3D ( 'NONE', #296, #68, #839 ) ;
#912 = DATE_AND_TIME ( #114, #643 ) ;
#913 = LINE ( 'NONE', #419, #227 ) ;
#914 = CARTESIAN_POINT ( 'NONE',  ( -4.614048206257070500, -5.264081985525673500, 0.0000000000000000000 ) ) ;
#915 = CC_DESIGN_DATE_AND_TIME_ASSIGNMENT ( #593, #698, ( #185 ) ) ;
#916 = VECTOR ( 'NONE', #558, 1000.000000000000000 ) ;
#917 = CARTESIAN_POINT ( 'NONE',  ( -4.763070433763812300, -5.350120008691942700, 7.000000000000000000 ) ) ;
#918 = AXIS2_PLACEMENT_3D ( 'NONE', #713, #247, #790 ) ;
#919 = FACE_OUTER_BOUND ( 'NONE', #853, .T. ) ;
#920 = DIRECTION ( 'NONE',  ( 0.8660254037844842300, -0.4999999999999210600, 0.0000000000000000000 ) ) ;
#921 = EDGE_LOOP ( 'NONE', ( #414, #825 ) ) ;
#922 = ORIENTED_EDGE ( 'NONE', *, *, #604, .T. ) ;
#923 = DIRECTION ( 'NONE',  ( 6.552743879331204300E-014, -1.000000000000000000, 0.0000000000000000000 ) ) ;
#924 = ORIENTED_EDGE ( 'NONE', *, *, #97, .T. ) ;
#925 = DIRECTION ( 'NONE',  ( 1.000000000000000000, 0.0000000000000000000, 0.0000000000000000000 ) ) ;
#926 = VERTEX_POINT ( 'NONE', #57 ) ;
#927 = CARTESIAN_POINT ( 'NONE',  ( 0.0000000000000000000, 0.0000000000000000000, 7.000000000000000000 ) ) ;
#928 = CARTESIAN_POINT ( 'NONE',  ( 2.251804623940733200, 6.799999999999999800, 0.0000000000000000000 ) ) ;
#929 = EDGE_CURVE ( 'NONE', #852, #360, #983, .T. ) ;
#930 = CARTESIAN_POINT ( 'NONE',  ( 5.888972745734187200, -3.399999999999994600, 7.000000000000000000 ) ) ;
#931 = FACE_OUTER_BOUND ( 'NONE', #695, .T. ) ;
#932 = FACE_OUTER_BOUND ( 'NONE', #598, .T. ) ;
#933 = DIRECTION ( 'NONE',  ( -0.0000000000000000000, -0.0000000000000000000, -1.000000000000000000 ) ) ;
#934 = LINE ( 'NONE', #277, #241 ) ;
#935 =( LENGTH_UNIT ( ) NAMED_UNIT ( * ) SI_UNIT ( .MILLI., .METRE. ) );
#936 = VECTOR ( 'NONE', #783, 1000.000000000000000 ) ;
#937 = EDGE_CURVE ( 'NONE', #195, #212, #746, .T. ) ;
#938 = AXIS2_PLACEMENT_3D ( 'NONE', #91, #871, #483 ) ;
#939 = DIRECTION ( 'NONE',  ( 0.0000000000000000000, 0.0000000000000000000, 1.000000000000000000 ) ) ;
#940 = EDGE_LOOP ( 'NONE', ( #466, #93, #345, #382 ) ) ;
#941 = ORIENTED_EDGE ( 'NONE', *, *, #869, .T. ) ;
#942 = DIRECTION ( 'NONE',  ( -1.000000000000000000, 0.0000000000000000000, 0.0000000000000000000 ) ) ;
#943 = VERTEX_POINT ( 'NONE', #997 ) ;
#944 = DIRECTION ( 'NONE',  ( -1.000000000000000000, 0.0000000000000000000, 0.0000000000000000000 ) ) ;
#945 = PLANE ( 'NONE',  #510 ) ;
#946 = COORDINATED_UNIVERSAL_TIME_OFFSET ( 0, 0, .AHEAD. ) ;
#947 = DIRECTION ( 'NONE',  ( 1.000000000000000000, 0.0000000000000000000, 0.0000000000000000000 ) ) ;
#948 = CIRCLE ( 'NONE', #729, 1.250000000000000200 ) ;
#949 = DIRECTION ( 'NONE',  ( 0.0000000000000000000, 0.0000000000000000000, 1.000000000000000000 ) ) ;
#950 = FACE_OUTER_BOUND ( 'NONE', #28, .T. ) ;
#951 = CARTESIAN_POINT ( 'NONE',  ( 4.049999999999999800, 4.959819536546779600E-016, 16.00000000000000000 ) ) ;
#952 = CYLINDRICAL_SURFACE ( 'NONE', #182, 1.250000000000002900 ) ;
#953 = ORIENTED_EDGE ( 'NONE', *, *, #769, .T. ) ;
#954 = DIRECTION ( 'NONE',  ( 1.000000000000000000, 6.552743879331204300E-014, -0.0000000000000000000 ) ) ;
#955 = ORIENTED_EDGE ( 'NONE', *, *, #588, .T. ) ;
#956 = EDGE_LOOP ( 'NONE', ( #866, #53, #171, #801 ) ) ;
#957 = VERTEX_POINT ( 'NONE', #284 ) ;
#958 = CC_DESIGN_PERSON_AND_ORGANIZATION_ASSIGNMENT ( #982, #856, ( #239 ) ) ;
#959 = APPROVAL_DATE_TIME ( #294, #894 ) ;
#960 = CYLINDRICAL_SURFACE ( 'NONE', #535, 7.000000000000000900 ) ;
#961 = AXIS2_PLACEMENT_3D ( 'NONE', #285, #747, #64 ) ;
#962 = CARTESIAN_POINT ( 'NONE',  ( 5.049999999999999800, 6.184466335694133100E-016, 7.000000000000000000 ) ) ;
#963 = LINE ( 'NONE', #226, #559 ) ;
#964 = ORIENTED_EDGE ( 'NONE', *, *, #841, .F. ) ;
#965 = ORIENTED_EDGE ( 'NONE', *, *, #570, .F. ) ;
#966 = ORIENTED_EDGE ( 'NONE', *, *, #115, .T. ) ;
#967 = AXIS2_PLACEMENT_3D ( 'NONE', #762, #295, #385 ) ;
#968 = CARTESIAN_POINT ( 'NONE',  ( -4.763070433763812300, -5.350120008691942700, 0.0000000000000000000 ) ) ;
#969 = DIRECTION ( 'NONE',  ( -0.0000000000000000000, -0.0000000000000000000, -1.000000000000000000 ) ) ;
#970 = PERSON_AND_ORGANIZATION ( #910, #393 ) ;
#971 = DIRECTION ( 'NONE',  ( -0.0000000000000000000, -0.0000000000000000000, -1.000000000000000000 ) ) ;
#972 = EDGE_CURVE ( 'NONE', #662, #880, #767, .T. ) ;
#973 = CARTESIAN_POINT ( 'NONE',  ( 2.251804623940733200, 6.799999999999999800, 0.0000000000000000000 ) ) ;
#974 = FACE_OUTER_BOUND ( 'NONE', #342, .T. ) ;
#975 = CARTESIAN_POINT ( 'NONE',  ( -5.888972745734180100, -3.400000000000004400, 7.000000000000000000 ) ) ;
#976 = CIRCLE ( 'NONE', #488, 1.250000000000000400 ) ;
#977 = CARTESIAN_POINT ( 'NONE',  ( 4.049999999999999800, 4.959819536546779600E-016, 15.00000000000000000 ) ) ;
#978 = ORIENTED_EDGE ( 'NONE', *, *, #570, .T. ) ;
#979 = VERTEX_POINT ( 'NONE', #784 ) ;
#980 = PLANE ( 'NONE',  #73 ) ;
#981 = DIRECTION ( 'NONE',  ( 0.0000000000000000000, 0.0000000000000000000, 1.000000000000000000 ) ) ;
#982 = PERSON_AND_ORGANIZATION ( #910, #393 ) ;
#983 = CIRCLE ( 'NONE', #69, 2.251804623940732800 ) ;
#984 = VECTOR ( 'NONE', #109, 999.9999999999998900 ) ;
#985 = EDGE_CURVE ( 'NONE', #174, #314, #153, .T. ) ;
#986 = EDGE_CURVE ( 'NONE', #883, #562, #544, .T. ) ;
#987 = VECTOR ( 'NONE', #696, 1000.000000000000000 ) ;
#988 = DIRECTION ( 'NONE',  ( 1.000000000000000000, 0.0000000000000000000, 0.0000000000000000000 ) ) ;
#989 = FACE_OUTER_BOUND ( 'NONE', #245, .T. ) ;
#990 = ADVANCED_FACE ( 'NONE', ( #931 ), #960, .T. ) ;
#991 = ORIENTED_EDGE ( 'NONE', *, *, #937, .T. ) ;
#992 = VERTEX_POINT ( 'NONE', #74 ) ;
#993 = AXIS2_PLACEMENT_3D ( 'NONE', #690, #223, #364 ) ;
#994 = ORIENTED_EDGE ( 'NONE', *, *, #267, .T. ) ;
#995 = ORIENTED_EDGE ( 'NONE', *, *, #132, .F. ) ;
#996 = AXIS2_PLACEMENT_3D ( 'NONE', #654, #875, #416 ) ;
#997 = CARTESIAN_POINT ( 'NONE',  ( -6.999999999999999100, 0.0000000000000000000, 0.0000000000000000000 ) ) ;
#998 = DIRECTION ( 'NONE',  ( 1.000000000000000000, 0.0000000000000000000, -0.0000000000000000000 ) ) ;
#999 = CARTESIAN_POINT ( 'NONE',  ( -2.251804623940733200, 6.799999999999999800, 7.000000000000000000 ) ) ;
#1000 = CARTESIAN_POINT ( 'NONE',  ( -8.140777369674914600, -3.400000000000004400, 0.0000000000000000000 ) ) ;
#1001 = ADVANCED_FACE ( 'NONE', ( #514 ), #844, .T. ) ;
#1002 = CIRCLE ( 'NONE', #206, 1.250000000000000200 ) ;
#1003 = DIRECTION ( 'NONE',  ( 1.000000000000000000, 0.0000000000000000000, 0.0000000000000000000 ) ) ;
#1004 = EDGE_CURVE ( 'NONE', #314, #195, #365, .T. ) ;
#1005 = ORIENTED_EDGE ( 'NONE', *, *, #412, .T. ) ;
#1006 = CARTESIAN_POINT ( 'NONE',  ( -4.049999999999999800, 0.0000000000000000000, 16.00000000000000000 ) ) ;
#1007 = ORIENTED_EDGE ( 'NONE', *, *, #445, .T. ) ;
#1008 = ORIENTED_EDGE ( 'NONE', *, *, #248, .F. ) ;
#1009 = DIRECTION ( 'NONE',  ( 1.000000000000000000, 0.0000000000000000000, 0.0000000000000000000 ) ) ;
#1010 = DIRECTION ( 'NONE',  ( -1.000000000000000000, 0.0000000000000000000, 0.0000000000000000000 ) ) ;
#1011 = DIRECTION ( 'NONE',  ( -0.4999999999999210600, -0.8660254037844842300, 0.0000000000000000000 ) ) ;
#1012 = FACE_OUTER_BOUND ( 'NONE', #51, .T. ) ;
ENDSEC;
END-ISO-10303-21;
