ISO-10303-21;
HEADER;
FILE_DESCRIPTION (( 'STEP AP203' ),
    '1' );
FILE_NAME ('Power Cable Collet.STEP',
    '2018-11-14T15:17:47',
    ( '' ),
    ( '' ),
    'SwSTEP 2.0',
    'SolidWorks 2017',
    '' );
FILE_SCHEMA (( 'CONFIG_CONTROL_DESIGN' ));
ENDSEC;

DATA;
#1 = DIRECTION ( 'NONE',  ( 0.0000000000000000000, 0.0000000000000000000, -1.000000000000000000 ) ) ;
#2 = LINE ( 'NONE', #513, #461 ) ;
#3 = DIRECTION ( 'NONE',  ( 0.0000000000000000000, 0.0000000000000000000, -1.000000000000000000 ) ) ;
#4 = DIRECTION ( 'NONE',  ( 0.0000000000000000000, -1.000000000000000000, -1.210750686091007300E-016 ) ) ;
#5 = CIRCLE ( 'NONE', #412, 7.900000000000000400 ) ;
#6 = DIRECTION ( 'NONE',  ( -0.0000000000000000000, -1.000000000000000000, -0.0000000000000000000 ) ) ;
#7 = APPROVAL_PERSON_ORGANIZATION ( #494, #450, #106 ) ;
#8 = VERTEX_POINT ( 'NONE', #180 ) ;
#9 = CARTESIAN_POINT ( 'NONE',  ( -7.900000000000000400, 24.96641970805180600, 0.6000000000000014200 ) ) ;
#10 = VERTEX_POINT ( 'NONE', #578 ) ;
#11 = FACE_OUTER_BOUND ( 'NONE', #332, .T. ) ;
#12 = AXIS2_PLACEMENT_3D ( 'NONE', #263, #723, #64 ) ;
#13 = DIRECTION ( 'NONE',  ( 0.0000000000000000000, 0.0000000000000000000, -1.000000000000000000 ) ) ;
#14 = CYLINDRICAL_SURFACE ( 'NONE', #264, 7.900000000000000400 ) ;
#15 = DIRECTION ( 'NONE',  ( 1.000000000000000000, -0.0000000000000000000, -0.0000000000000000000 ) ) ;
#16 = CARTESIAN_POINT ( 'NONE',  ( -0.5999999999999858800, 9.846372255697760400, -3.954743986657039300 ) ) ;
#17 = ORIENTED_EDGE ( 'NONE', *, *, #678, .T. ) ;
#18 = AXIS2_PLACEMENT_3D ( 'NONE', #609, #356, #563 ) ;
#19 = ORIENTED_EDGE ( 'NONE', *, *, #469, .T. ) ;
#20 = CARTESIAN_POINT ( 'NONE',  ( 6.825045388704163300, 2.017327615960244000, 0.6000000000000012000 ) ) ;
#21 = CARTESIAN_POINT ( 'NONE',  ( 0.6000000000000207400, 5.932446718641370100, -5.772283953797106900 ) ) ;
#22 = DIRECTION ( 'NONE',  ( 0.0000000000000000000, -1.000000000000000000, -0.0000000000000000000 ) ) ;
#23 = DIRECTION ( 'NONE',  ( -0.0000000000000000000, -1.000000000000000000, -0.0000000000000000000 ) ) ;
#24 = DIRECTION ( 'NONE',  ( 1.000000000000000000, 0.0000000000000000000, 0.0000000000000000000 ) ) ;
#25 = EDGE_CURVE ( 'NONE', #172, #747, #43, .T. ) ;
#26 = CIRCLE ( 'NONE', #683, 4.000000000000000000 ) ;
#27 = DIRECTION ( 'NONE',  ( 0.0000000000000000000, 0.0000000000000000000, -1.000000000000000000 ) ) ;
#28 = CALENDAR_DATE ( 2018, 14, 11 ) ;
#29 = CARTESIAN_POINT ( 'NONE',  ( -7.877182237323192600, -1.897959183673458600, -0.6000000000000016400 ) ) ;
#30 = CIRCLE ( 'NONE', #748, 4.753115875176986200 ) ;
#31 = AXIS2_PLACEMENT_3D ( 'NONE', #406, #147, #681 ) ;
#32 = CARTESIAN_POINT ( 'NONE',  ( 0.0000000000000000000, -1.897959183673459500, 0.0000000000000000000 ) ) ;
#33 = EDGE_CURVE ( 'NONE', #582, #495, #478, .T. ) ;
#34 = EDGE_CURVE ( 'NONE', #551, #687, #286, .T. ) ;
#35 = CC_DESIGN_APPROVAL ( #629, ( #137 ) ) ;
#36 = VECTOR ( 'NONE', #244, 1000.000000000000000 ) ;
#37 = ORIENTED_EDGE ( 'NONE', *, *, #233, .F. ) ;
#38 = ORIENTED_EDGE ( 'NONE', *, *, #448, .T. ) ;
#39 = ORIENTED_EDGE ( 'NONE', *, *, #558, .T. ) ;
#40 = DIRECTION ( 'NONE',  ( -3.491481338843133400E-015, -0.0000000000000000000, 1.000000000000000000 ) ) ;
#41 = LINE ( 'NONE', #47, #807 ) ;
#42 = PRODUCT ( 'Power Cable Collet', 'Power Cable Collet', '', ( #816 ) ) ;
#43 = LINE ( 'NONE', #185, #724 ) ;
#44 = SECURITY_CLASSIFICATION_LEVEL ( 'unclassified' ) ;
#45 = CIRCLE ( 'NONE', #427, 7.900000000000000400 ) ;
#46 = EDGE_CURVE ( 'NONE', #455, #334, #425, .T. ) ;
#47 = CARTESIAN_POINT ( 'NONE',  ( 4.898587196589412800E-016, 0.0000000000000000000, 4.000000000000000000 ) ) ;
#48 = VECTOR ( 'NONE', #756, 1000.000000000000000 ) ;
#49 = DIRECTION ( 'NONE',  ( 0.0000000000000000000, -1.000000000000000000, -0.0000000000000000000 ) ) ;
#50 = EDGE_CURVE ( 'NONE', #343, #487, #125, .T. ) ;
#51 = DIRECTION ( 'NONE',  ( -0.0000000000000000000, -1.000000000000000000, -0.0000000000000000000 ) ) ;
#52 = DIRECTION ( 'NONE',  ( 0.0000000000000000000, 0.0000000000000000000, -1.000000000000000000 ) ) ;
#53 = DIRECTION ( 'NONE',  ( 0.0000000000000000000, -1.000000000000000000, 0.0000000000000000000 ) ) ;
#54 = FACE_OUTER_BOUND ( 'NONE', #441, .T. ) ;
#55 = ADVANCED_FACE ( 'NONE', ( #11 ), #371, .F. ) ;
#56 = AXIS2_PLACEMENT_3D ( 'NONE', #685, #23, #810 ) ;
#57 = ORIENTED_EDGE ( 'NONE', *, *, #690, .T. ) ;
#58 = ORIENTED_EDGE ( 'NONE', *, *, #89, .T. ) ;
#59 = ORIENTED_EDGE ( 'NONE', *, *, #533, .T. ) ;
#60 = EDGE_CURVE ( 'NONE', #179, #156, #698, .T. ) ;
#61 = DIRECTION ( 'NONE',  ( 0.0000000000000000000, 0.0000000000000000000, -1.000000000000000000 ) ) ;
#62 = FACE_OUTER_BOUND ( 'NONE', #66, .T. ) ;
#63 = ADVANCED_FACE ( 'NONE', ( #521 ), #226, .T. ) ;
#64 = DIRECTION ( 'NONE',  ( 1.047444401652940000E-014, 0.0000000000000000000, -1.000000000000000000 ) ) ;
#65 = APPROVAL_DATE_TIME ( #800, #629 ) ;
#66 = EDGE_LOOP ( 'NONE', ( #368, #834, #59, #628 ) ) ;
#67 = ORIENTED_EDGE ( 'NONE', *, *, #158, .F. ) ;
#68 = DIRECTION ( 'NONE',  ( 0.0000000000000000000, 0.0000000000000000000, -1.000000000000000000 ) ) ;
#69 = ORIENTED_EDGE ( 'NONE', *, *, #786, .T. ) ;
#70 = CARTESIAN_POINT ( 'NONE',  ( 0.5999999999999502400, 9.846372255697760400, 4.715093903928059000 ) ) ;
#71 = ADVANCED_FACE ( 'NONE', ( #541 ), #718, .F. ) ;
#72 = VECTOR ( 'NONE', #575, 1000.000000000000000 ) ;
#73 = CARTESIAN_POINT ( 'NONE',  ( -4.715093903928052800, 9.846372255697760400, 0.5999999999999996400 ) ) ;
#74 = CARTESIAN_POINT ( 'NONE',  ( -6.825045388604222800, 2.017327616332146500, -0.6000000000000012000 ) ) ;
#75 = CARTESIAN_POINT ( 'NONE',  ( 0.0000000000000000000, 9.846372255697760400, 0.0000000000000000000 ) ) ;
#76 = PLANE ( 'NONE',  #523 ) ;
#77 = DIRECTION ( 'NONE',  ( 0.0000000000000000000, 0.0000000000000000000, -1.000000000000000000 ) ) ;
#78 = EDGE_LOOP ( 'NONE', ( #793, #677, #694, #773 ) ) ;
#79 = VECTOR ( 'NONE', #200, 1000.000000000000000 ) ;
#80 = DIRECTION ( 'NONE',  ( 0.0000000000000000000, -1.000000000000000000, 0.0000000000000000000 ) ) ;
#81 = CARTESIAN_POINT ( 'NONE',  ( 9.674709713264090100E-016, -4.897959183673458800, 7.900000000000000400 ) ) ;
#82 = CARTESIAN_POINT ( 'NONE',  ( -0.5999999999999738900, 24.96641970805180600, -7.900000000000030600 ) ) ;
#83 = FACE_OUTER_BOUND ( 'NONE', #466, .T. ) ;
#84 = ADVANCED_BREP_SHAPE_REPRESENTATION ( 'Power Cable Collet', ( #777, #846 ), #548 ) ;
#85 = LOCAL_TIME ( 15, 17, 47.00000000000000000, #107 ) ;
#86 = CARTESIAN_POINT ( 'NONE',  ( 0.0000000000000000000, -1.897959183673459500, 0.0000000000000000000 ) ) ;
#87 = APPLICATION_CONTEXT ( 'configuration controlled 3d designs of mechanical parts and assemblies' ) ;
#88 = EDGE_LOOP ( 'NONE', ( #440, #280, #647, #142, #38, #853, #39, #746 ) ) ;
#89 = EDGE_CURVE ( 'NONE', #172, #210, #765, .T. ) ;
#90 = ORIENTED_EDGE ( 'NONE', *, *, #359, .T. ) ;
#91 = CARTESIAN_POINT ( 'NONE',  ( 0.6000000000000166300, 9.846372255697760400, -4.715093903928050200 ) ) ;
#92 = APPLICATION_CONTEXT ( 'configuration controlled 3d designs of mechanical parts and assemblies' ) ;
#93 = ORIENTED_EDGE ( 'NONE', *, *, #369, .F. ) ;
#94 = EDGE_CURVE ( 'NONE', #196, #779, #458, .T. ) ;
#95 = CC_DESIGN_DATE_AND_TIME_ASSIGNMENT ( #813, #103, ( #137 ) ) ;
#96 = CARTESIAN_POINT ( 'NONE',  ( 0.0000000000000000000, 9.846372255697760400, 0.0000000000000000000 ) ) ;
#97 = CIRCLE ( 'NONE', #227, 4.000000000000000000 ) ;
#98 = CARTESIAN_POINT ( 'NONE',  ( 7.900000000000000400, 24.96641970805180600, -0.6000000000000014200 ) ) ;
#99 = ORIENTED_EDGE ( 'NONE', *, *, #486, .F. ) ;
#100 = LINE ( 'NONE', #579, #79 ) ;
#101 = AXIS2_PLACEMENT_3D ( 'NONE', #711, #828, #435 ) ;
#102 = PERSON_AND_ORGANIZATION_ROLE ( 'creator' ) ;
#103 = DATE_TIME_ROLE ( 'creation_date' ) ;
#104 = EDGE_CURVE ( 'NONE', #661, #774, #41, .T. ) ;
#105 = VECTOR ( 'NONE', #357, 1000.000000000000000 ) ;
#106 = APPROVAL_ROLE ( '' ) ;
#107 = COORDINATED_UNIVERSAL_TIME_OFFSET ( 0, 0, .AHEAD. ) ;
#108 = ORIENTED_EDGE ( 'NONE', *, *, #845, .F. ) ;
#109 = DIRECTION ( 'NONE',  ( -0.0000000000000000000, -1.000000000000000000, -0.0000000000000000000 ) ) ;
#110 = EDGE_CURVE ( 'NONE', #687, #282, #313, .T. ) ;
#111 = ORIENTED_EDGE ( 'NONE', *, *, #89, .F. ) ;
#112 = CARTESIAN_POINT ( 'NONE',  ( -3.954743986657037500, 9.846372255697760400, -0.5999999999999998700 ) ) ;
#113 = B_SPLINE_CURVE_WITH_KNOTS ( 'NONE', 3,
 ( #140, #739, #21, #91 ),
 .UNSPECIFIED., .F., .F.,
 ( 4, 4 ),
 ( 0.009889931081211335600, 0.02205250322203278900 ),
 .UNSPECIFIED. ) ;
#114 = DIRECTION ( 'NONE',  ( -3.491481338843133400E-015, -0.0000000000000000000, 1.000000000000000000 ) ) ;
#115 = CARTESIAN_POINT ( 'NONE',  ( 4.715093903928052800, 9.846372255697760400, -0.5999999999999996400 ) ) ;
#116 = AXIS2_PLACEMENT_3D ( 'NONE', #131, #589, #68 ) ;
#117 = CARTESIAN_POINT ( 'NONE',  ( 7.877182237323192600, -1.897959183673459500, -0.5999999999999982000 ) ) ;
#118 = LOCAL_TIME ( 15, 17, 47.00000000000000000, #139 ) ;
#119 = COORDINATED_UNIVERSAL_TIME_OFFSET ( 0, 0, .AHEAD. ) ;
#120 = ORIENTED_EDGE ( 'NONE', *, *, #469, .F. ) ;
#121 = ORIENTED_EDGE ( 'NONE', *, *, #217, .F. ) ;
#122 = CARTESIAN_POINT ( 'NONE',  ( 6.825045388704164200, 2.017327615960244000, -0.5999999999999986500 ) ) ;
#123 = CIRCLE ( 'NONE', #542, 7.900000000000000400 ) ;
#124 = AXIS2_PLACEMENT_3D ( 'NONE', #572, #315, #710 ) ;
#125 = CIRCLE ( 'NONE', #316, 7.900000000000000400 ) ;
#126 = CARTESIAN_POINT ( 'NONE',  ( 4.898587196589412800E-016, -1.897959183673459500, 4.000000000000000000 ) ) ;
#127 = VECTOR ( 'NONE', #255, 1000.000000000000000 ) ;
#128 = CALENDAR_DATE ( 2018, 14, 11 ) ;
#129 = ORIENTED_EDGE ( 'NONE', *, *, #309, .F. ) ;
#130 = ORIENTED_EDGE ( 'NONE', *, *, #678, .F. ) ;
#131 = CARTESIAN_POINT ( 'NONE',  ( 0.0000000000000000000, -1.897959183673458600, 0.0000000000000000000 ) ) ;
#132 = CARTESIAN_POINT ( 'NONE',  ( 0.0000000000000000000, -1.897959183673458600, 0.0000000000000000000 ) ) ;
#133 = CARTESIAN_POINT ( 'NONE',  ( -0.5999999999999706700, -1.897959183673459500, -7.877182237323194300 ) ) ;
#134 = LINE ( 'NONE', #820, #798 ) ;
#135 = CARTESIAN_POINT ( 'NONE',  ( 0.0000000000000000000, 9.846372255697760400, 0.0000000000000000000 ) ) ;
#136 = EDGE_CURVE ( 'NONE', #166, #282, #500, .T. ) ;
#137 = PRODUCT_DEFINITION ( 'UNKNOWN', '', #433, #299 ) ;
#138 = PLANE ( 'NONE',  #326 ) ;
#139 = COORDINATED_UNIVERSAL_TIME_OFFSET ( 0, 0, .AHEAD. ) ;
#140 = CARTESIAN_POINT ( 'NONE',  ( 0.6000000000000291800, -1.897959183673459500, -7.877182237323190800 ) ) ;
#141 = LOCAL_TIME ( 15, 17, 47.00000000000000000, #119 ) ;
#142 = ORIENTED_EDGE ( 'NONE', *, *, #690, .F. ) ;
#143 = PLANE ( 'NONE',  #311 ) ;
#144 = ORIENTED_EDGE ( 'NONE', *, *, #333, .T. ) ;
#145 = DIRECTION ( 'NONE',  ( -0.0000000000000000000, -1.000000000000000000, -0.0000000000000000000 ) ) ;
#146 = VERTEX_POINT ( 'NONE', #324 ) ;
#147 = DIRECTION ( 'NONE',  ( -0.0000000000000000000, -1.000000000000000000, -0.0000000000000000000 ) ) ;
#148 = CIRCLE ( 'NONE', #449, 4.000000000000000000 ) ;
#149 = DIRECTION ( 'NONE',  ( -0.0000000000000000000, -1.000000000000000000, -0.0000000000000000000 ) ) ;
#150 = DIRECTION ( 'NONE',  ( 0.0000000000000000000, 0.0000000000000000000, -1.000000000000000000 ) ) ;
#151 = AXIS2_PLACEMENT_3D ( 'NONE', #337, #6, #597 ) ;
#152 = CARTESIAN_POINT ( 'NONE',  ( 7.900000000000000400, 24.96641970805180600, 0.5999999999999984200 ) ) ;
#153 = VECTOR ( 'NONE', #290, 1000.000000000000000 ) ;
#154 = CARTESIAN_POINT ( 'NONE',  ( 0.6000000000000140800, 9.846372255697760400, -3.954743986657035700 ) ) ;
#155 = EDGE_CURVE ( 'NONE', #355, #758, #457, .T. ) ;
#156 = VERTEX_POINT ( 'NONE', #325 ) ;
#157 = DIRECTION ( 'NONE',  ( -0.0000000000000000000, -1.000000000000000000, -0.0000000000000000000 ) ) ;
#158 = EDGE_CURVE ( 'NONE', #720, #605, #734, .T. ) ;
#159 = CARTESIAN_POINT ( 'NONE',  ( 7.877182237323192600, -1.897959183673459500, -0.5999999999999982000 ) ) ;
#160 = DIRECTION ( 'NONE',  ( -0.0000000000000000000, 1.000000000000000000, -0.0000000000000000000 ) ) ;
#161 = CIRCLE ( 'NONE', #603, 7.900000000000000400 ) ;
#162 = LINE ( 'NONE', #163, #48 ) ;
#163 = CARTESIAN_POINT ( 'NONE',  ( 0.0000000000000000000, 0.0000000000000000000, -4.000000000000000000 ) ) ;
#164 = PERSON_AND_ORGANIZATION ( #636, #769 ) ;
#165 = ORIENTED_EDGE ( 'NONE', *, *, #786, .F. ) ;
#166 = VERTEX_POINT ( 'NONE', #835 ) ;
#167 = APPLICATION_PROTOCOL_DEFINITION ( 'international standard', 'config_control_design', 1994, #92 ) ;
#168 = EDGE_CURVE ( 'NONE', #8, #156, #148, .T. ) ;
#169 = VECTOR ( 'NONE', #410, 1000.000000000000000 ) ;
#170 = ORIENTED_EDGE ( 'NONE', *, *, #363, .T. ) ;
#171 = AXIS2_PLACEMENT_3D ( 'NONE', #743, #465, #408 ) ;
#172 = VERTEX_POINT ( 'NONE', #638 ) ;
#173 = CARTESIAN_POINT ( 'NONE',  ( -0.5999999999999706700, -1.897959183673459500, -7.900000000000030600 ) ) ;
#174 = EDGE_CURVE ( 'NONE', #602, #605, #249, .T. ) ;
#175 = VECTOR ( 'NONE', #515, 1000.000000000000000 ) ;
#176 = B_SPLINE_CURVE_WITH_KNOTS ( 'NONE', 3,
 ( #784, #468, #537, #269 ),
 .UNSPECIFIED., .F., .F.,
 ( 4, 4 ),
 ( 0.009938631241812902900, 0.02210117019930254300 ),
 .UNSPECIFIED. ) ;
#177 = CONICAL_SURFACE ( 'NONE', #614, 4.753115875176986200, 0.2617993877991535200 ) ;
#178 = LOCAL_TIME ( 15, 17, 47.00000000000000000, #780 ) ;
#179 = VERTEX_POINT ( 'NONE', #133 ) ;
#180 = CARTESIAN_POINT ( 'NONE',  ( 0.0000000000000000000, -1.897959183673459500, -4.000000000000000000 ) ) ;
#181 = ORIENTED_EDGE ( 'NONE', *, *, #359, .F. ) ;
#182 = CC_DESIGN_PERSON_AND_ORGANIZATION_ASSIGNMENT ( #517, #102, ( #433 ) ) ;
#183 = ORIENTED_EDGE ( 'NONE', *, *, #46, .T. ) ;
#184 = VECTOR ( 'NONE', #377, 1000.000000000000000 ) ;
#185 = CARTESIAN_POINT ( 'NONE',  ( 3.954743986657037500, 7.264504116546061200E-017, 0.6000000000000014200 ) ) ;
#186 = ADVANCED_FACE ( 'NONE', ( #826 ), #382, .F. ) ;
#187 = CARTESIAN_POINT ( 'NONE',  ( -0.5999999999999706700, -1.897959183673459500, -7.900000000000030600 ) ) ;
#188 = FACE_OUTER_BOUND ( 'NONE', #78, .T. ) ;
#189 = DIRECTION ( 'NONE',  ( 0.0000000000000000000, 0.0000000000000000000, -1.000000000000000000 ) ) ;
#190 = AXIS2_PLACEMENT_3D ( 'NONE', #815, #621, #419 ) ;
#191 = ADVANCED_FACE ( 'NONE', ( #477 ), #308, .T. ) ;
#192 = ORIENTED_EDGE ( 'NONE', *, *, #383, .T. ) ;
#193 = CARTESIAN_POINT ( 'NONE',  ( 7.900000000000000400, -1.897959183673459500, -0.5999999999999982000 ) ) ;
#194 = ORIENTED_EDGE ( 'NONE', *, *, #158, .T. ) ;
#195 = CARTESIAN_POINT ( 'NONE',  ( 0.0000000000000000000, 9.846372255697760400, 0.0000000000000000000 ) ) ;
#196 = VERTEX_POINT ( 'NONE', #376 ) ;
#197 = AXIS2_PLACEMENT_3D ( 'NONE', #442, #641, #52 ) ;
#198 = LINE ( 'NONE', #407, #692 ) ;
#199 = CARTESIAN_POINT ( 'NONE',  ( -0.6000000000000160800, 9.846372255697760400, 4.715093903928050200 ) ) ;
#200 = DIRECTION ( 'NONE',  ( -1.047444401652940000E-014, 0.0000000000000000000, 1.000000000000000000 ) ) ;
#201 = DIRECTION ( 'NONE',  ( 1.047444401652940000E-014, -0.0000000000000000000, -1.000000000000000000 ) ) ;
#202 = EDGE_CURVE ( 'NONE', #323, #551, #336, .T. ) ;
#203 = FACE_OUTER_BOUND ( 'NONE', #842, .T. ) ;
#204 = CARTESIAN_POINT ( 'NONE',  ( -7.877182237323192600, -1.897959183673458600, -0.6000000000000016400 ) ) ;
#205 = ADVANCED_FACE ( 'NONE', ( #362 ), #806, .T. ) ;
#206 = DIRECTION ( 'NONE',  ( 0.0000000000000000000, 0.0000000000000000000, -1.000000000000000000 ) ) ;
#207 = ORIENTED_EDGE ( 'NONE', *, *, #390, .T. ) ;
#208 = CARTESIAN_POINT ( 'NONE',  ( -4.715093903928052800, 9.846372255697760400, -0.6000000000000003100 ) ) ;
#209 = CARTESIAN_POINT ( 'NONE',  ( 0.0000000000000000000, -1.897959183673458600, 0.0000000000000000000 ) ) ;
#210 = VERTEX_POINT ( 'NONE', #776 ) ;
#211 = AXIS2_PLACEMENT_3D ( 'NONE', #289, #80, #553 ) ;
#212 = DIRECTION ( 'NONE',  ( -0.0000000000000000000, -1.000000000000000000, -0.0000000000000000000 ) ) ;
#213 = CARTESIAN_POINT ( 'NONE',  ( -5.772283950820785500, 5.932446729660304300, 0.5999999999999992000 ) ) ;
#214 = CARTESIAN_POINT ( 'NONE',  ( -4.715093903928052800, 9.846372255697760400, -0.6000000000000003100 ) ) ;
#215 = CARTESIAN_POINT ( 'NONE',  ( 0.6000000000000151900, 7.264504116546061200E-017, -3.954743986657035700 ) ) ;
#216 = FACE_OUTER_BOUND ( 'NONE', #296, .T. ) ;
#217 = EDGE_CURVE ( 'NONE', #228, #421, #123, .T. ) ;
#218 = EDGE_CURVE ( 'NONE', #582, #602, #30, .T. ) ;
#219 = CARTESIAN_POINT ( 'NONE',  ( 0.5999999999999570100, -7.264504116546025400E-017, 3.954743986657044600 ) ) ;
#220 = EDGE_LOOP ( 'NONE', ( #120, #505, #824, #305 ) ) ;
#221 = CARTESIAN_POINT ( 'NONE',  ( 4.715093903928052800, 9.846372255697760400, -0.5999999999999996400 ) ) ;
#222 = ORIENTED_EDGE ( 'NONE', *, *, #511, .T. ) ;
#223 = CARTESIAN_POINT ( 'NONE',  ( 0.0000000000000000000, -1.897959183673459500, 0.0000000000000000000 ) ) ;
#224 = ORIENTED_EDGE ( 'NONE', *, *, #533, .F. ) ;
#225 = CARTESIAN_POINT ( 'NONE',  ( -0.6000000000000134100, 9.846372255697760400, 3.954743986657035700 ) ) ;
#226 = CONICAL_SURFACE ( 'NONE', #124, 4.753115875176986200, 0.2617993877991535200 ) ;
#227 = AXIS2_PLACEMENT_3D ( 'NONE', #32, #160, #297 ) ;
#228 = VERTEX_POINT ( 'NONE', #473 ) ;
#229 = CARTESIAN_POINT ( 'NONE',  ( 7.877182237323192600, -1.897959183673458600, 0.6000000000000016400 ) ) ;
#230 = DIRECTION ( 'NONE',  ( -0.0000000000000000000, 1.000000000000000000, -0.0000000000000000000 ) ) ;
#231 = CARTESIAN_POINT ( 'NONE',  ( 0.0000000000000000000, 0.0000000000000000000, 0.0000000000000000000 ) ) ;
#232 = CIRCLE ( 'NONE', #534, 4.000000000000000000 ) ;
#233 = EDGE_CURVE ( 'NONE', #210, #591, #100, .T. ) ;
#234 = FACE_OUTER_BOUND ( 'NONE', #580, .T. ) ;
#235 = ORIENTED_EDGE ( 'NONE', *, *, #587, .T. ) ;
#236 = ORIENTED_EDGE ( 'NONE', *, *, #60, .F. ) ;
#237 = CC_DESIGN_PERSON_AND_ORGANIZATION_ASSIGNMENT ( #452, #436, ( #433 ) ) ;
#238 = DIRECTION ( 'NONE',  ( -1.000000000000000000, -0.0000000000000000000, -0.0000000000000000000 ) ) ;
#239 = VECTOR ( 'NONE', #470, 1000.000000000000000 ) ;
#240 = ORIENTED_EDGE ( 'NONE', *, *, #587, .F. ) ;
#241 = ORIENTED_EDGE ( 'NONE', *, *, #104, .T. ) ;
#242 = AXIS2_PLACEMENT_3D ( 'NONE', #152, #749, #292 ) ;
#243 = ORIENTED_EDGE ( 'NONE', *, *, #46, .F. ) ;
#244 = DIRECTION ( 'NONE',  ( 1.000000000000000000, -0.0000000000000000000, -0.0000000000000000000 ) ) ;
#245 = VECTOR ( 'NONE', #304, 1000.000000000000000 ) ;
#246 = APPROVAL_STATUS ( 'not_yet_approved' ) ;
#247 = EDGE_CURVE ( 'NONE', #774, #429, #283, .T. ) ;
#248 = DIRECTION ( 'NONE',  ( -0.0000000000000000000, -1.000000000000000000, -0.0000000000000000000 ) ) ;
#249 = B_SPLINE_CURVE_WITH_KNOTS ( 'NONE', 3,
 ( #737, #213, #783, #543 ),
 .UNSPECIFIED., .F., .F.,
 ( 4, 4 ),
 ( 0.009938631241812906400, 0.02210117019930253600 ),
 .UNSPECIFIED. ) ;
#250 = LINE ( 'NONE', #760, #615 ) ;
#251 = EDGE_CURVE ( 'NONE', #455, #687, #414, .T. ) ;
#252 = ORIENTED_EDGE ( 'NONE', *, *, #803, .T. ) ;
#253 = EDGE_LOOP ( 'NONE', ( #388, #819, #270, #170 ) ) ;
#254 = DIRECTION ( 'NONE',  ( 0.0000000000000000000, -0.0000000000000000000, -1.000000000000000000 ) ) ;
#255 = DIRECTION ( 'NONE',  ( -0.0000000000000000000, -1.000000000000000000, -0.0000000000000000000 ) ) ;
#256 = VERTEX_POINT ( 'NONE', #208 ) ;
#257 = CARTESIAN_POINT ( 'NONE',  ( 0.0000000000000000000, 9.846372255697760400, 0.0000000000000000000 ) ) ;
#258 = ORIENTED_EDGE ( 'NONE', *, *, #174, .F. ) ;
#259 = DIRECTION ( 'NONE',  ( 0.0000000000000000000, 0.0000000000000000000, -1.000000000000000000 ) ) ;
#260 = EDGE_CURVE ( 'NONE', #781, #210, #650, .T. ) ;
#261 = AXIS2_PLACEMENT_3D ( 'NONE', #778, #109, #569 ) ;
#262 = CC_DESIGN_PERSON_AND_ORGANIZATION_ASSIGNMENT ( #439, #766, ( #137 ) ) ;
#263 = CARTESIAN_POINT ( 'NONE',  ( 0.5999999999999187100, 24.96641970805180600, 7.900000000000090900 ) ) ;
#264 = AXIS2_PLACEMENT_3D ( 'NONE', #567, #248, #312 ) ;
#265 = ADVANCED_FACE ( 'NONE', ( #664 ), #598, .F. ) ;
#266 = VECTOR ( 'NONE', #201, 1000.000000000000000 ) ;
#267 = DIRECTION ( 'NONE',  ( -0.0000000000000000000, -1.000000000000000000, -0.0000000000000000000 ) ) ;
#268 = CARTESIAN_POINT ( 'NONE',  ( -0.6000000000000160800, 9.846372255697760400, 4.715093903928050200 ) ) ;
#269 = CARTESIAN_POINT ( 'NONE',  ( -0.5999999999999706700, -1.897959183673459500, -7.877182237323194300 ) ) ;
#270 = ORIENTED_EDGE ( 'NONE', *, *, #715, .F. ) ;
#271 = EDGE_CURVE ( 'NONE', #166, #455, #113, .T. ) ;
#272 = DIRECTION ( 'NONE',  ( 0.0000000000000000000, -1.000000000000000000, -0.0000000000000000000 ) ) ;
#273 = CARTESIAN_POINT ( 'NONE',  ( 0.0000000000000000000, 0.0000000000000000000, 0.0000000000000000000 ) ) ;
#274 = CARTESIAN_POINT ( 'NONE',  ( 3.954743986657037500, -1.897959183673459500, 0.6000000000000016400 ) ) ;
#275 = DIRECTION ( 'NONE',  ( -0.0000000000000000000, -1.000000000000000000, -0.0000000000000000000 ) ) ;
#276 = CARTESIAN_POINT ( 'NONE',  ( -0.5999999999999832100, 9.846372255697760400, -4.715093903928054600 ) ) ;
#277 = ORIENTED_EDGE ( 'NONE', *, *, #511, .F. ) ;
#278 = APPROVAL_DATE_TIME ( #841, #480 ) ;
#279 = CARTESIAN_POINT ( 'NONE',  ( 0.0000000000000000000, 9.846372255697760400, 0.0000000000000000000 ) ) ;
#280 = ORIENTED_EDGE ( 'NONE', *, *, #576, .T. ) ;
#281 = ORIENTED_EDGE ( 'NONE', *, *, #803, .F. ) ;
#282 = VERTEX_POINT ( 'NONE', #159 ) ;
#283 = CIRCLE ( 'NONE', #830, 4.000000000000000000 ) ;
#284 = DIRECTION ( 'NONE',  ( -0.0000000000000000000, -1.000000000000000000, -0.0000000000000000000 ) ) ;
#285 = DIRECTION ( 'NONE',  ( -0.0000000000000000000, -1.000000000000000000, -0.0000000000000000000 ) ) ;
#286 = LINE ( 'NONE', #713, #184 ) ;
#287 = CARTESIAN_POINT ( 'NONE',  ( 0.0000000000000000000, 0.0000000000000000000, -7.900000000000000400 ) ) ;
#288 = DIRECTION ( 'NONE',  ( 0.0000000000000000000, 0.0000000000000000000, -1.000000000000000000 ) ) ;
#289 = CARTESIAN_POINT ( 'NONE',  ( -0.5999999999999706700, -1.897959183673459500, -7.900000000000030600 ) ) ;
#290 = DIRECTION ( 'NONE',  ( -0.0000000000000000000, -1.000000000000000000, -0.0000000000000000000 ) ) ;
#291 = CIRCLE ( 'NONE', #116, 7.900000000000000400 ) ;
#292 = DIRECTION ( 'NONE',  ( 0.0000000000000000000, -1.000000000000000000, 1.210750686091007300E-016 ) ) ;
#293 = APPROVAL_PERSON_ORGANIZATION ( #634, #480, #632 ) ;
#294 =( NAMED_UNIT ( * ) SI_UNIT ( $, .STERADIAN. ) SOLID_ANGLE_UNIT ( ) );
#295 = ORIENTED_EDGE ( 'NONE', *, *, #390, .F. ) ;
#296 = EDGE_LOOP ( 'NONE', ( #423, #623 ) ) ;
#297 = DIRECTION ( 'NONE',  ( -1.776356839400250500E-015, 0.0000000000000000000, -1.000000000000000000 ) ) ;
#298 = EDGE_CURVE ( 'NONE', #487, #343, #764, .T. ) ;
#299 = DESIGN_CONTEXT ( 'detailed design', #87, 'design' ) ;
#300 = ORIENTED_EDGE ( 'NONE', *, *, #349, .F. ) ;
#301 =( LENGTH_UNIT ( ) NAMED_UNIT ( * ) SI_UNIT ( .MILLI., .METRE. ) );
#302 = LINE ( 'NONE', #426, #624 ) ;
#303 = DIRECTION ( 'NONE',  ( -1.000000000000000000, 0.0000000000000000000, 0.0000000000000000000 ) ) ;
#304 = DIRECTION ( 'NONE',  ( 3.491481338843133400E-015, 0.0000000000000000000, -1.000000000000000000 ) ) ;
#305 = ORIENTED_EDGE ( 'NONE', *, *, #94, .F. ) ;
#306 = DIRECTION ( 'NONE',  ( 0.0000000000000000000, -1.210750686091007300E-016, -1.000000000000000000 ) ) ;
#307 = EDGE_LOOP ( 'NONE', ( #361, #825, #37, #424 ) ) ;
#308 = CYLINDRICAL_SURFACE ( 'NONE', #565, 7.900000000000000400 ) ;
#309 = EDGE_CURVE ( 'NONE', #146, #602, #443, .T. ) ;
#310 = CIRCLE ( 'NONE', #791, 4.000000000000000000 ) ;
#311 = AXIS2_PLACEMENT_3D ( 'NONE', #82, #552, #669 ) ;
#312 = DIRECTION ( 'NONE',  ( 0.0000000000000000000, 0.0000000000000000000, -1.000000000000000000 ) ) ;
#313 = B_SPLINE_CURVE_WITH_KNOTS ( 'NONE', 3,
 ( #115, #320, #122, #117 ),
 .UNSPECIFIED., .F., .F.,
 ( 4, 4 ),
 ( 0.009927123038462701300, 0.02208966218203875900 ),
 .UNSPECIFIED. ) ;
#314 = ORIENTED_EDGE ( 'NONE', *, *, #333, .F. ) ;
#315 = DIRECTION ( 'NONE',  ( -0.0000000000000000000, -1.000000000000000000, -0.0000000000000000000 ) ) ;
#316 = AXIS2_PLACEMENT_3D ( 'NONE', #510, #454, #520 ) ;
#317 = B_SPLINE_CURVE_WITH_KNOTS ( 'NONE', 3,
 ( #204, #74, #340, #214 ),
 .UNSPECIFIED., .F., .F.,
 ( 4, 4 ),
 ( 0.009834776469314529900, 0.02199734861402773500 ),
 .UNSPECIFIED. ) ;
#318 = DIRECTION ( 'NONE',  ( -0.0000000000000000000, -1.000000000000000000, -0.0000000000000000000 ) ) ;
#319 = VECTOR ( 'NONE', #585, 1000.000000000000000 ) ;
#320 = CARTESIAN_POINT ( 'NONE',  ( 5.772283953797108700, 5.932446718641369200, -0.5999999999999992000 ) ) ;
#321 = ORIENTED_EDGE ( 'NONE', *, *, #383, .F. ) ;
#322 = CC_DESIGN_DATE_AND_TIME_ASSIGNMENT ( #801, #508, ( #577 ) ) ;
#323 = VERTEX_POINT ( 'NONE', #501 ) ;
#324 = CARTESIAN_POINT ( 'NONE',  ( -3.954743986657037500, 9.846372255697760400, 0.5999999999999998700 ) ) ;
#325 = CARTESIAN_POINT ( 'NONE',  ( -0.5999999999999844300, -1.897959183673459500, -3.954743986657040200 ) ) ;
#326 = AXIS2_PLACEMENT_3D ( 'NONE', #592, #272, #546 ) ;
#327 = FACE_OUTER_BOUND ( 'NONE', #253, .T. ) ;
#328 = ADVANCED_FACE ( 'NONE', ( #733 ), #472, .F. ) ;
#329 = PERSON_AND_ORGANIZATION ( #636, #769 ) ;
#330 = DIRECTION ( 'NONE',  ( -3.491481338843133400E-015, 0.0000000000000000000, 1.000000000000000000 ) ) ;
#331 = DIRECTION ( 'NONE',  ( -0.0000000000000000000, -1.000000000000000000, -0.0000000000000000000 ) ) ;
#332 = EDGE_LOOP ( 'NONE', ( #93, #519, #413, #528, #696, #344 ) ) ;
#333 = EDGE_CURVE ( 'NONE', #661, #781, #620, .T. ) ;
#334 = VERTEX_POINT ( 'NONE', #154 ) ;
#335 = CARTESIAN_POINT ( 'NONE',  ( 0.5999999999999502400, 9.846372255697760400, 4.715093903928059000 ) ) ;
#336 = LINE ( 'NONE', #345, #697 ) ;
#337 = CARTESIAN_POINT ( 'NONE',  ( 0.0000000000000000000, 9.846372255697760400, 0.0000000000000000000 ) ) ;
#338 = EDGE_CURVE ( 'NONE', #779, #146, #198, .T. ) ;
#339 = DIRECTION ( 'NONE',  ( 0.0000000000000000000, 0.0000000000000000000, -1.000000000000000000 ) ) ;
#340 = CARTESIAN_POINT ( 'NONE',  ( -5.772283950820786400, 5.932446729660304300, -0.6000000000000007500 ) ) ;
#341 = LINE ( 'NONE', #689, #105 ) ;
#342 = CARTESIAN_POINT ( 'NONE',  ( 0.0000000000000000000, -1.897959183673458600, -7.900000000000000400 ) ) ;
#343 = VERTEX_POINT ( 'NONE', #750 ) ;
#344 = ORIENTED_EDGE ( 'NONE', *, *, #836, .F. ) ;
#345 = CARTESIAN_POINT ( 'NONE',  ( 3.954743986657038400, -7.264504116546025400E-017, -0.5999999999999984200 ) ) ;
#346 = ORIENTED_EDGE ( 'NONE', *, *, #94, .T. ) ;
#347 = AXIS2_PLACEMENT_3D ( 'NONE', #670, #393, #1 ) ;
#348 = EDGE_CURVE ( 'NONE', #495, #770, #612, .T. ) ;
#349 = EDGE_CURVE ( 'NONE', #605, #779, #512, .T. ) ;
#350 = CARTESIAN_POINT ( 'NONE',  ( -0.5999999999999738900, 24.96641970805180600, -7.900000000000030600 ) ) ;
#351 = LINE ( 'NONE', #287, #169 ) ;
#352 = CALENDAR_DATE ( 2018, 14, 11 ) ;
#353 = CARTESIAN_POINT ( 'NONE',  ( 0.5999999999999157100, -1.897959183673459500, 7.877182237323198800 ) ) ;
#354 = ORIENTED_EDGE ( 'NONE', *, *, #251, .F. ) ;
#355 = VERTEX_POINT ( 'NONE', #112 ) ;
#356 = DIRECTION ( 'NONE',  ( -0.0000000000000000000, -1.000000000000000000, -0.0000000000000000000 ) ) ;
#357 = DIRECTION ( 'NONE',  ( 0.0000000000000000000, 1.000000000000000000, 0.0000000000000000000 ) ) ;
#358 = ORIENTED_EDGE ( 'NONE', *, *, #627, .T. ) ;
#359 = EDGE_CURVE ( 'NONE', #635, #591, #682, .T. ) ;
#360 = DIRECTION ( 'NONE',  ( -0.0000000000000000000, -1.000000000000000000, -0.0000000000000000000 ) ) ;
#361 = ORIENTED_EDGE ( 'NONE', *, *, #437, .F. ) ;
#362 = FACE_OUTER_BOUND ( 'NONE', #703, .T. ) ;
#363 = EDGE_CURVE ( 'NONE', #256, #355, #811, .T. ) ;
#364 = CC_DESIGN_APPROVAL ( #450, ( #577 ) ) ;
#365 = DIRECTION ( 'NONE',  ( -0.0000000000000000000, -1.000000000000000000, -0.0000000000000000000 ) ) ;
#366 = FACE_OUTER_BOUND ( 'NONE', #399, .T. ) ;
#367 = ORIENTED_EDGE ( 'NONE', *, *, #403, .T. ) ;
#368 = ORIENTED_EDGE ( 'NONE', *, *, #218, .F. ) ;
#369 = EDGE_CURVE ( 'NONE', #166, #10, #2, .T. ) ;
#370 = CYLINDRICAL_SURFACE ( 'NONE', #809, 4.000000000000000000 ) ;
#371 = PLANE ( 'NONE',  #608 ) ;
#372 = SHAPE_DEFINITION_REPRESENTATION ( #530, #84 ) ;
#373 = ORIENTED_EDGE ( 'NONE', *, *, #363, .F. ) ;
#374 = CARTESIAN_POINT ( 'NONE',  ( -0.6000000000000121900, -7.264504116546025400E-017, 3.954743986657036600 ) ) ;
#375 = EDGE_LOOP ( 'NONE', ( #252, #241, #600, #630, #762, #222, #722, #802, #346, #652, #224, #456 ) ) ;
#376 = CARTESIAN_POINT ( 'NONE',  ( -3.954743986657037500, -1.897959183673459500, -0.6000000000000016400 ) ) ;
#377 = DIRECTION ( 'NONE',  ( 1.000000000000000000, 0.0000000000000000000, 0.0000000000000000000 ) ) ;
#378 = EDGE_LOOP ( 'NONE', ( #165, #688, #564, #581 ) ) ;
#379 = ADVANCED_FACE ( 'NONE', ( #203 ), #76, .F. ) ;
#380 = DIRECTION ( 'NONE',  ( 0.0000000000000000000, 0.0000000000000000000, -1.000000000000000000 ) ) ;
#381 = CYLINDRICAL_SURFACE ( 'NONE', #767, 4.000000000000000000 ) ;
#382 = PLANE ( 'NONE',  #655 ) ;
#383 = EDGE_CURVE ( 'NONE', #843, #179, #45, .T. ) ;
#384 = AXIS2_PLACEMENT_3D ( 'NONE', #445, #49, #259 ) ;
#385 = ORIENTED_EDGE ( 'NONE', *, *, #789, .F. ) ;
#386 = DIRECTION ( 'NONE',  ( -0.0000000000000000000, 1.000000000000000000, -0.0000000000000000000 ) ) ;
#387 = EDGE_LOOP ( 'NONE', ( #181, #69, #58, #518 ) ) ;
#388 = ORIENTED_EDGE ( 'NONE', *, *, #155, .T. ) ;
#389 = DIRECTION ( 'NONE',  ( 3.552713678800500900E-015, 0.0000000000000000000, -1.000000000000000000 ) ) ;
#390 = EDGE_CURVE ( 'NONE', #843, #256, #317, .T. ) ;
#391 = FACE_OUTER_BOUND ( 'NONE', #378, .T. ) ;
#392 = CARTESIAN_POINT ( 'NONE',  ( 0.6000000000000166300, 9.846372255697760400, -4.715093903928050200 ) ) ;
#393 = DIRECTION ( 'NONE',  ( -0.0000000000000000000, -1.000000000000000000, -0.0000000000000000000 ) ) ;
#394 = DIRECTION ( 'NONE',  ( 0.0000000000000000000, 1.000000000000000000, 0.0000000000000000000 ) ) ;
#395 = EDGE_LOOP ( 'NONE', ( #573, #506, #90, #705 ) ) ;
#396 = CARTESIAN_POINT ( 'NONE',  ( 0.0000000000000000000, -4.897959183673458800, -4.000000000000000000 ) ) ;
#397 = ADVANCED_FACE ( 'NONE', ( #327 ), #138, .F. ) ;
#398 = DIRECTION ( 'NONE',  ( 0.0000000000000000000, -0.0000000000000000000, -1.000000000000000000 ) ) ;
#399 = EDGE_LOOP ( 'NONE', ( #640, #130, #121, #476, #314, #281 ) ) ;
#400 = ORIENTED_EDGE ( 'NONE', *, *, #706, .T. ) ;
#401 = CARTESIAN_POINT ( 'NONE',  ( 4.715093903928052800, 9.846372255697760400, 0.6000000000000003100 ) ) ;
#402 = DIRECTION ( 'NONE',  ( -0.0000000000000000000, -1.000000000000000000, -0.0000000000000000000 ) ) ;
#403 = EDGE_CURVE ( 'NONE', #720, #582, #831, .T. ) ;
#404 = AXIS2_PLACEMENT_3D ( 'NONE', #257, #509, #514 ) ;
#405 = CC_DESIGN_PERSON_AND_ORGANIZATION_ASSIGNMENT ( #329, #490, ( #42 ) ) ;
#406 = CARTESIAN_POINT ( 'NONE',  ( 0.0000000000000000000, -1.897959183673458600, 0.0000000000000000000 ) ) ;
#407 = CARTESIAN_POINT ( 'NONE',  ( -3.954743986657038400, -7.264504116546025400E-017, 0.5999999999999984200 ) ) ;
#408 = DIRECTION ( 'NONE',  ( 3.491481338843133400E-015, 0.0000000000000000000, -1.000000000000000000 ) ) ;
#409 = ORIENTED_EDGE ( 'NONE', *, *, #271, .T. ) ;
#410 = DIRECTION ( 'NONE',  ( -0.0000000000000000000, -1.000000000000000000, -0.0000000000000000000 ) ) ;
#411 = ORIENTED_EDGE ( 'NONE', *, *, #642, .T. ) ;
#412 = AXIS2_PLACEMENT_3D ( 'NONE', #822, #365, #618 ) ;
#413 = ORIENTED_EDGE ( 'NONE', *, *, #855, .F. ) ;
#414 = CIRCLE ( 'NONE', #18, 4.753115875176986200 ) ;
#415 = DIRECTION ( 'NONE',  ( -0.0000000000000000000, -1.000000000000000000, -0.0000000000000000000 ) ) ;
#416 = CARTESIAN_POINT ( 'NONE',  ( 0.0000000000000000000, 0.0000000000000000000, 0.0000000000000000000 ) ) ;
#417 = EDGE_CURVE ( 'NONE', #637, #228, #633, .T. ) ;
#418 = FACE_OUTER_BOUND ( 'NONE', #529, .T. ) ;
#419 = DIRECTION ( 'NONE',  ( 0.0000000000000000000, 0.0000000000000000000, -1.000000000000000000 ) ) ;
#420 = DIRECTION ( 'NONE',  ( 0.0000000000000000000, 0.0000000000000000000, 1.000000000000000000 ) ) ;
#421 = VERTEX_POINT ( 'NONE', #738 ) ;
#422 = DIRECTION ( 'NONE',  ( -1.000000000000000000, 0.0000000000000000000, 0.0000000000000000000 ) ) ;
#423 = ORIENTED_EDGE ( 'NONE', *, *, #50, .T. ) ;
#424 = ORIENTED_EDGE ( 'NONE', *, *, #260, .F. ) ;
#425 = LINE ( 'NONE', #772, #72 ) ;
#426 = CARTESIAN_POINT ( 'NONE',  ( 7.900000000000000400, -1.897959183673459500, 0.6000000000000016400 ) ) ;
#427 = AXIS2_PLACEMENT_3D ( 'NONE', #132, #275, #668 ) ;
#428 = CARTESIAN_POINT ( 'NONE',  ( 0.0000000000000000000, -1.897959183673458600, 0.0000000000000000000 ) ) ;
#429 = VERTEX_POINT ( 'NONE', #396 ) ;
#430 = ORIENTED_EDGE ( 'NONE', *, *, #761, .T. ) ;
#431 = EDGE_LOOP ( 'NONE', ( #354, #183, #736, #851 ) ) ;
#432 = AXIS2_PLACEMENT_3D ( 'NONE', #75, #402, #545 ) ;
#433 = PRODUCT_DEFINITION_FORMATION_WITH_SPECIFIED_SOURCE ( 'ANY', '', #42, .NOT_KNOWN. ) ;
#434 = VECTOR ( 'NONE', #114, 1000.000000000000000 ) ;
#435 = DIRECTION ( 'NONE',  ( 0.0000000000000000000, 0.0000000000000000000, -1.000000000000000000 ) ) ;
#436 = PERSON_AND_ORGANIZATION_ROLE ( 'design_supplier' ) ;
#437 = EDGE_CURVE ( 'NONE', #228, #781, #491, .T. ) ;
#438 = PERSON_AND_ORGANIZATION_ROLE ( 'classification_officer' ) ;
#439 = PERSON_AND_ORGANIZATION ( #636, #769 ) ;
#440 = ORIENTED_EDGE ( 'NONE', *, *, #217, .T. ) ;
#441 = EDGE_LOOP ( 'NONE', ( #790, #17, #194, #430, #192, #659, #57, #593 ) ) ;
#442 = CARTESIAN_POINT ( 'NONE',  ( 0.0000000000000000000, -1.897959183673459500, 0.0000000000000000000 ) ) ;
#443 = LINE ( 'NONE', #691, #775 ) ;
#444 = EDGE_CURVE ( 'NONE', #591, #228, #771, .T. ) ;
#445 = CARTESIAN_POINT ( 'NONE',  ( 0.0000000000000000000, 9.846372255697760400, 4.000000000000000000 ) ) ;
#446 = DIRECTION ( 'NONE',  ( 0.0000000000000000000, 1.000000000000000000, 0.0000000000000000000 ) ) ;
#447 = ADVANCED_FACE ( 'NONE', ( #366 ), #481, .F. ) ;
#448 = EDGE_CURVE ( 'NONE', #566, #166, #161, .T. ) ;
#449 = AXIS2_PLACEMENT_3D ( 'NONE', #223, #684, #288 ) ;
#450 = APPROVAL ( #704, 'UNSPECIFIED' ) ;
#451 = DIRECTION ( 'NONE',  ( 0.0000000000000000000, 1.000000000000000000, 0.0000000000000000000 ) ) ;
#452 = PERSON_AND_ORGANIZATION ( #636, #769 ) ;
#453 = EDGE_LOOP ( 'NONE', ( #373, #295, #19, #474 ) ) ;
#454 = DIRECTION ( 'NONE',  ( -0.0000000000000000000, -1.000000000000000000, -0.0000000000000000000 ) ) ;
#455 = VERTEX_POINT ( 'NONE', #392 ) ;
#456 = ORIENTED_EDGE ( 'NONE', *, *, #348, .T. ) ;
#457 = CIRCLE ( 'NONE', #432, 4.000000000000000000 ) ;
#458 = CIRCLE ( 'NONE', #197, 4.000000000000000000 ) ;
#459 = DIRECTION ( 'NONE',  ( 0.0000000000000000000, 1.000000000000000000, 1.210750686091007300E-016 ) ) ;
#460 = DIRECTION ( 'NONE',  ( 0.0000000000000000000, 0.0000000000000000000, -1.000000000000000000 ) ) ;
#461 = VECTOR ( 'NONE', #40, 1000.000000000000000 ) ;
#462 = PLANE ( 'NONE',  #12 ) ;
#463 = DIRECTION ( 'NONE',  ( 0.0000000000000000000, 0.0000000000000000000, -1.000000000000000000 ) ) ;
#464 = ADVANCED_FACE ( 'NONE', ( #391 ), #549, .F. ) ;
#465 = DIRECTION ( 'NONE',  ( 1.000000000000000000, 1.210750686091007300E-016, 3.491481338843133400E-015 ) ) ;
#466 = EDGE_LOOP ( 'NONE', ( #707, #144, #742, #111, #475, #358, #675, #823, #400, #817, #731, #497 ) ) ;
#467 = ORIENTED_EDGE ( 'NONE', *, *, #34, .F. ) ;
#468 = CARTESIAN_POINT ( 'NONE',  ( -0.5999999999999791100, 5.932446729660306900, -5.772283950820788200 ) ) ;
#469 = EDGE_CURVE ( 'NONE', #843, #196, #768, .T. ) ;
#470 = DIRECTION ( 'NONE',  ( -3.491481338843133400E-015, -0.0000000000000000000, 1.000000000000000000 ) ) ;
#471 = CIRCLE ( 'NONE', #850, 7.900000000000000400 ) ;
#472 = PLANE ( 'NONE',  #799 ) ;
#473 = CARTESIAN_POINT ( 'NONE',  ( 0.5999999999999157100, -1.897959183673459500, 7.877182237323198800 ) ) ;
#474 = ORIENTED_EDGE ( 'NONE', *, *, #496, .F. ) ;
#475 = ORIENTED_EDGE ( 'NONE', *, *, #25, .T. ) ;
#476 = ORIENTED_EDGE ( 'NONE', *, *, #437, .T. ) ;
#477 = FACE_OUTER_BOUND ( 'NONE', #88, .T. ) ;
#478 = LINE ( 'NONE', #625, #245 ) ;
#479 = AXIS2_PLACEMENT_3D ( 'NONE', #209, #145, #206 ) ;
#480 = APPROVAL ( #829, 'UNSPECIFIED' ) ;
#481 = PLANE ( 'NONE',  #211 ) ;
#482 = DIRECTION ( 'NONE',  ( -0.0000000000000000000, -1.000000000000000000, -0.0000000000000000000 ) ) ;
#483 = CIRCLE ( 'NONE', #503, 4.753115875176986200 ) ;
#484 = CARTESIAN_POINT ( 'NONE',  ( -3.954743986657037500, 7.264504116546061200E-017, -0.6000000000000014200 ) ) ;
#485 = PLANE ( 'NONE',  #171 ) ;
#486 = EDGE_CURVE ( 'NONE', #429, #774, #586, .T. ) ;
#487 = VERTEX_POINT ( 'NONE', #81 ) ;
#488 = ORIENTED_EDGE ( 'NONE', *, *, #706, .F. ) ;
#489 = CARTESIAN_POINT ( 'NONE',  ( 4.715093903928052800, 9.846372255697760400, 0.6000000000000003100 ) ) ;
#490 = PERSON_AND_ORGANIZATION_ROLE ( 'design_owner' ) ;
#491 = LINE ( 'NONE', #538, #266 ) ;
#492 =( NAMED_UNIT ( * ) PLANE_ANGLE_UNIT ( ) SI_UNIT ( $, .RADIAN. ) );
#493 = PERSON_AND_ORGANIZATION ( #636, #769 ) ;
#494 = PERSON_AND_ORGANIZATION ( #636, #769 ) ;
#495 = VERTEX_POINT ( 'NONE', #225 ) ;
#496 = EDGE_CURVE ( 'NONE', #355, #196, #701, .T. ) ;
#497 = ORIENTED_EDGE ( 'NONE', *, *, #486, .T. ) ;
#498 = EDGE_CURVE ( 'NONE', #637, #635, #838, .T. ) ;
#499 = ORIENTED_EDGE ( 'NONE', *, *, #558, .F. ) ;
#500 = CIRCLE ( 'NONE', #261, 7.900000000000000400 ) ;
#501 = CARTESIAN_POINT ( 'NONE',  ( 3.954743986657038400, -1.897959183673459500, -0.5999999999999982000 ) ) ;
#502 = DIRECTION ( 'NONE',  ( 3.491481338843133400E-015, 0.0000000000000000000, -1.000000000000000000 ) ) ;
#503 = AXIS2_PLACEMENT_3D ( 'NONE', #686, #482, #13 ) ;
#504 = CONICAL_SURFACE ( 'NONE', #151, 4.753115875176986200, 0.2617993877991535200 ) ;
#505 = ORIENTED_EDGE ( 'NONE', *, *, #761, .F. ) ;
#506 = ORIENTED_EDGE ( 'NONE', *, *, #498, .T. ) ;
#507 = CARTESIAN_POINT ( 'NONE',  ( -7.900000000000000400, -1.897959183673459500, 0.5999999999999982000 ) ) ;
#508 = DATE_TIME_ROLE ( 'classification_date' ) ;
#509 = DIRECTION ( 'NONE',  ( -0.0000000000000000000, -1.000000000000000000, -0.0000000000000000000 ) ) ;
#510 = CARTESIAN_POINT ( 'NONE',  ( 0.0000000000000000000, -4.897959183673458800, 0.0000000000000000000 ) ) ;
#511 = EDGE_CURVE ( 'NONE', #156, #758, #341, .T. ) ;
#512 = LINE ( 'NONE', #507, #36 ) ;
#513 = CARTESIAN_POINT ( 'NONE',  ( 0.6000000000000291800, -1.897959183673459500, -7.900000000000027000 ) ) ;
#514 = DIRECTION ( 'NONE',  ( 0.0000000000000000000, 0.0000000000000000000, -1.000000000000000000 ) ) ;
#515 = DIRECTION ( 'NONE',  ( 1.000000000000000000, 0.0000000000000000000, 0.0000000000000000000 ) ) ;
#516 = ADVANCED_FACE ( 'NONE', ( #418 ), #616, .F. ) ;
#517 = PERSON_AND_ORGANIZATION ( #636, #769 ) ;
#518 = ORIENTED_EDGE ( 'NONE', *, *, #233, .T. ) ;
#519 = ORIENTED_EDGE ( 'NONE', *, *, #448, .F. ) ;
#520 = DIRECTION ( 'NONE',  ( 0.0000000000000000000, 0.0000000000000000000, -1.000000000000000000 ) ) ;
#521 = FACE_OUTER_BOUND ( 'NONE', #395, .T. ) ;
#522 = ADVANCED_FACE ( 'NONE', ( #719 ), #504, .T. ) ;
#523 = AXIS2_PLACEMENT_3D ( 'NONE', #9, #805, #4 ) ;
#524 = VECTOR ( 'NONE', #415, 1000.000000000000000 ) ;
#525 = CC_DESIGN_APPROVAL ( #480, ( #433 ) ) ;
#526 = CARTESIAN_POINT ( 'NONE',  ( -7.877182237323192600, -1.897959183673459500, 0.5999999999999982000 ) ) ;
#527 = DIRECTION ( 'NONE',  ( 0.0000000000000000000, -1.000000000000000000, -0.0000000000000000000 ) ) ;
#528 = ORIENTED_EDGE ( 'NONE', *, *, #60, .T. ) ;
#529 = EDGE_LOOP ( 'NONE', ( #236, #240, #108, #277 ) ) ;
#530 = PRODUCT_DEFINITION_SHAPE ( 'NONE', 'NONE',  #137 ) ;
#531 = ADVANCED_FACE ( 'NONE', ( #667 ), #462, .F. ) ;
#532 = CARTESIAN_POINT ( 'NONE',  ( 0.0000000000000000000, -4.897959183673458800, 7.900000000000000400 ) ) ;
#533 = EDGE_CURVE ( 'NONE', #495, #146, #561, .T. ) ;
#534 = AXIS2_PLACEMENT_3D ( 'NONE', #854, #386, #389 ) ;
#535 = PLANE ( 'NONE',  #662 ) ;
#536 = FACE_OUTER_BOUND ( 'NONE', #571, .T. ) ;
#537 = CARTESIAN_POINT ( 'NONE',  ( -0.5999999999999748900, 2.017327616332146100, -6.825045388604227300 ) ) ;
#538 = CARTESIAN_POINT ( 'NONE',  ( 0.5999999999999154900, -1.897959183673459500, 7.900000000000090900 ) ) ;
#539 = ORIENTED_EDGE ( 'NONE', *, *, #338, .F. ) ;
#540 = ORIENTED_EDGE ( 'NONE', *, *, #271, .F. ) ;
#541 = FACE_OUTER_BOUND ( 'NONE', #431, .T. ) ;
#542 = AXIS2_PLACEMENT_3D ( 'NONE', #654, #785, #380 ) ;
#543 = CARTESIAN_POINT ( 'NONE',  ( -7.877182237323192600, -1.897959183673459500, 0.5999999999999982000 ) ) ;
#544 = CC_DESIGN_SECURITY_CLASSIFICATION ( #577, ( #433 ) ) ;
#545 = DIRECTION ( 'NONE',  ( 0.0000000000000000000, 0.0000000000000000000, -1.000000000000000000 ) ) ;
#546 = DIRECTION ( 'NONE',  ( 0.0000000000000000000, 0.0000000000000000000, -1.000000000000000000 ) ) ;
#547 = CARTESIAN_POINT ( 'NONE',  ( 0.0000000000000000000, 9.846372255697760400, 4.000000000000000000 ) ) ;
#548 =( GEOMETRIC_REPRESENTATION_CONTEXT ( 3 ) GLOBAL_UNCERTAINTY_ASSIGNED_CONTEXT ( ( #570 ) ) GLOBAL_UNIT_ASSIGNED_CONTEXT ( ( #301, #492, #294 ) ) REPRESENTATION_CONTEXT ( 'NONE', 'WORKASPACE' ) );
#549 = PLANE ( 'NONE',  #242 ) ;
#550 = ORIENTED_EDGE ( 'NONE', *, *, #715, .T. ) ;
#551 = VERTEX_POINT ( 'NONE', #797 ) ;
#552 = DIRECTION ( 'NONE',  ( -1.000000000000000000, -1.210750686091007300E-016, -3.491481338843133400E-015 ) ) ;
#553 = DIRECTION ( 'NONE',  ( 0.0000000000000000000, -0.0000000000000000000, -1.000000000000000000 ) ) ;
#554 = APPLICATION_PROTOCOL_DEFINITION ( 'international standard', 'config_control_design', 1994, #87 ) ;
#555 = LINE ( 'NONE', #193, #741 ) ;
#556 = COORDINATED_UNIVERSAL_TIME_OFFSET ( 0, 0, .AHEAD. ) ;
#557 = DIRECTION ( 'NONE',  ( 0.0000000000000000000, 1.000000000000000000, -1.210750686091007300E-016 ) ) ;
#558 = EDGE_CURVE ( 'NONE', #282, #637, #291, .T. ) ;
#559 = ORIENTED_EDGE ( 'NONE', *, *, #218, .T. ) ;
#560 = AXIS2_PLACEMENT_3D ( 'NONE', #674, #796, #398 ) ;
#561 = CIRCLE ( 'NONE', #347, 4.000000000000000000 ) ;
#562 = DIRECTION ( 'NONE',  ( 0.0000000000000000000, 1.000000000000000000, 0.0000000000000000000 ) ) ;
#563 = DIRECTION ( 'NONE',  ( 0.0000000000000000000, 0.0000000000000000000, -1.000000000000000000 ) ) ;
#564 = ORIENTED_EDGE ( 'NONE', *, *, #789, .T. ) ;
#565 = AXIS2_PLACEMENT_3D ( 'NONE', #679, #284, #732 ) ;
#566 = VERTEX_POINT ( 'NONE', #342 ) ;
#567 = CARTESIAN_POINT ( 'NONE',  ( 0.0000000000000000000, 0.0000000000000000000, 0.0000000000000000000 ) ) ;
#568 = LINE ( 'NONE', #730, #319 ) ;
#569 = DIRECTION ( 'NONE',  ( 0.0000000000000000000, 0.0000000000000000000, -1.000000000000000000 ) ) ;
#570 = UNCERTAINTY_MEASURE_WITH_UNIT (LENGTH_MEASURE( 1.000000000000000100E-005 ), #301, 'distance_accuracy_value', 'NONE');
#571 = EDGE_LOOP ( 'NONE', ( #243, #540, #574, #488 ) ) ;
#572 = CARTESIAN_POINT ( 'NONE',  ( 0.0000000000000000000, 9.846372255697760400, 0.0000000000000000000 ) ) ;
#573 = ORIENTED_EDGE ( 'NONE', *, *, #417, .F. ) ;
#574 = ORIENTED_EDGE ( 'NONE', *, *, #369, .T. ) ;
#575 = DIRECTION ( 'NONE',  ( -3.491481338843133400E-015, 0.0000000000000000000, 1.000000000000000000 ) ) ;
#576 = EDGE_CURVE ( 'NONE', #421, #487, #568, .T. ) ;
#577 = SECURITY_CLASSIFICATION ( '', '', #44 ) ;
#578 = CARTESIAN_POINT ( 'NONE',  ( 0.6000000000000154100, -1.897959183673459500, -3.954743986657035700 ) ) ;
#579 = CARTESIAN_POINT ( 'NONE',  ( 0.5999999999999577900, 9.846372255697760400, 4.000000000000006200 ) ) ;
#580 = EDGE_LOOP ( 'NONE', ( #646, #763, #467, #804 ) ) ;
#581 = ORIENTED_EDGE ( 'NONE', *, *, #25, .F. ) ;
#582 = VERTEX_POINT ( 'NONE', #199 ) ;
#583 = DIRECTION ( 'NONE',  ( 0.0000000000000000000, 0.0000000000000000000, -1.000000000000000000 ) ) ;
#584 = ADVANCED_FACE ( 'NONE', ( #62 ), #535, .F. ) ;
#585 = DIRECTION ( 'NONE',  ( -0.0000000000000000000, -1.000000000000000000, -0.0000000000000000000 ) ) ;
#586 = CIRCLE ( 'NONE', #56, 4.000000000000000000 ) ;
#587 = EDGE_CURVE ( 'NONE', #782, #179, #176, .T. ) ;
#588 = EDGE_LOOP ( 'NONE', ( #67, #367, #559, #818 ) ) ;
#589 = DIRECTION ( 'NONE',  ( -0.0000000000000000000, -1.000000000000000000, -0.0000000000000000000 ) ) ;
#590 = DIRECTION ( 'NONE',  ( -0.0000000000000000000, -1.000000000000000000, -0.0000000000000000000 ) ) ;
#591 = VERTEX_POINT ( 'NONE', #335 ) ;
#592 = CARTESIAN_POINT ( 'NONE',  ( 0.0000000000000000000, 9.846372255697760400, 4.000000000000000000 ) ) ;
#593 = ORIENTED_EDGE ( 'NONE', *, *, #298, .F. ) ;
#594 = EDGE_CURVE ( 'NONE', #770, #720, #839, .T. ) ;
#595 = ADVANCED_FACE ( 'NONE', ( #83 ), #381, .F. ) ;
#596 = CARTESIAN_POINT ( 'NONE',  ( 0.5999999999999567900, -1.897959183673459500, 3.954743986657044600 ) ) ;
#597 = DIRECTION ( 'NONE',  ( 0.0000000000000000000, 0.0000000000000000000, -1.000000000000000000 ) ) ;
#598 = PLANE ( 'NONE',  #560 ) ;
#599 = CARTESIAN_POINT ( 'NONE',  ( -0.6000000000000194100, 5.932446729660305200, 5.772283950820783700 ) ) ;
#600 = ORIENTED_EDGE ( 'NONE', *, *, #247, .T. ) ;
#601 = DATE_AND_TIME ( #28, #141 ) ;
#602 = VERTEX_POINT ( 'NONE', #73 ) ;
#603 = AXIS2_PLACEMENT_3D ( 'NONE', #814, #285, #150 ) ;
#604 = CARTESIAN_POINT ( 'NONE',  ( 0.0000000000000000000, -1.897959183673458600, 0.0000000000000000000 ) ) ;
#605 = VERTEX_POINT ( 'NONE', #526 ) ;
#606 = CLOSED_SHELL ( 'NONE', ( #191, #714, #71, #717, #584, #522, #63, #852, #595, #397, #205, #653, #663, #186, #379, #328, #55, #516, #666, #447, #531, #728, #464, #844, #265 ) ) ;
#607 = DIRECTION ( 'NONE',  ( 0.0000000000000000000, 0.0000000000000000000, -1.000000000000000000 ) ) ;
#608 = AXIS2_PLACEMENT_3D ( 'NONE', #173, #53, #254 ) ;
#609 = CARTESIAN_POINT ( 'NONE',  ( 0.0000000000000000000, 9.846372255697760400, 0.0000000000000000000 ) ) ;
#610 = CARTESIAN_POINT ( 'NONE',  ( -0.6000000000000257300, -1.897959183673458600, 7.877182237323190800 ) ) ;
#611 = CARTESIAN_POINT ( 'NONE',  ( -7.900000000000000400, -1.897959183673459500, -0.6000000000000016400 ) ) ;
#612 = LINE ( 'NONE', #374, #127 ) ;
#613 = EDGE_CURVE ( 'NONE', #334, #551, #26, .T. ) ;
#614 = AXIS2_PLACEMENT_3D ( 'NONE', #96, #157, #27 ) ;
#615 = VECTOR ( 'NONE', #502, 1000.000000000000000 ) ;
#616 = PLANE ( 'NONE',  #651 ) ;
#617 = DIRECTION ( 'NONE',  ( 0.0000000000000000000, 0.0000000000000000000, -1.000000000000000000 ) ) ;
#618 = DIRECTION ( 'NONE',  ( 0.0000000000000000000, 0.0000000000000000000, -1.000000000000000000 ) ) ;
#619 = ORIENTED_EDGE ( 'NONE', *, *, #247, .F. ) ;
#620 = CIRCLE ( 'NONE', #700, 4.000000000000000000 ) ;
#621 = DIRECTION ( 'NONE',  ( -0.0000000000000000000, -1.000000000000000000, -0.0000000000000000000 ) ) ;
#622 = DIRECTION ( 'NONE',  ( 0.0000000000000000000, 0.0000000000000000000, -1.000000000000000000 ) ) ;
#623 = ORIENTED_EDGE ( 'NONE', *, *, #298, .T. ) ;
#624 = VECTOR ( 'NONE', #238, 1000.000000000000000 ) ;
#625 = CARTESIAN_POINT ( 'NONE',  ( -0.6000000000000136300, 9.846372255697760400, 3.999999999999998200 ) ) ;
#626 = CALENDAR_DATE ( 2018, 14, 11 ) ;
#627 = EDGE_CURVE ( 'NONE', #747, #323, #232, .T. ) ;
#628 = ORIENTED_EDGE ( 'NONE', *, *, #309, .T. ) ;
#629 = APPROVAL ( #246, 'UNSPECIFIED' ) ;
#630 = ORIENTED_EDGE ( 'NONE', *, *, #821, .F. ) ;
#631 = VECTOR ( 'NONE', #394, 1000.000000000000000 ) ;
#632 = APPROVAL_ROLE ( '' ) ;
#633 = CIRCLE ( 'NONE', #31, 7.900000000000000400 ) ;
#634 = PERSON_AND_ORGANIZATION ( #636, #769 ) ;
#635 = VERTEX_POINT ( 'NONE', #401 ) ;
#636 = PERSON ( 'UNSPECIFIED', 'UNSPECIFIED', 'UNSPECIFIED', ('UNSPECIFIED'), ('UNSPECIFIED'), ('UNSPECIFIED') ) ;
#637 = VERTEX_POINT ( 'NONE', #657 ) ;
#638 = CARTESIAN_POINT ( 'NONE',  ( 3.954743986657037500, 9.846372255697760400, 0.6000000000000003100 ) ) ;
#639 = CARTESIAN_POINT ( 'NONE',  ( -7.900000000000000400, -1.897959183673459500, 0.5999999999999982000 ) ) ;
#640 = ORIENTED_EDGE ( 'NONE', *, *, #594, .T. ) ;
#641 = DIRECTION ( 'NONE',  ( 0.0000000000000000000, 1.000000000000000000, 0.0000000000000000000 ) ) ;
#642 = EDGE_CURVE ( 'NONE', #282, #323, #555, .T. ) ;
#643 = CARTESIAN_POINT ( 'NONE',  ( 0.0000000000000000000, 9.846372255697760400, -0.5999999999999998700 ) ) ;
#644 = FACE_OUTER_BOUND ( 'NONE', #588, .T. ) ;
#645 = APPROVAL_DATE_TIME ( #601, #450 ) ;
#646 = ORIENTED_EDGE ( 'NONE', *, *, #642, .F. ) ;
#647 = ORIENTED_EDGE ( 'NONE', *, *, #50, .F. ) ;
#648 = EDGE_LOOP ( 'NONE', ( #99, #619 ) ) ;
#649 = DIRECTION ( 'NONE',  ( 0.0000000000000000000, -0.0000000000000000000, 1.000000000000000000 ) ) ;
#650 = LINE ( 'NONE', #219, #631 ) ;
#651 = AXIS2_PLACEMENT_3D ( 'NONE', #350, #794, #330 ) ;
#652 = ORIENTED_EDGE ( 'NONE', *, *, #338, .T. ) ;
#653 = ADVANCED_FACE ( 'NONE', ( #54 ), #14, .T. ) ;
#654 = CARTESIAN_POINT ( 'NONE',  ( 0.0000000000000000000, -1.897959183673458600, 0.0000000000000000000 ) ) ;
#655 = AXIS2_PLACEMENT_3D ( 'NONE', #847, #672, #459 ) ;
#656 = FACE_OUTER_BOUND ( 'NONE', #375, .T. ) ;
#657 = CARTESIAN_POINT ( 'NONE',  ( 7.877182237323192600, -1.897959183673458600, 0.6000000000000016400 ) ) ;
#658 = APPROVAL_PERSON_ORGANIZATION ( #493, #629, #832 ) ;
#659 = ORIENTED_EDGE ( 'NONE', *, *, #855, .T. ) ;
#660 = CARTESIAN_POINT ( 'NONE',  ( 0.0000000000000000000, 9.846372255697760400, 4.000000000000000000 ) ) ;
#661 = VERTEX_POINT ( 'NONE', #126 ) ;
#662 = AXIS2_PLACEMENT_3D ( 'NONE', #660, #665, #583 ) ;
#663 = ADVANCED_FACE ( 'NONE', ( #709, #216 ), #787, .F. ) ;
#664 = FACE_OUTER_BOUND ( 'NONE', #744, .T. ) ;
#665 = DIRECTION ( 'NONE',  ( 0.0000000000000000000, -1.000000000000000000, -0.0000000000000000000 ) ) ;
#666 = ADVANCED_FACE ( 'NONE', ( #536 ), #485, .F. ) ;
#667 = FACE_OUTER_BOUND ( 'NONE', #307, .T. ) ;
#668 = DIRECTION ( 'NONE',  ( 0.0000000000000000000, 0.0000000000000000000, -1.000000000000000000 ) ) ;
#669 = DIRECTION ( 'NONE',  ( -3.491481338843133400E-015, 0.0000000000000000000, 1.000000000000000000 ) ) ;
#670 = CARTESIAN_POINT ( 'NONE',  ( 0.0000000000000000000, 9.846372255697760400, 0.0000000000000000000 ) ) ;
#671 = CALENDAR_DATE ( 2018, 14, 11 ) ;
#672 = DIRECTION ( 'NONE',  ( 0.0000000000000000000, 1.210750686091007300E-016, -1.000000000000000000 ) ) ;
#673 = ORIENTED_EDGE ( 'NONE', *, *, #627, .F. ) ;
#674 = CARTESIAN_POINT ( 'NONE',  ( -0.5999999999999706700, -1.897959183673459500, -7.900000000000030600 ) ) ;
#675 = ORIENTED_EDGE ( 'NONE', *, *, #202, .T. ) ;
#676 = CARTESIAN_POINT ( 'NONE',  ( -0.6000000000000120800, -1.897959183673459500, 3.954743986657035700 ) ) ;
#677 = ORIENTED_EDGE ( 'NONE', *, *, #403, .F. ) ;
#678 = EDGE_CURVE ( 'NONE', #421, #720, #753, .T. ) ;
#679 = CARTESIAN_POINT ( 'NONE',  ( 0.0000000000000000000, 0.0000000000000000000, 0.0000000000000000000 ) ) ;
#680 = CC_DESIGN_PERSON_AND_ORGANIZATION_ASSIGNMENT ( #164, #438, ( #577 ) ) ;
#681 = DIRECTION ( 'NONE',  ( 0.0000000000000000000, 0.0000000000000000000, -1.000000000000000000 ) ) ;
#682 = CIRCLE ( 'NONE', #101, 4.753115875176986200 ) ;
#683 = AXIS2_PLACEMENT_3D ( 'NONE', #135, #849, #460 ) ;
#684 = DIRECTION ( 'NONE',  ( -0.0000000000000000000, 1.000000000000000000, -0.0000000000000000000 ) ) ;
#685 = CARTESIAN_POINT ( 'NONE',  ( 0.0000000000000000000, -4.897959183673458800, 0.0000000000000000000 ) ) ;
#686 = CARTESIAN_POINT ( 'NONE',  ( 0.0000000000000000000, 9.846372255697760400, 0.0000000000000000000 ) ) ;
#687 = VERTEX_POINT ( 'NONE', #221 ) ;
#688 = ORIENTED_EDGE ( 'NONE', *, *, #498, .F. ) ;
#689 = CARTESIAN_POINT ( 'NONE',  ( -0.5999999999999846600, -7.264504116546025400E-017, -3.954743986657040200 ) ) ;
#690 = EDGE_CURVE ( 'NONE', #566, #343, #351, .T. ) ;
#691 = CARTESIAN_POINT ( 'NONE',  ( 0.0000000000000000000, 9.846372255697760400, 0.5999999999999998700 ) ) ;
#692 = VECTOR ( 'NONE', #562, 1000.000000000000000 ) ;
#693 = CARTESIAN_POINT ( 'NONE',  ( 4.898587196589412800E-016, -4.897959183673458800, 4.000000000000000000 ) ) ;
#694 = ORIENTED_EDGE ( 'NONE', *, *, #594, .F. ) ;
#695 = PLANE ( 'NONE',  #837 ) ;
#696 = ORIENTED_EDGE ( 'NONE', *, *, #168, .F. ) ;
#697 = VECTOR ( 'NONE', #446, 1000.000000000000000 ) ;
#698 = LINE ( 'NONE', #187, #434 ) ;
#699 = DIRECTION ( 'NONE',  ( 0.0000000000000000000, 0.0000000000000000000, -1.000000000000000000 ) ) ;
#700 = AXIS2_PLACEMENT_3D ( 'NONE', #86, #230, #617 ) ;
#701 = LINE ( 'NONE', #484, #524 ) ;
#702 = AXIS2_PLACEMENT_3D ( 'NONE', #279, #51, #189 ) ;
#703 = EDGE_LOOP ( 'NONE', ( #550, #235, #321, #207 ) ) ;
#704 = APPROVAL_STATUS ( 'not_yet_approved' ) ;
#705 = ORIENTED_EDGE ( 'NONE', *, *, #444, .T. ) ;
#706 = EDGE_CURVE ( 'NONE', #334, #10, #848, .T. ) ;
#707 = ORIENTED_EDGE ( 'NONE', *, *, #104, .F. ) ;
#708 = AXIS2_PLACEMENT_3D ( 'NONE', #547, #22, #745 ) ;
#709 = FACE_BOUND ( 'NONE', #648, .T. ) ;
#710 = DIRECTION ( 'NONE',  ( 0.0000000000000000000, 0.0000000000000000000, -1.000000000000000000 ) ) ;
#711 = CARTESIAN_POINT ( 'NONE',  ( 0.0000000000000000000, 9.846372255697760400, 0.0000000000000000000 ) ) ;
#712 = ORIENTED_EDGE ( 'NONE', *, *, #110, .T. ) ;
#713 = CARTESIAN_POINT ( 'NONE',  ( 0.0000000000000000000, 9.846372255697760400, -0.5999999999999998700 ) ) ;
#714 = ADVANCED_FACE ( 'NONE', ( #656 ), #370, .F. ) ;
#715 = EDGE_CURVE ( 'NONE', #256, #782, #483, .T. ) ;
#716 = PRODUCT_RELATED_PRODUCT_CATEGORY ( 'detail', '', ( #42 ) ) ;
#717 = ADVANCED_FACE ( 'NONE', ( #827 ), #812, .F. ) ;
#718 = PLANE ( 'NONE',  #384 ) ;
#719 = FACE_OUTER_BOUND ( 'NONE', #833, .T. ) ;
#720 = VERTEX_POINT ( 'NONE', #610 ) ;
#721 = AXIS2_PLACEMENT_3D ( 'NONE', #604, #149, #607 ) ;
#722 = ORIENTED_EDGE ( 'NONE', *, *, #155, .F. ) ;
#723 = DIRECTION ( 'NONE',  ( 1.000000000000000000, -1.210750686091007300E-016, 1.047444401652940000E-014 ) ) ;
#724 = VECTOR ( 'NONE', #318, 1000.000000000000000 ) ;
#725 = CARTESIAN_POINT ( 'NONE',  ( -0.5999999999999706700, -1.897959183673459500, -7.900000000000030600 ) ) ;
#726 = CARTESIAN_POINT ( 'NONE',  ( 0.5999999999999386900, 5.932446718641368300, 5.772283953797116700 ) ) ;
#727 = VECTOR ( 'NONE', #15, 1000.000000000000000 ) ;
#728 = ADVANCED_FACE ( 'NONE', ( #188 ), #143, .F. ) ;
#729 = ORIENTED_EDGE ( 'NONE', *, *, #136, .F. ) ;
#730 = CARTESIAN_POINT ( 'NONE',  ( 9.674709713264090100E-016, 0.0000000000000000000, 7.900000000000000400 ) ) ;
#731 = ORIENTED_EDGE ( 'NONE', *, *, #821, .T. ) ;
#732 = DIRECTION ( 'NONE',  ( 0.0000000000000000000, 0.0000000000000000000, -1.000000000000000000 ) ) ;
#733 = FACE_OUTER_BOUND ( 'NONE', #220, .T. ) ;
#734 = CIRCLE ( 'NONE', #479, 7.900000000000000400 ) ;
#735 = CARTESIAN_POINT ( 'NONE',  ( -3.954743986657038400, -1.897959183673459500, 0.5999999999999982000 ) ) ;
#736 = ORIENTED_EDGE ( 'NONE', *, *, #613, .T. ) ;
#737 = CARTESIAN_POINT ( 'NONE',  ( -4.715093903928052800, 9.846372255697760400, 0.5999999999999996400 ) ) ;
#738 = CARTESIAN_POINT ( 'NONE',  ( 9.674709713264090100E-016, -1.897959183673458600, 7.900000000000000400 ) ) ;
#739 = CARTESIAN_POINT ( 'NONE',  ( 0.6000000000000249600, 2.017327615960243100, -6.825045388704162400 ) ) ;
#740 = CARTESIAN_POINT ( 'NONE',  ( 0.0000000000000000000, -4.897959183673458800, 0.0000000000000000000 ) ) ;
#741 = VECTOR ( 'NONE', #788, 1000.000000000000000 ) ;
#742 = ORIENTED_EDGE ( 'NONE', *, *, #260, .T. ) ;
#743 = CARTESIAN_POINT ( 'NONE',  ( 0.6000000000000259600, 24.96641970805180600, -7.900000000000027000 ) ) ;
#744 = EDGE_LOOP ( 'NONE', ( #385, #499, #411, #673 ) ) ;
#745 = DIRECTION ( 'NONE',  ( 0.0000000000000000000, 0.0000000000000000000, -1.000000000000000000 ) ) ;
#746 = ORIENTED_EDGE ( 'NONE', *, *, #417, .T. ) ;
#747 = VERTEX_POINT ( 'NONE', #274 ) ;
#748 = AXIS2_PLACEMENT_3D ( 'NONE', #195, #331, #463 ) ;
#749 = DIRECTION ( 'NONE',  ( -0.0000000000000000000, 1.210750686091007300E-016, 1.000000000000000000 ) ) ;
#750 = CARTESIAN_POINT ( 'NONE',  ( 0.0000000000000000000, -4.897959183673458800, -7.900000000000000400 ) ) ;
#751 = CARTESIAN_POINT ( 'NONE',  ( 5.772283953797109600, 5.932446718641370100, 0.6000000000000007500 ) ) ;
#752 = DIRECTION ( 'NONE',  ( -0.0000000000000000000, 1.000000000000000000, -0.0000000000000000000 ) ) ;
#753 = CIRCLE ( 'NONE', #721, 7.900000000000000400 ) ;
#754 = AXIS2_PLACEMENT_3D ( 'NONE', #532, #451, #649 ) ;
#755 = LOCAL_TIME ( 15, 17, 47.00000000000000000, #556 ) ;
#756 = DIRECTION ( 'NONE',  ( -0.0000000000000000000, -1.000000000000000000, -0.0000000000000000000 ) ) ;
#757 = ORIENTED_EDGE ( 'NONE', *, *, #251, .T. ) ;
#758 = VERTEX_POINT ( 'NONE', #16 ) ;
#759 = CARTESIAN_POINT ( 'NONE',  ( 0.0000000000000000000, -1.897959183673459500, 0.0000000000000000000 ) ) ;
#760 = CARTESIAN_POINT ( 'NONE',  ( -0.6000000000000136300, 9.846372255697760400, 3.999999999999998200 ) ) ;
#761 = EDGE_CURVE ( 'NONE', #605, #843, #471, .T. ) ;
#762 = ORIENTED_EDGE ( 'NONE', *, *, #168, .T. ) ;
#763 = ORIENTED_EDGE ( 'NONE', *, *, #110, .F. ) ;
#764 = CIRCLE ( 'NONE', #190, 7.900000000000000400 ) ;
#765 = CIRCLE ( 'NONE', #404, 4.000000000000000000 ) ;
#766 = PERSON_AND_ORGANIZATION_ROLE ( 'creator' ) ;
#767 = AXIS2_PLACEMENT_3D ( 'NONE', #273, #267, #61 ) ;
#768 = LINE ( 'NONE', #611, #727 ) ;
#769 = ORGANIZATION ( 'UNSPECIFIED', 'UNSPECIFIED', '' ) ;
#770 = VERTEX_POINT ( 'NONE', #676 ) ;
#771 = B_SPLINE_CURVE_WITH_KNOTS ( 'NONE', 3,
 ( #70, #726, #808, #353 ),
 .UNSPECIFIED., .F., .F.,
 ( 4, 4 ),
 ( 0.009927123038462703000, 0.02208966218203876200 ),
 .UNSPECIFIED. ) ;
#772 = CARTESIAN_POINT ( 'NONE',  ( 0.5999999999999863200, 9.846372255697760400, 4.000000000000001800 ) ) ;
#773 = ORIENTED_EDGE ( 'NONE', *, *, #348, .F. ) ;
#774 = VERTEX_POINT ( 'NONE', #693 ) ;
#775 = VECTOR ( 'NONE', #303, 1000.000000000000000 ) ;
#776 = CARTESIAN_POINT ( 'NONE',  ( 0.5999999999999582300, 9.846372255697760400, 3.954743986657043700 ) ) ;
#777 = MANIFOLD_SOLID_BREP ( 'CirPattern1', #606 ) ;
#778 = CARTESIAN_POINT ( 'NONE',  ( 0.0000000000000000000, -1.897959183673458600, 0.0000000000000000000 ) ) ;
#779 = VERTEX_POINT ( 'NONE', #735 ) ;
#780 = COORDINATED_UNIVERSAL_TIME_OFFSET ( 0, 0, .AHEAD. ) ;
#781 = VERTEX_POINT ( 'NONE', #596 ) ;
#782 = VERTEX_POINT ( 'NONE', #276 ) ;
#783 = CARTESIAN_POINT ( 'NONE',  ( -6.825045388604221900, 2.017327616332147000, 0.5999999999999986500 ) ) ;
#784 = CARTESIAN_POINT ( 'NONE',  ( -0.5999999999999832100, 9.846372255697760400, -4.715093903928054600 ) ) ;
#785 = DIRECTION ( 'NONE',  ( -0.0000000000000000000, -1.000000000000000000, -0.0000000000000000000 ) ) ;
#786 = EDGE_CURVE ( 'NONE', #635, #172, #134, .T. ) ;
#787 = PLANE ( 'NONE',  #754 ) ;
#788 = DIRECTION ( 'NONE',  ( -1.000000000000000000, -0.0000000000000000000, -0.0000000000000000000 ) ) ;
#789 = EDGE_CURVE ( 'NONE', #637, #747, #302, .T. ) ;
#790 = ORIENTED_EDGE ( 'NONE', *, *, #576, .F. ) ;
#791 = AXIS2_PLACEMENT_3D ( 'NONE', #759, #752, #622 ) ;
#792 = CARTESIAN_POINT ( 'NONE',  ( -0.6000000000000225200, 2.017327616332148300, 6.825045388604220200 ) ) ;
#793 = ORIENTED_EDGE ( 'NONE', *, *, #33, .F. ) ;
#794 = DIRECTION ( 'NONE',  ( -1.000000000000000000, -1.210750686091007300E-016, -3.491481338843133400E-015 ) ) ;
#795 = CARTESIAN_POINT ( 'NONE',  ( -0.6000000000000257300, -1.897959183673458600, 7.877182237323190800 ) ) ;
#796 = DIRECTION ( 'NONE',  ( 0.0000000000000000000, -1.000000000000000000, 0.0000000000000000000 ) ) ;
#797 = CARTESIAN_POINT ( 'NONE',  ( 3.954743986657037500, 9.846372255697760400, -0.5999999999999998700 ) ) ;
#798 = VECTOR ( 'NONE', #422, 1000.000000000000000 ) ;
#799 = AXIS2_PLACEMENT_3D ( 'NONE', #639, #527, #3 ) ;
#800 = DATE_AND_TIME ( #128, #118 ) ;
#801 = DATE_AND_TIME ( #671, #178 ) ;
#802 = ORIENTED_EDGE ( 'NONE', *, *, #496, .T. ) ;
#803 = EDGE_CURVE ( 'NONE', #770, #661, #310, .T. ) ;
#804 = ORIENTED_EDGE ( 'NONE', *, *, #202, .F. ) ;
#805 = DIRECTION ( 'NONE',  ( 0.0000000000000000000, -1.210750686091007300E-016, 1.000000000000000000 ) ) ;
#806 = CONICAL_SURFACE ( 'NONE', #702, 4.753115875176986200, 0.2617993877991535200 ) ;
#807 = VECTOR ( 'NONE', #840, 1000.000000000000000 ) ;
#808 = CARTESIAN_POINT ( 'NONE',  ( 0.5999999999999271500, 2.017327615960240000, 6.825045388704172200 ) ) ;
#809 = AXIS2_PLACEMENT_3D ( 'NONE', #416, #212, #77 ) ;
#810 = DIRECTION ( 'NONE',  ( 0.0000000000000000000, 0.0000000000000000000, -1.000000000000000000 ) ) ;
#811 = LINE ( 'NONE', #643, #175 ) ;
#812 = PLANE ( 'NONE',  #708 ) ;
#813 = DATE_AND_TIME ( #626, #755 ) ;
#814 = CARTESIAN_POINT ( 'NONE',  ( 0.0000000000000000000, -1.897959183673458600, 0.0000000000000000000 ) ) ;
#815 = CARTESIAN_POINT ( 'NONE',  ( 0.0000000000000000000, -4.897959183673458800, 0.0000000000000000000 ) ) ;
#816 = MECHANICAL_CONTEXT ( 'NONE', #92, 'mechanical' ) ;
#817 = ORIENTED_EDGE ( 'NONE', *, *, #836, .T. ) ;
#818 = ORIENTED_EDGE ( 'NONE', *, *, #174, .T. ) ;
#819 = ORIENTED_EDGE ( 'NONE', *, *, #845, .T. ) ;
#820 = CARTESIAN_POINT ( 'NONE',  ( 0.0000000000000000000, 9.846372255697760400, 0.6000000000000003100 ) ) ;
#821 = EDGE_CURVE ( 'NONE', #8, #429, #162, .T. ) ;
#822 = CARTESIAN_POINT ( 'NONE',  ( 0.0000000000000000000, -1.897959183673458600, 0.0000000000000000000 ) ) ;
#823 = ORIENTED_EDGE ( 'NONE', *, *, #613, .F. ) ;
#824 = ORIENTED_EDGE ( 'NONE', *, *, #349, .T. ) ;
#825 = ORIENTED_EDGE ( 'NONE', *, *, #444, .F. ) ;
#826 = FACE_OUTER_BOUND ( 'NONE', #453, .T. ) ;
#827 = FACE_OUTER_BOUND ( 'NONE', #387, .T. ) ;
#828 = DIRECTION ( 'NONE',  ( -0.0000000000000000000, -1.000000000000000000, -0.0000000000000000000 ) ) ;
#829 = APPROVAL_STATUS ( 'not_yet_approved' ) ;
#830 = AXIS2_PLACEMENT_3D ( 'NONE', #740, #590, #339 ) ;
#831 = B_SPLINE_CURVE_WITH_KNOTS ( 'NONE', 3,
 ( #795, #792, #599, #268 ),
 .UNSPECIFIED., .F., .F.,
 ( 4, 4 ),
 ( 0.009834776469314529900, 0.02199734861402773800 ),
 .UNSPECIFIED. ) ;
#832 = APPROVAL_ROLE ( '' ) ;
#833 = EDGE_LOOP ( 'NONE', ( #729, #409, #757, #712 ) ) ;
#834 = ORIENTED_EDGE ( 'NONE', *, *, #33, .T. ) ;
#835 = CARTESIAN_POINT ( 'NONE',  ( 0.6000000000000291800, -1.897959183673459500, -7.877182237323190800 ) ) ;
#836 = EDGE_CURVE ( 'NONE', #10, #8, #97, .T. ) ;
#837 = AXIS2_PLACEMENT_3D ( 'NONE', #98, #306, #557 ) ;
#838 = B_SPLINE_CURVE_WITH_KNOTS ( 'NONE', 3,
 ( #229, #20, #751, #489 ),
 .UNSPECIFIED., .F., .F.,
 ( 4, 4 ),
 ( 0.009889931081211332200, 0.02205250322203278900 ),
 .UNSPECIFIED. ) ;
#839 = LINE ( 'NONE', #725, #239 ) ;
#840 = DIRECTION ( 'NONE',  ( -0.0000000000000000000, -1.000000000000000000, -0.0000000000000000000 ) ) ;
#841 = DATE_AND_TIME ( #352, #85 ) ;
#842 = EDGE_LOOP ( 'NONE', ( #300, #258, #129, #539 ) ) ;
#843 = VERTEX_POINT ( 'NONE', #29 ) ;
#844 = ADVANCED_FACE ( 'NONE', ( #234 ), #695, .F. ) ;
#845 = EDGE_CURVE ( 'NONE', #758, #782, #250, .T. ) ;
#846 = AXIS2_PLACEMENT_3D ( 'NONE', #231, #420, #24 ) ;
#847 = CARTESIAN_POINT ( 'NONE',  ( -7.900000000000000400, 24.96641970805180600, -0.5999999999999984200 ) ) ;
#848 = LINE ( 'NONE', #215, #153 ) ;
#849 = DIRECTION ( 'NONE',  ( -0.0000000000000000000, -1.000000000000000000, -0.0000000000000000000 ) ) ;
#850 = AXIS2_PLACEMENT_3D ( 'NONE', #428, #360, #699 ) ;
#851 = ORIENTED_EDGE ( 'NONE', *, *, #34, .T. ) ;
#852 = ADVANCED_FACE ( 'NONE', ( #644 ), #177, .T. ) ;
#853 = ORIENTED_EDGE ( 'NONE', *, *, #136, .T. ) ;
#854 = CARTESIAN_POINT ( 'NONE',  ( 0.0000000000000000000, -1.897959183673459500, 0.0000000000000000000 ) ) ;
#855 = EDGE_CURVE ( 'NONE', #179, #566, #5, .T. ) ;
ENDSEC;
END-ISO-10303-21;
